{
  "izbori": "Zastupnički izbori 2024",
  "datum": "15.04.2024.",
  "vrijeme": "15:00",
  "izboriOznaka": "02",
  "ijSifra": "009",
  "bmSifra": "000",
  "ijNaziv": "IX. IZBORNA JEDINICA",
  "gropNaziv": "ZADAR",
  "bmNaziv": "",
  "bmZatvoreno": 67,
  "bmUkupno": 71,
  "biraciUkupno": 53066,
  "biraciGlasovalo": 20713,
  "biraciGlasovaloPosto": "39,03",
  "listiciUkupno": 20700,
  "listiciVazeci": 20268,
  "listiciVazeciPosto": "97,91",
  "listiciNevazeci": 432,
  "listiciNevazeciPosto": "2,09",
  "napomena": "* - objavljeni rezultati sadrže podatke samo s redovnih biračkih mjesta",
  "napomena2": "",
  "lista": [{
    "rbr": 1,
    "stranke": [
      {"naziv": "RIČARD NEZAVISNI"}
    ],
    "jedinstvenaSifra": "313",
    "glasova": 7129,
    "naziv": "RIČARD NEZAVISNI",
    "posto": "35,17",
    "lista": [{
      "rbr": 1,
      "naziv": "MARIN PIJACA",
      "glasova": 1388,
      "posto": "19,46"
    },{
      "rbr": 2,
      "naziv": "DRITA DUNATOV",
      "glasova": 1243,
      "posto": "17,43"
    },{
      "rbr": 3,
      "naziv": "RINO RADOS",
      "glasova": 1388,
      "posto": "19,46"
    },{
      "rbr": 4,
      "naziv": "ANADIA KOŽUL",
      "glasova": 460,
      "posto": "6,45"
    },{
      "rbr": 5,
      "naziv": "ŽELJKO KRIZMAN",
      "glasova": 244,
      "posto": "3,42"
    },{
      "rbr": 6,
      "naziv": "ADELA FRANK",
      "glasova": 386,
      "posto": "5,41"
    },{
      "rbr": 7,
      "naziv": "VITO DOVRANIĆ",
      "glasova": 532,
      "posto": "7,46"
    },{
      "rbr": 8,
      "naziv": "LUCIA MATEŠIĆ",
      "glasova": 676,
      "posto": "9,48"
    },{
      "rbr": 9,
      "naziv": "MARKO ŽORŽ",
      "glasova": 95,
      "posto": "1,33"
    },{
      "rbr": 10,
      "naziv": "ANTONIA MEŠTROVIĆ",
      "glasova": 172,
      "posto": "2,41"
    },{
      "rbr": 11,
      "naziv": "IVAN JURKOVIĆ",
      "glasova": 199,
      "posto": "2,79"
    },{
      "rbr": 12,
      "naziv": "BRANKICA MATULJ",
      "glasova": 43,
      "posto": "0,60"
    },{
      "rbr": 13,
      "naziv": "SRĐAN ČUKLIN",
      "glasova": 108,
      "posto": "1,51"
    },{
      "rbr": 14,
      "naziv": "DAVOR OLIĆ",
      "glasova": 103,
      "posto": "1,44"
    }]
  },{
    "rbr": 2,
    "stranke": [
      {"naziv": "AKCIJA ZA PROMJENE"},
      {"naziv": "AGRARNA STRANKA - POKRET ZA HRVATSKU POLJOPRIVREDU"}
    ],
    "jedinstvenaSifra": "303305",
    "glasova": 4778,
    "naziv": "AKCIJA ZA PROMJENE, AGRARNA STRANKA - POKRET ZA HRVATSKU POLJOPRIVREDU",
    "posto": "23,57",
    "lista": [{
      "rbr": 1,
      "naziv": "MARKO JELIĆ",
      "glasova": 941,
      "posto": "19,69"
    },{
      "rbr": 2,
      "naziv": "IVICA ŽUVELA",
      "glasova": 319,
      "posto": "6,67"
    },{
      "rbr": 3,
      "naziv": "MARKO GRUBELIĆ",
      "glasova": 174,
      "posto": "3,64"
    },{
      "rbr": 4,
      "naziv": "KRISTINA PERIĆ",
      "glasova": 267,
      "posto": "5,58"
    },{
      "rbr": 5,
      "naziv": "BRUNO MIŠLOV",
      "glasova": 372,
      "posto": "7,78"
    },{
      "rbr": 6,
      "naziv": "SNJEŽANA JOLIĆ",
      "glasova": 462,
      "posto": "9,66"
    },{
      "rbr": 7,
      "naziv": "SANJA RADIN-MAČUKAT",
      "glasova": 58,
      "posto": "1,21"
    },{
      "rbr": 8,
      "naziv": "JASMINKA TOMIĆ",
      "glasova": 123,
      "posto": "2,57"
    },{
      "rbr": 9,
      "naziv": "SANJA LULIĆ",
      "glasova": 893,
      "posto": "18,68"
    },{
      "rbr": 10,
      "naziv": "JELENA KAIĆ",
      "glasova": 849,
      "posto": "17,76"
    },{
      "rbr": 11,
      "naziv": "ANTE ŠEPAROVIĆ",
      "glasova": 31,
      "posto": "0,64"
    },{
      "rbr": 12,
      "naziv": "LIDIJA SLAVIĆ",
      "glasova": 53,
      "posto": "1,10"
    },{
      "rbr": 13,
      "naziv": "ZLATKO ĆESIĆ",
      "glasova": 69,
      "posto": "1,44"
    },{
      "rbr": 14,
      "naziv": "GORAN MLADENOVIĆ",
      "glasova": 120,
      "posto": "2,51"
    }]
  },{
    "rbr": 3,
    "stranke": [
      {"naziv": "JAVNO DOBRO"}
    ],
    "jedinstvenaSifra": "309",
    "glasova": 2065,
    "naziv": "JAVNO DOBRO",
    "posto": "10,18",
    "lista": [{
      "rbr": 1,
      "naziv": "MARJANA BOTIĆ",
      "glasova": 429,
      "posto": "20,77"
    },{
      "rbr": 2,
      "naziv": "IVAN TEŠIJA",
      "glasova": 384,
      "posto": "18,59"
    },{
      "rbr": 3,
      "naziv": "ŽELJAN JURLIN",
      "glasova": 429,
      "posto": "20,77"
    },{
      "rbr": 4,
      "naziv": "MIRTA TOMAS",
      "glasova": 145,
      "posto": "7,02"
    },{
      "rbr": 5,
      "naziv": "ZRINKA MATKOVIĆ VICULIN",
      "glasova": 81,
      "posto": "3,92"
    },{
      "rbr": 6,
      "naziv": "VJERAN DUVNJAK",
      "glasova": 131,
      "posto": "6,34"
    },{
      "rbr": 7,
      "naziv": "ROBERTO JENJIĆ",
      "glasova": 180,
      "posto": "8,71"
    },{
      "rbr": 8,
      "naziv": "TATJANA PAUN",
      "glasova": 211,
      "posto": "10,21"
    },{
      "rbr": 9,
      "naziv": "NINA VELČIĆ BUSANIĆ",
      "glasova": 0,
      "posto": "0,00"
    },{
      "rbr": 10,
      "naziv": "MARIO ŽIVKOVIĆ",
      "glasova": 18,
      "posto": "0,87"
    },{
      "rbr": 11,
      "naziv": "TEA KURTIĆ",
      "glasova": 57,
      "posto": "2,76"
    },{
      "rbr": 12,
      "naziv": "SLAVEN ŠIMIĆ",
      "glasova": 0,
      "posto": "0,00"
    },{
      "rbr": 13,
      "naziv": "LADISLAV RADOSLOVIĆ",
      "glasova": 0,
      "posto": "0,00"
    },{
      "rbr": 14,
      "naziv": "ARSEN MUJAGIĆ",
      "glasova": 0,
      "posto": "0,00"
    }]
  },{
    "rbr": 4,
    "stranke": [
      {"naziv": "HRVATSKA STRANKA PRAVA - HSP"},
      {"naziv": "HRVATSKO BILO"},
      {"naziv": "HRVATSKA DEMOKRATSKA SELJAČKA STRANKA - HDSS"}
    ],
    "jedinstvenaSifra": "007018308",
    "glasova": 824,
    "naziv": "HSP, HRVATSKO BILO, HDSS",
    "posto": "4,06",
    "lista": [{
      "rbr": 1,
      "naziv": "ŽELJKO GLASNOVIĆ",
      "glasova": 195,
      "posto": "23,66"
    },{
      "rbr": 2,
      "naziv": "ANGELO ŽILIĆ",
      "glasova": 137,
      "posto": "16,62"
    },{
      "rbr": 3,
      "naziv": "MARKO SKEJO",
      "glasova": 105,
      "posto": "12,74"
    },{
      "rbr": 4,
      "naziv": "LUKA PODRUG",
      "glasova": 74,
      "posto": "8,98"
    },{
      "rbr": 5,
      "naziv": "ANA NIMAC",
      "glasova": 116,
      "posto": "14,07"
    },{
      "rbr": 6,
      "naziv": "IVANKA ŠPRALJA",
      "glasova": 58,
      "posto": "7,03"
    },{
      "rbr": 7,
      "naziv": "LUCIJA SKORUP",
      "glasova": 56,
      "posto": "6,79"
    },{
      "rbr": 8,
      "naziv": "GORDANA PUTNIK",
      "glasova": 27,
      "posto": "3,27"
    },{
      "rbr": 9,
      "naziv": "HELENA MIŠKOVIĆ DUŽEVIĆ",
      "glasova": 16,
      "posto": "1,94"
    },{
      "rbr": 10,
      "naziv": "IVONA ŠPRALJA",
      "glasova": 39,
      "posto": "4,73"
    },{
      "rbr": 11,
      "naziv": "MLADEN BOBIĆ",
      "glasova": 0,
      "posto": "0,00"
    },{
      "rbr": 12,
      "naziv": "ALBERT BOŽULIĆ",
      "glasova": 1,
      "posto": "0,12"
    },{
      "rbr": 13,
      "naziv": "ANTO KOMLJEN",
      "glasova": 0,
      "posto": "0,00"
    },{
      "rbr": 14,
      "naziv": "MATE LUKIĆ",
      "glasova": 0,
      "posto": "0,00"
    }]
  },{
    "rbr": 5,
    "stranke": [
      {"naziv": "AUTOHTONA - HRVATSKA STRANKA PRAVA - DRAŽEN KELEMINEC - A - HSP - Dražen Keleminec"}
    ],
    "jedinstvenaSifra": "049",
    "glasova": 639,
    "naziv": "A - HSP - Dražen Keleminec",
    "posto": "3,15",
    "lista": [{
      "rbr": 1,
      "naziv": "ELVIS MEIĆ-SIDIĆ",
      "glasova": 151,
      "posto": "23,63"
    },{
      "rbr": 2,
      "naziv": "PAŠKO UJAKOVIĆ",
      "glasova": 141,
      "posto": "22,06"
    },{
      "rbr": 3,
      "naziv": "MATE GOTOVAC",
      "glasova": 149,
      "posto": "23,31"
    },{
      "rbr": 4,
      "naziv": "TANJA MESAROŠ",
      "glasova": 41,
      "posto": "6,41"
    },{
      "rbr": 5,
      "naziv": "IVICA BAŠIĆ",
      "glasova": 0,
      "posto": "0,00"
    },{
      "rbr": 6,
      "naziv": "MARIJA MIOČ",
      "glasova": 21,
      "posto": "3,28"
    },{
      "rbr": 7,
      "naziv": "ANTO VUKADIN",
      "glasova": 55,
      "posto": "8,60"
    },{
      "rbr": 8,
      "naziv": "PETAR MILAVIĆ",
      "glasova": 81,
      "posto": "12,67"
    },{
      "rbr": 9,
      "naziv": "SNJEŽANA PLETIKOSA",
      "glasova": 0,
      "posto": "0,00"
    },{
      "rbr": 10,
      "naziv": "KREŠIMIR BAKOVIĆ",
      "glasova": 0,
      "posto": "0,00"
    },{
      "rbr": 11,
      "naziv": "KRISTINA VUKADIN",
      "glasova": 0,
      "posto": "0,00"
    },{
      "rbr": 12,
      "naziv": "JOSIP MESAROŠ",
      "glasova": 0,
      "posto": "0,00"
    },{
      "rbr": 13,
      "naziv": "KRISTINA UJAKOVIĆ",
      "glasova": 0,
      "posto": "0,00"
    },{
      "rbr": 14,
      "naziv": "LJILJA VUKADIN",
      "glasova": 0,
      "posto": "0,00"
    }]
  },{
    "rbr": 6,
    "stranke": [
      {"naziv": "HRVATSKA STRANKA PRAVA DR. ANTE STARČEVIĆ"}
    ],
    "jedinstvenaSifra": "096",
    "glasova": 638,
    "naziv": "HRVATSKA STRANKA PRAVA DR. ANTE STARČEVIĆ",
    "posto": "3,14",
    "lista": [{
      "rbr": 1,
      "naziv": "SLOBODAN DEVIĆ",
      "glasova": 151,
      "posto": "23,66"
    },{
      "rbr": 2,
      "naziv": "IVICA MIKULIĆ",
      "glasova": 113,
      "posto": "17,71"
    },{
      "rbr": 3,
      "naziv": "MIRANDA JAMNICKI DOIMI DI DELUPIS",
      "glasova": 82,
      "posto": "12,85"
    },{
      "rbr": 4,
      "naziv": "NENAD KLARIĆ",
      "glasova": 57,
      "posto": "8,93"
    },{
      "rbr": 5,
      "naziv": "IVE MILETIĆ",
      "glasova": 102,
      "posto": "15,98"
    },{
      "rbr": 6,
      "naziv": "VESNA PALEKA",
      "glasova": 55,
      "posto": "8,62"
    },{
      "rbr": 7,
      "naziv": "NATHALIE DIJOUX BRALIĆ",
      "glasova": 50,
      "posto": "7,83"
    },{
      "rbr": 8,
      "naziv": "ANTE KATALINIĆ",
      "glasova": 4,
      "posto": "0,62"
    },{
      "rbr": 9,
      "naziv": "ŽELJKA BARIČEVIĆ",
      "glasova": 0,
      "posto": "0,00"
    },{
      "rbr": 10,
      "naziv": "ENA BLAGOJEVIĆ",
      "glasova": 17,
      "posto": "2,66"
    },{
      "rbr": 11,
      "naziv": "MARIO ZRILIĆ",
      "glasova": 0,
      "posto": "0,00"
    },{
      "rbr": 12,
      "naziv": "JASMINKA KEKIĆ ŽEPINA",
      "glasova": 7,
      "posto": "1,09"
    },{
      "rbr": 13,
      "naziv": "SILVIJA HLUBNI BARABA",
      "glasova": 0,
      "posto": "0,00"
    },{
      "rbr": 14,
      "naziv": "BOŽIDAR LOKIN",
      "glasova": 0,
      "posto": "0,00"
    }]
  },{
    "rbr": 7,
    "stranke": [
      {"naziv": "SOCIJALDEMOKRATI"},
      {"naziv": "ISTARSKI DEMOKRATSKI SABOR - IDS"},
      {"naziv": "PRIMORSKO GORANSKI SAVEZ - PGS"},
      {"naziv": "HRVATSKI LABURISTI - STRANKA RADA - LABURISTI"},
      {"naziv": "DEMOKRATI"}
    ],
    "jedinstvenaSifra": "005006100251299",
    "glasova": 635,
    "naziv": "SOCIJALDEMOKRATI, IDS, PGS, LABURISTI, DEMOKRATI",
    "posto": "3,13",
    "lista": [{
      "rbr": 1,
      "naziv": "FRANKO VIDOVIĆ",
      "glasova": 151,
      "posto": "23,77"
    },{
      "rbr": 2,
      "naziv": "RENATA SABLJAR-DRAČEVAC",
      "glasova": 141,
      "posto": "22,20"
    },{
      "rbr": 3,
      "naziv": "MARIJAN STAREŠINIĆ",
      "glasova": 149,
      "posto": "23,46"
    },{
      "rbr": 4,
      "naziv": "RADOSLAVA GREGOV",
      "glasova": 40,
      "posto": "6,29"
    },{
      "rbr": 5,
      "naziv": "MARIO DRAUŠNIK",
      "glasova": 0,
      "posto": "0,00"
    },{
      "rbr": 6,
      "naziv": "ANKICA KOSOVEC-KRŽELJ",
      "glasova": 20,
      "posto": "3,14"
    },{
      "rbr": 7,
      "naziv": "MLADEN MATIJAŠEC",
      "glasova": 55,
      "posto": "8,66"
    },{
      "rbr": 8,
      "naziv": "ZLATKO VUIĆ",
      "glasova": 79,
      "posto": "12,44"
    },{
      "rbr": 9,
      "naziv": "DIANA MARTINOVIĆ",
      "glasova": 0,
      "posto": "0,00"
    },{
      "rbr": 10,
      "naziv": "ANA-MARIJA ČULE IVKIĆ",
      "glasova": 0,
      "posto": "0,00"
    },{
      "rbr": 11,
      "naziv": "FABIANA VIDOVIĆ",
      "glasova": 0,
      "posto": "0,00"
    },{
      "rbr": 12,
      "naziv": "IVAN KOZOLIĆ",
      "glasova": 0,
      "posto": "0,00"
    },{
      "rbr": 13,
      "naziv": "ANTONIJA ŠMISL MATKIĆ",
      "glasova": 0,
      "posto": "0,00"
    },{
      "rbr": 14,
      "naziv": "JOSIP MANDIĆ",
      "glasova": 0,
      "posto": "0,00"
    }]
  },{
    "rbr": 8,
    "stranke": [
      {"naziv": "HRVATSKA DEMOKRATSKA ZAJEDNICA - HDZ"},
      {"naziv": "HRVATSKA SOCIJALNO - LIBERALNA STRANKA - HSLS"},
      {"naziv": "HRVATSKA DEMOKRŠĆANSKA STRANKA - HDS"},
      {"naziv": "HRVATSKA NARODNA STRANKA - LIBERALNI DEMOKRATI - HNS"},
      {"naziv": "HRVATSKA STRANKA UMIROVLJENIKA - HSU"}
    ],
    "jedinstvenaSifra": "001002003011023",
    "glasova": 612,
    "naziv": "HDZ, HSLS, HDS, HNS, HSU",
    "posto": "3,01",
    "lista": [{
      "rbr": 1,
      "naziv": "IVAN MALENICA",
      "glasova": 148,
      "posto": "24,18"
    },{
      "rbr": 2,
      "naziv": "ŠIME ERLIĆ",
      "glasova": 111,
      "posto": "18,13"
    },{
      "rbr": 3,
      "naziv": "ANTE SANADER",
      "glasova": 78,
      "posto": "12,74"
    },{
      "rbr": 4,
      "naziv": "BRANKA JURIČEV-MARTINČEV",
      "glasova": 57,
      "posto": "9,31"
    },{
      "rbr": 5,
      "naziv": "JOSIP BILAVER",
      "glasova": 97,
      "posto": "15,84"
    },{
      "rbr": 6,
      "naziv": "IVAN BUGARIN",
      "glasova": 53,
      "posto": "8,66"
    },{
      "rbr": 7,
      "naziv": "HRVOJE ZEKANOVIĆ",
      "glasova": 50,
      "posto": "8,16"
    },{
      "rbr": 8,
      "naziv": "ANTE BABIĆ",
      "glasova": 0,
      "posto": "0,00"
    },{
      "rbr": 9,
      "naziv": "JAKOV VETMA",
      "glasova": 0,
      "posto": "0,00"
    },{
      "rbr": 10,
      "naziv": "NIKOLINA BARADIĆ",
      "glasova": 13,
      "posto": "2,12"
    },{
      "rbr": 11,
      "naziv": "PERICA BOSANČIĆ",
      "glasova": 0,
      "posto": "0,00"
    },{
      "rbr": 12,
      "naziv": "JURE BRIŽIĆ",
      "glasova": 4,
      "posto": "0,65"
    },{
      "rbr": 13,
      "naziv": "TONČI GLAVINA",
      "glasova": 1,
      "posto": "0,16"
    },{
      "rbr": 14,
      "naziv": "ŽELJKO BURIĆ",
      "glasova": 0,
      "posto": "0,00"
    }]
  },{
    "rbr": 9,
    "stranke": [
      {"naziv": "DOMOVINSKI POKRET - DP"},
      {"naziv": "PRAVO I PRAVDA"}
    ],
    "jedinstvenaSifra": "267312",
    "glasova": 575,
    "naziv": "DP, PRAVO I PRAVDA",
    "posto": "2,83",
    "lista": [{
      "rbr": 1,
      "naziv": "DAMIR BILOGLAV",
      "glasova": 144,
      "posto": "25,04"
    },{
      "rbr": 2,
      "naziv": "IVAN ŠIPIĆ",
      "glasova": 86,
      "posto": "14,95"
    },{
      "rbr": 3,
      "naziv": "PREDRAG MIŠIĆ",
      "glasova": 6,
      "posto": "1,04"
    },{
      "rbr": 4,
      "naziv": "IVE ĆALETA-CAR",
      "glasova": 72,
      "posto": "12,52"
    },{
      "rbr": 5,
      "naziv": "FRANE TOKIĆ",
      "glasova": 70,
      "posto": "12,17"
    },{
      "rbr": 6,
      "naziv": "DANIJEL KOTLAR",
      "glasova": 62,
      "posto": "10,78"
    },{
      "rbr": 7,
      "naziv": "MIRO MORO",
      "glasova": 83,
      "posto": "14,43"
    },{
      "rbr": 8,
      "naziv": "ANAMARIJA FRANKIĆ",
      "glasova": 0,
      "posto": "0,00"
    },{
      "rbr": 9,
      "naziv": "SNJEŽANA KULIŠ",
      "glasova": 0,
      "posto": "0,00"
    },{
      "rbr": 10,
      "naziv": "JELENA GRGIĆ",
      "glasova": 37,
      "posto": "6,43"
    },{
      "rbr": 11,
      "naziv": "MARIJA ŠARAC",
      "glasova": 15,
      "posto": "2,60"
    },{
      "rbr": 12,
      "naziv": "DANICA ŽARKO",
      "glasova": 0,
      "posto": "0,00"
    },{
      "rbr": 13,
      "naziv": "SNEŽANA ŽAJA",
      "glasova": 0,
      "posto": "0,00"
    },{
      "rbr": 14,
      "naziv": "DAMJAN VUCELIĆ",
      "glasova": 0,
      "posto": "0,00"
    }]
  },{
    "rbr": 10,
    "stranke": [
      {"naziv": "FOKUS"},
      {"naziv": "REPUBLIKA"}
    ],
    "jedinstvenaSifra": "270310",
    "glasova": 436,
    "naziv": "FOKUS, REPUBLIKA",
    "posto": "2,15",
    "lista": [{
      "rbr": 1,
      "naziv": "GORAN ŠIMIĆ",
      "glasova": 113,
      "posto": "25,91"
    },{
      "rbr": 2,
      "naziv": "NIKŠA KULUŠIĆ",
      "glasova": 21,
      "posto": "4,81"
    },{
      "rbr": 3,
      "naziv": "MIRJANA PLEČKO",
      "glasova": 0,
      "posto": "0,00"
    },{
      "rbr": 4,
      "naziv": "FILIP JAGARINEC",
      "glasova": 9,
      "posto": "2,06"
    },{
      "rbr": 5,
      "naziv": "LORENZO UJEVIĆ",
      "glasova": 32,
      "posto": "7,33"
    },{
      "rbr": 6,
      "naziv": "ŠIME MARTINOVIĆ",
      "glasova": 45,
      "posto": "10,32"
    },{
      "rbr": 7,
      "naziv": "SANDA POLIČAK KOKIĆ",
      "glasova": 0,
      "posto": "0,00"
    },{
      "rbr": 8,
      "naziv": "MARTINA KRPETIĆ",
      "glasova": 0,
      "posto": "0,00"
    },{
      "rbr": 9,
      "naziv": "MIRA LUČEV",
      "glasova": 108,
      "posto": "24,77"
    },{
      "rbr": 10,
      "naziv": "ANTE ČUBRIĆ",
      "glasova": 108,
      "posto": "24,77"
    },{
      "rbr": 11,
      "naziv": "ANTONELA GAROFULIĆ",
      "glasova": 0,
      "posto": "0,00"
    },{
      "rbr": 12,
      "naziv": "SLAĐANA PAVLOVIĆ",
      "glasova": 0,
      "posto": "0,00"
    },{
      "rbr": 13,
      "naziv": "SLAVIŠA PAVLOVIĆ",
      "glasova": 0,
      "posto": "0,00"
    },{
      "rbr": 14,
      "naziv": "IVAN GULAM",
      "glasova": 0,
      "posto": "0,00"
    }]
  },{
    "rbr": 11,
    "stranke": [
      {"naziv": "RADNIČKA FRONTA - RF"}
    ],
    "jedinstvenaSifra": "168",
    "glasova": 396,
    "naziv": "RF",
    "posto": "1,95",
    "lista": [{
      "rbr": 1,
      "naziv": "BORIS MIJAKOVAC",
      "glasova": 108,
      "posto": "27,27"
    },{
      "rbr": 2,
      "naziv": "LUJANA PARAMAN",
      "glasova": 71,
      "posto": "17,92"
    },{
      "rbr": 3,
      "naziv": "TONI BEDALOV",
      "glasova": 55,
      "posto": "13,88"
    },{
      "rbr": 4,
      "naziv": "ANĐELKA ANTULOV",
      "glasova": 50,
      "posto": "12,62"
    },{
      "rbr": 5,
      "naziv": "IVAN BARIĆ",
      "glasova": 60,
      "posto": "15,15"
    },{
      "rbr": 6,
      "naziv": "KATARINA NEMET",
      "glasova": 30,
      "posto": "7,57"
    },{
      "rbr": 7,
      "naziv": "IVO MATULIĆ",
      "glasova": 22,
      "posto": "5,55"
    },{
      "rbr": 8,
      "naziv": "GORAN KAUZLARIĆ",
      "glasova": 0,
      "posto": "0,00"
    },{
      "rbr": 9,
      "naziv": "BORISLAVA VULIĆ",
      "glasova": 0,
      "posto": "0,00"
    },{
      "rbr": 10,
      "naziv": "GORDANA ŽIC",
      "glasova": 0,
      "posto": "0,00"
    },{
      "rbr": 11,
      "naziv": "SLAVEN KUPINA",
      "glasova": 0,
      "posto": "0,00"
    },{
      "rbr": 12,
      "naziv": "MARGARITA ZIKOLLAJ BARBARIĆ",
      "glasova": 0,
      "posto": "0,00"
    },{
      "rbr": 13,
      "naziv": "BELA NADJ",
      "glasova": 0,
      "posto": "0,00"
    },{
      "rbr": 14,
      "naziv": "MARIO MARKOVINA",
      "glasova": 0,
      "posto": "0,00"
    }]
  },{
    "rbr": 12,
    "stranke": [
      {"naziv": "STRANKA IVANA PERNARA"}
    ],
    "jedinstvenaSifra": "259",
    "glasova": 378,
    "naziv": "STRANKA IVANA PERNARA",
    "posto": "1,86",
    "lista": [{
      "rbr": 1,
      "naziv": "DANIEL MIJATOVIĆ",
      "glasova": 105,
      "posto": "27,77"
    },{
      "rbr": 2,
      "naziv": "SAMANTA KNEŽEVIĆ",
      "glasova": 99,
      "posto": "26,19"
    },{
      "rbr": 3,
      "naziv": "DANIJEL BALTIĆ",
      "glasova": 101,
      "posto": "26,71"
    },{
      "rbr": 4,
      "naziv": "ANDREA NOVAKOVIĆ",
      "glasova": 5,
      "posto": "1,32"
    },{
      "rbr": 5,
      "naziv": "KRISTIAN ŠULJAK",
      "glasova": 0,
      "posto": "0,00"
    },{
      "rbr": 6,
      "naziv": "TINA ALMIĆ",
      "glasova": 1,
      "posto": "0,26"
    },{
      "rbr": 7,
      "naziv": "DOLORES MILOVAC",
      "glasova": 25,
      "posto": "6,61"
    },{
      "rbr": 8,
      "naziv": "GRGO PLAZINA",
      "glasova": 42,
      "posto": "11,11"
    },{
      "rbr": 9,
      "naziv": "NIKOLINA UJAKOVIĆ",
      "glasova": 0,
      "posto": "0,00"
    },{
      "rbr": 10,
      "naziv": "IVAN ĐURIĆ",
      "glasova": 0,
      "posto": "0,00"
    },{
      "rbr": 11,
      "naziv": "LUKA MOHENSKI",
      "glasova": 0,
      "posto": "0,00"
    },{
      "rbr": 12,
      "naziv": "ROBERT BUZOV",
      "glasova": 0,
      "posto": "0,00"
    },{
      "rbr": 13,
      "naziv": "HANA BEKINA",
      "glasova": 0,
      "posto": "0,00"
    },{
      "rbr": 14,
      "naziv": "BRANKO BUZOV",
      "glasova": 0,
      "posto": "0,00"
    }]
  },{
    "rbr": 13,
    "stranke": [
      {"naziv": "SOCIJALDEMOKRATSKA PARTIJA HRVATSKE - SDP"},
      {"naziv": "CENTAR"},
      {"naziv": "HRVATSKA SELJAČKA STRANKA - HSS"},
      {"naziv": "\"DALIJA OREŠKOVIĆ I LJUDI S IMENOM I PREZIMENOM\" - \"DO i SIP\""},
      {"naziv": "NARODNA STRANKA - REFORMISTI - REFORMISTI"},
      {"naziv": "GRAĐANSKO-LIBERALNI SAVEZ - GLAS"}
    ],
    "jedinstvenaSifra": "004017162179244306",
    "glasova": 376,
    "naziv": "SDP, CENTAR, HSS, \"DO i SIP\", REFORMISTI, GLAS",
    "posto": "1,85",
    "lista": [{
      "rbr": 1,
      "naziv": "SABINA GLASOVAC",
      "glasova": 105,
      "posto": "27,92"
    },{
      "rbr": 2,
      "naziv": "TONČI RESTOVIĆ",
      "glasova": 99,
      "posto": "26,32"
    },{
      "rbr": 3,
      "naziv": "IRENA DRAGIĆ",
      "glasova": 101,
      "posto": "26,86"
    },{
      "rbr": 4,
      "naziv": "IGOR SKOKO",
      "glasova": 5,
      "posto": "1,32"
    },{
      "rbr": 5,
      "naziv": "BRANKO GRČIĆ",
      "glasova": 0,
      "posto": "0,00"
    },{
      "rbr": 6,
      "naziv": "NATAŠA DELONGA POPARIĆ",
      "glasova": 1,
      "posto": "0,26"
    },{
      "rbr": 7,
      "naziv": "DANIEL RADETA",
      "glasova": 25,
      "posto": "6,64"
    },{
      "rbr": 8,
      "naziv": "RUŽICA JAKŠIĆ",
      "glasova": 40,
      "posto": "10,63"
    },{
      "rbr": 9,
      "naziv": "KARLO KLARIN",
      "glasova": 0,
      "posto": "0,00"
    },{
      "rbr": 10,
      "naziv": "IVANA VUČENOVIĆ",
      "glasova": 0,
      "posto": "0,00"
    },{
      "rbr": 11,
      "naziv": "IVANA PERIŠIN",
      "glasova": 0,
      "posto": "0,00"
    },{
      "rbr": 12,
      "naziv": "ZDENKO JUKIĆ",
      "glasova": 0,
      "posto": "0,00"
    },{
      "rbr": 13,
      "naziv": "ANJA RAMADŽA",
      "glasova": 0,
      "posto": "0,00"
    },{
      "rbr": 14,
      "naziv": "PETAR VRVILO",
      "glasova": 0,
      "posto": "0,00"
    }]
  },{
    "rbr": 14,
    "stranke": [
      {"naziv": "ODLUČNOST I PRAVEDNOST - OIP"}
    ],
    "jedinstvenaSifra": "300",
    "glasova": 327,
    "naziv": "OIP",
    "posto": "1,61",
    "lista": [{
      "rbr": 1,
      "naziv": "DENIS MARIĆ",
      "glasova": 89,
      "posto": "27,21"
    },{
      "rbr": 2,
      "naziv": "DINO ERCEG",
      "glasova": 59,
      "posto": "18,04"
    },{
      "rbr": 3,
      "naziv": "MARKO GRBIĆ",
      "glasova": 52,
      "posto": "15,90"
    },{
      "rbr": 4,
      "naziv": "MILJENKA PRENĐA SARIĆ",
      "glasova": 47,
      "posto": "14,37"
    },{
      "rbr": 5,
      "naziv": "RONALD GALIĆ",
      "glasova": 56,
      "posto": "17,12"
    },{
      "rbr": 6,
      "naziv": "DRAGAN OSTOJIĆ",
      "glasova": 18,
      "posto": "5,50"
    },{
      "rbr": 7,
      "naziv": "FRANE NEKIĆ",
      "glasova": 6,
      "posto": "1,83"
    },{
      "rbr": 8,
      "naziv": "JULIA BRAJIČIĆ",
      "glasova": 0,
      "posto": "0,00"
    },{
      "rbr": 9,
      "naziv": "ANDRIJA SAMARDŽIJA",
      "glasova": 0,
      "posto": "0,00"
    },{
      "rbr": 10,
      "naziv": "AUGUSTIN BENIĆ",
      "glasova": 0,
      "posto": "0,00"
    },{
      "rbr": 11,
      "naziv": "RADMILA PERIĆ",
      "glasova": 0,
      "posto": "0,00"
    },{
      "rbr": 12,
      "naziv": "IVA ZADELJ",
      "glasova": 0,
      "posto": "0,00"
    },{
      "rbr": 13,
      "naziv": "ZORAN GAŠPEROV",
      "glasova": 0,
      "posto": "0,00"
    },{
      "rbr": 14,
      "naziv": "IVICA SVAGUŠA",
      "glasova": 0,
      "posto": "0,00"
    }]
  },{
    "rbr": 15,
    "stranke": [
      {"naziv": "MOŽEMO! - POLITIČKA PLATFORMA"}
    ],
    "jedinstvenaSifra": "255",
    "glasova": 173,
    "naziv": "MOŽEMO! - POLITIČKA PLATFORMA",
    "posto": "0,85",
    "lista": [{
      "rbr": 1,
      "naziv": "MAJA ŠINTIĆ",
      "glasova": 58,
      "posto": "33,52"
    },{
      "rbr": 2,
      "naziv": "IVAN SLAVICA",
      "glasova": 42,
      "posto": "24,27"
    },{
      "rbr": 3,
      "naziv": "ANA ŠIMIĆ",
      "glasova": 55,
      "posto": "31,79"
    },{
      "rbr": 4,
      "naziv": "MARKO LUKAVAC",
      "glasova": 0,
      "posto": "0,00"
    },{
      "rbr": 5,
      "naziv": "NINA MILIČEVIĆ",
      "glasova": 0,
      "posto": "0,00"
    },{
      "rbr": 6,
      "naziv": "IVICA SMOLJAN",
      "glasova": 0,
      "posto": "0,00"
    },{
      "rbr": 7,
      "naziv": "SILVANA ČEKO JURIŠIĆ",
      "glasova": 1,
      "posto": "0,57"
    },{
      "rbr": 8,
      "naziv": "ZDRAVKO BELUŠIĆ",
      "glasova": 17,
      "posto": "9,82"
    },{
      "rbr": 9,
      "naziv": "IVA IVAS",
      "glasova": 0,
      "posto": "0,00"
    },{
      "rbr": 10,
      "naziv": "DUŠAN MILOŠ",
      "glasova": 0,
      "posto": "0,00"
    },{
      "rbr": 11,
      "naziv": "ANTONIJA LETINIĆ",
      "glasova": 0,
      "posto": "0,00"
    },{
      "rbr": 12,
      "naziv": "JERE MEIĆ",
      "glasova": 0,
      "posto": "0,00"
    },{
      "rbr": 13,
      "naziv": "PETRA HRAŠĆANEC",
      "glasova": 0,
      "posto": "0,00"
    },{
      "rbr": 14,
      "naziv": "DUNJA GUSIĆ",
      "glasova": 0,
      "posto": "0,00"
    }]
  },{
    "rbr": 16,
    "stranke": [
      {"naziv": "MOST"},
      {"naziv": "HRVATSKI SUVERENISTI"},
      {"naziv": "HRVATSKA KONZERVATIVNA STRANKA - HKS"},
      {"naziv": "NEZAVISNA LISTA MLADIH - NLM"}
    ],
    "jedinstvenaSifra": "131165188263",
    "glasova": 143,
    "naziv": "MOST, HRVATSKI SUVERENISTI, HKS, NLM",
    "posto": "0,70",
    "lista": [{
      "rbr": 1,
      "naziv": "MIRO BULJ",
      "glasova": 58,
      "posto": "40,55"
    },{
      "rbr": 2,
      "naziv": "IVAN MATIĆ",
      "glasova": 27,
      "posto": "18,88"
    },{
      "rbr": 3,
      "naziv": "IVICA LEDENKO",
      "glasova": 52,
      "posto": "36,36"
    },{
      "rbr": 4,
      "naziv": "MILIJA BALDIĆ-LUKŠIĆ",
      "glasova": 0,
      "posto": "0,00"
    },{
      "rbr": 5,
      "naziv": "IVAN ANDABAK",
      "glasova": 0,
      "posto": "0,00"
    },{
      "rbr": 6,
      "naziv": "ŽELJANA POPIĆ",
      "glasova": 0,
      "posto": "0,00"
    },{
      "rbr": 7,
      "naziv": "MIHOVIL KLARIĆ",
      "glasova": 0,
      "posto": "0,00"
    },{
      "rbr": 8,
      "naziv": "MARINA PAŠKALIN",
      "glasova": 6,
      "posto": "4,19"
    },{
      "rbr": 9,
      "naziv": "KLARA BUŠIĆ",
      "glasova": 0,
      "posto": "0,00"
    },{
      "rbr": 10,
      "naziv": "MARIJAN JURIĆ",
      "glasova": 0,
      "posto": "0,00"
    },{
      "rbr": 11,
      "naziv": "IVANA ŠEVO",
      "glasova": 0,
      "posto": "0,00"
    },{
      "rbr": 12,
      "naziv": "BISERKA GRGIN",
      "glasova": 0,
      "posto": "0,00"
    },{
      "rbr": 13,
      "naziv": "IVAN ŠUSTIĆ",
      "glasova": 0,
      "posto": "0,00"
    },{
      "rbr": 14,
      "naziv": "PETAR MARETIĆ",
      "glasova": 0,
      "posto": "0,00"
    }]
  },{
    "rbr": 17,
    "stranke": [
      {"naziv": "STRANKA HRVATSKOG ZAJEDNIŠTVA - SHZ"}
    ],
    "jedinstvenaSifra": "099",
    "glasova": 72,
    "naziv": "SHZ",
    "posto": "0,35",
    "lista": [{
      "rbr": 1,
      "naziv": "MILJENKO MARIĆ",
      "glasova": 55,
      "posto": "76,38"
    },{
      "rbr": 2,
      "naziv": "NIKOLA ŠIMIĆ",
      "glasova": 17,
      "posto": "23,61"
    },{
      "rbr": 3,
      "naziv": "AUGUSTINA RIMANIĆ",
      "glasova": 0,
      "posto": "0,00"
    },{
      "rbr": 4,
      "naziv": "ANAMARIJA ĆURKOVIĆ",
      "glasova": 0,
      "posto": "0,00"
    },{
      "rbr": 5,
      "naziv": "ZLATKO DUNDOVIĆ",
      "glasova": 0,
      "posto": "0,00"
    },{
      "rbr": 6,
      "naziv": "DRAGAN GOVORČIN",
      "glasova": 0,
      "posto": "0,00"
    },{
      "rbr": 7,
      "naziv": "DANIJELA BUDANOVIĆ",
      "glasova": 0,
      "posto": "0,00"
    },{
      "rbr": 8,
      "naziv": "NIVES KAURLOTO-VUČINOVIĆ",
      "glasova": 0,
      "posto": "0,00"
    },{
      "rbr": 9,
      "naziv": "VINKO KLARIĆ",
      "glasova": 0,
      "posto": "0,00"
    },{
      "rbr": 10,
      "naziv": "GORDANA MILIN",
      "glasova": 0,
      "posto": "0,00"
    },{
      "rbr": 11,
      "naziv": "SLAVKO BURČUL",
      "glasova": 0,
      "posto": "0,00"
    },{
      "rbr": 12,
      "naziv": "ANĐELKA KRNETA",
      "glasova": 0,
      "posto": "0,00"
    },{
      "rbr": 13,
      "naziv": "JULIJE JELASKA",
      "glasova": 0,
      "posto": "0,00"
    },{
      "rbr": 14,
      "naziv": "GAŠPAR BILIĆ",
      "glasova": 0,
      "posto": "0,00"
    }]
  },{
    "rbr": 18,
    "stranke": [
      {"naziv": "UMIROVLJENICI ZAJEDNO - POLITIČKA PLATFORMA - UMIROVLJENICI ZAJEDNO"},
      {"naziv": "STRANKA UMIROVLJENIKA - SU"},
      {"naziv": "BLOK UMIROVLJENICI ZAJEDNO - BUZ"},
      {"naziv": "DEMOKRATSKA STRANKA UMIROVLJENIKA - DSU"}
    ],
    "jedinstvenaSifra": "039041102301",
    "glasova": 72,
    "naziv": "UMIROVLJENICI ZAJEDNO, SU, BUZ, DSU",
    "posto": "0,35",
    "lista": [{
      "rbr": 1,
      "naziv": "DUŠKO VUKOVIĆ",
      "glasova": 55,
      "posto": "76,38"
    },{
      "rbr": 2,
      "naziv": "ANĐELKO DUVANČIĆ",
      "glasova": 17,
      "posto": "23,61"
    },{
      "rbr": 3,
      "naziv": "MARKO MIJIĆ",
      "glasova": 0,
      "posto": "0,00"
    },{
      "rbr": 4,
      "naziv": "ROBERT PELICARIĆ",
      "glasova": 0,
      "posto": "0,00"
    },{
      "rbr": 5,
      "naziv": "ZVJEZDANA RONČEVIĆ HRS",
      "glasova": 0,
      "posto": "0,00"
    },{
      "rbr": 6,
      "naziv": "MARTINA MATACIN",
      "glasova": 0,
      "posto": "0,00"
    },{
      "rbr": 7,
      "naziv": "KATARINA NEKIĆ",
      "glasova": 0,
      "posto": "0,00"
    },{
      "rbr": 8,
      "naziv": "VLADIMIR HRS",
      "glasova": 0,
      "posto": "0,00"
    },{
      "rbr": 9,
      "naziv": "CARLA SANTIN",
      "glasova": 0,
      "posto": "0,00"
    },{
      "rbr": 10,
      "naziv": "ANITA MERLE",
      "glasova": 0,
      "posto": "0,00"
    },{
      "rbr": 11,
      "naziv": "BORIS FRAKIN",
      "glasova": 0,
      "posto": "0,00"
    },{
      "rbr": 12,
      "naziv": "PAOLA BABAJKO",
      "glasova": 0,
      "posto": "0,00"
    },{
      "rbr": 13,
      "naziv": "BOŽO NEKIĆ",
      "glasova": 0,
      "posto": "0,00"
    },{
      "rbr": 14,
      "naziv": "JELENA VUKOVIĆ",
      "glasova": 0,
      "posto": "0,00"
    }]
  }]
}
