{
  "izbori": "Zastupnički izbori 2024",
  "datum": "15.04.2024.",
  "vrijeme": "15:00",
  "izboriOznaka": "02",
  "ijSifra": "008",
  "bmSifra": "000",
  "ijNaziv": "VIII. IZBORNA JEDINICA",
  "gropNaziv": "ROVINJ - ROVIGNO",
  "bmNaziv": "",
  "bmZatvoreno": 7,
  "bmUkupno": 12,
  "biraciUkupno": 6892,
  "biraciGlasovalo": 2626,
  "biraciGlasovaloPosto": "38,10",
  "listiciUkupno": 2625,
  "listiciVazeci": 2574,
  "listiciVazeciPosto": "98,06",
  "listiciNevazeci": 51,
  "listiciNevazeciPosto": "1,94",
  "napomena": "* - objavljeni rezultati sadrže podatke samo s redovnih biračkih mjesta",
  "napomena2": "",
  "lista": [{
    "rbr": 1,
    "stranke": [
      {"naziv": "SOCIJALISTIČKA RADNIČKA PARTIJA HRVATSKE - SRP"}
    ],
    "jedinstvenaSifra": "029",
    "glasova": 650,
    "naziv": "SRP",
    "posto": "25,25",
    "lista": [{
      "rbr": 1,
      "naziv": "VLADIMIR KAPURALIN",
      "glasova": 128,
      "posto": "19,69"
    },{
      "rbr": 2,
      "naziv": "DAVOR RAKIĆ",
      "glasova": 82,
      "posto": "12,61"
    },{
      "rbr": 3,
      "naziv": "ULIANA MOSCARDA",
      "glasova": 63,
      "posto": "9,69"
    },{
      "rbr": 4,
      "naziv": "MILOŠ MITROVIĆ",
      "glasova": 44,
      "posto": "6,76"
    },{
      "rbr": 5,
      "naziv": "RANKA ČIČOVAČKI",
      "glasova": 75,
      "posto": "11,53"
    },{
      "rbr": 6,
      "naziv": "LUCA ANTONIO ŠURAN",
      "glasova": 37,
      "posto": "5,69"
    },{
      "rbr": 7,
      "naziv": "RUŽA KNEŽEVIĆ",
      "glasova": 24,
      "posto": "3,69"
    },{
      "rbr": 8,
      "naziv": "MARIN BRKLJAČA",
      "glasova": 10,
      "posto": "1,53"
    },{
      "rbr": 9,
      "naziv": "DANICA OBREZA",
      "glasova": 10,
      "posto": "1,53"
    },{
      "rbr": 10,
      "naziv": "LUKA ERCEGOVIĆ",
      "glasova": 17,
      "posto": "2,61"
    },{
      "rbr": 11,
      "naziv": "ZAHIDA DEDUKIĆ",
      "glasova": 7,
      "posto": "1,07"
    },{
      "rbr": 12,
      "naziv": "SLOBODAN OBREZA",
      "glasova": 14,
      "posto": "2,15"
    },{
      "rbr": 13,
      "naziv": "ILONA ŠIMIČIĆ",
      "glasova": 7,
      "posto": "1,07"
    },{
      "rbr": 14,
      "naziv": "DARKO MILIĆ",
      "glasova": 10,
      "posto": "1,53"
    }]
  },{
    "rbr": 2,
    "stranke": [
      {"naziv": "UMIROVLJENICI ZAJEDNO - POLITIČKA PLATFORMA - UMIROVLJENICI ZAJEDNO"},
      {"naziv": "STRANKA UMIROVLJENIKA - SU"},
      {"naziv": "BLOK UMIROVLJENICI ZAJEDNO - BUZ"},
      {"naziv": "DEMOKRATSKA STRANKA UMIROVLJENIKA - DSU"}
    ],
    "jedinstvenaSifra": "039041102301",
    "glasova": 518,
    "naziv": "UMIROVLJENICI ZAJEDNO, SU, BUZ, DSU",
    "posto": "20,12",
    "lista": [{
      "rbr": 1,
      "naziv": "MARIJA PALAZIOL",
      "glasova": 101,
      "posto": "19,49"
    },{
      "rbr": 2,
      "naziv": "ANĐELKA BIJELONJIĆ",
      "glasova": 65,
      "posto": "12,54"
    },{
      "rbr": 3,
      "naziv": "EUFEMIA MIŠIĆ",
      "glasova": 51,
      "posto": "9,84"
    },{
      "rbr": 4,
      "naziv": "MIRKO BIJELONJIĆ",
      "glasova": 34,
      "posto": "6,56"
    },{
      "rbr": 5,
      "naziv": "DENIS PAULETIĆ",
      "glasova": 60,
      "posto": "11,58"
    },{
      "rbr": 6,
      "naziv": "VLADIMIR ŠIMUNIĆ",
      "glasova": 30,
      "posto": "5,79"
    },{
      "rbr": 7,
      "naziv": "DARKO ŠEGOTA",
      "glasova": 19,
      "posto": "3,66"
    },{
      "rbr": 8,
      "naziv": "BLAŽENKA BERGIĆ",
      "glasova": 7,
      "posto": "1,35"
    },{
      "rbr": 9,
      "naziv": "BRANKO BIJELONJIĆ",
      "glasova": 7,
      "posto": "1,35"
    },{
      "rbr": 10,
      "naziv": "VESNA MATOŠEVIĆ",
      "glasova": 14,
      "posto": "2,70"
    },{
      "rbr": 11,
      "naziv": "ŽELJKO BILIĆ",
      "glasova": 7,
      "posto": "1,35"
    },{
      "rbr": 12,
      "naziv": "CHRISTINE BIBALO-BALAŠKO",
      "glasova": 7,
      "posto": "1,35"
    },{
      "rbr": 13,
      "naziv": "MILORAD KARDUM",
      "glasova": 7,
      "posto": "1,35"
    },{
      "rbr": 14,
      "naziv": "JOSIP PULIĆ",
      "glasova": 7,
      "posto": "1,35"
    }]
  },{
    "rbr": 3,
    "stranke": [
      {"naziv": "AUTOHTONA - HRVATSKA STRANKA PRAVA - DRAŽEN KELEMINEC - A - HSP - Dražen Keleminec"}
    ],
    "jedinstvenaSifra": "049",
    "glasova": 498,
    "naziv": "A - HSP - Dražen Keleminec",
    "posto": "19,34",
    "lista": [{
      "rbr": 1,
      "naziv": "JURE HULJEV",
      "glasova": 99,
      "posto": "19,87"
    },{
      "rbr": 2,
      "naziv": "DALIBOR FUĆAK",
      "glasova": 90,
      "posto": "18,07"
    },{
      "rbr": 3,
      "naziv": "ANDRIJA ŠKRIBULJA",
      "glasova": 99,
      "posto": "19,87"
    },{
      "rbr": 4,
      "naziv": "VJEKOSLAV JOVIĆ",
      "glasova": 33,
      "posto": "6,62"
    },{
      "rbr": 5,
      "naziv": "ANKA ĐURIŠIĆ",
      "glasova": 18,
      "posto": "3,61"
    },{
      "rbr": 6,
      "naziv": "ZLATKO OREŠKOVIĆ",
      "glasova": 28,
      "posto": "5,62"
    },{
      "rbr": 7,
      "naziv": "TIHOMIR MESAROV",
      "glasova": 38,
      "posto": "7,63"
    },{
      "rbr": 8,
      "naziv": "ZORAN ŠAJKOVIĆ",
      "glasova": 48,
      "posto": "9,63"
    },{
      "rbr": 9,
      "naziv": "SENKA DURDOV",
      "glasova": 4,
      "posto": "0,80"
    },{
      "rbr": 10,
      "naziv": "HRVOJE DRAGANIĆ",
      "glasova": 14,
      "posto": "2,81"
    },{
      "rbr": 11,
      "naziv": "TOMISLAV RUKAVINA",
      "glasova": 15,
      "posto": "3,01"
    },{
      "rbr": 12,
      "naziv": "MILAN ŽUFIKA",
      "glasova": 1,
      "posto": "0,20"
    },{
      "rbr": 13,
      "naziv": "ZORAN POSTRUŽIN",
      "glasova": 9,
      "posto": "1,80"
    },{
      "rbr": 14,
      "naziv": "MIRKO KOROŠEC",
      "glasova": 2,
      "posto": "0,40"
    }]
  },{
    "rbr": 4,
    "stranke": [
      {"naziv": "RADNIČKA FRONTA - RF"}
    ],
    "jedinstvenaSifra": "168",
    "glasova": 157,
    "naziv": "RF",
    "posto": "6,09",
    "lista": [{
      "rbr": 1,
      "naziv": "KATARINA PEOVIĆ",
      "glasova": 32,
      "posto": "20,38"
    },{
      "rbr": 2,
      "naziv": "GORAN MATIĆ",
      "glasova": 31,
      "posto": "19,74"
    },{
      "rbr": 3,
      "naziv": "KARIN GRGOROVIĆ",
      "glasova": 32,
      "posto": "20,38"
    },{
      "rbr": 4,
      "naziv": "BORIS KAPURALIN",
      "glasova": 14,
      "posto": "8,91"
    },{
      "rbr": 5,
      "naziv": "DUBRAVKA KOVAČEVIĆ",
      "glasova": 4,
      "posto": "2,54"
    },{
      "rbr": 6,
      "naziv": "ENIS ČAUŠEVIĆ",
      "glasova": 11,
      "posto": "7,00"
    },{
      "rbr": 7,
      "naziv": "GORDANA VUDRAGOVIĆ",
      "glasova": 15,
      "posto": "9,55"
    },{
      "rbr": 8,
      "naziv": "NIJAZ DELIĆ",
      "glasova": 17,
      "posto": "10,82"
    },{
      "rbr": 9,
      "naziv": "NATALIJA STEFANOVIĆ",
      "glasova": 0,
      "posto": "0,00"
    },{
      "rbr": 10,
      "naziv": "BOJAN BIRK",
      "glasova": 0,
      "posto": "0,00"
    },{
      "rbr": 11,
      "naziv": "BISERKA MOMČINOVIĆ",
      "glasova": 1,
      "posto": "0,63"
    },{
      "rbr": 12,
      "naziv": "ALEKSANDAR ALOBIĆ",
      "glasova": 0,
      "posto": "0,00"
    },{
      "rbr": 13,
      "naziv": "IZVOR RUKAVINA",
      "glasova": 0,
      "posto": "0,00"
    },{
      "rbr": 14,
      "naziv": "LEMS JERIN",
      "glasova": 0,
      "posto": "0,00"
    }]
  },{
    "rbr": 5,
    "stranke": [
      {"naziv": "HRVATSKA STRANKA PRAVA - HSP"},
      {"naziv": "HRVATSKO BILO"},
      {"naziv": "HRVATSKA DEMOKRATSKA SELJAČKA STRANKA - HDSS"}
    ],
    "jedinstvenaSifra": "007018308",
    "glasova": 137,
    "naziv": "HSP, HRVATSKO BILO, HDSS",
    "posto": "5,32",
    "lista": [{
      "rbr": 1,
      "naziv": "MARIN BUBANJ",
      "glasova": 28,
      "posto": "20,43"
    },{
      "rbr": 2,
      "naziv": "STIPICA BAŠKARAD",
      "glasova": 21,
      "posto": "15,32"
    },{
      "rbr": 3,
      "naziv": "NIKO PUŠELJA",
      "glasova": 15,
      "posto": "10,94"
    },{
      "rbr": 4,
      "naziv": "GABRIJELA ANIČIĆ",
      "glasova": 13,
      "posto": "9,48"
    },{
      "rbr": 5,
      "naziv": "ELVIRA MARIĆ",
      "glasova": 18,
      "posto": "13,13"
    },{
      "rbr": 6,
      "naziv": "TATJANA SMOJVER-SILOV",
      "glasova": 10,
      "posto": "7,29"
    },{
      "rbr": 7,
      "naziv": "DANICA MARKOVIĆ",
      "glasova": 7,
      "posto": "5,10"
    },{
      "rbr": 8,
      "naziv": "LJUBICA ŠEVERDIJA",
      "glasova": 3,
      "posto": "2,18"
    },{
      "rbr": 9,
      "naziv": "NIVES KLJAJIĆ",
      "glasova": 1,
      "posto": "0,72"
    },{
      "rbr": 10,
      "naziv": "DUBRAVKO MARŠAL",
      "glasova": 7,
      "posto": "5,10"
    },{
      "rbr": 11,
      "naziv": "SLAVKO VRBAN",
      "glasova": 0,
      "posto": "0,00"
    },{
      "rbr": 12,
      "naziv": "MIROSLAV MARKOVIĆ",
      "glasova": 7,
      "posto": "5,10"
    },{
      "rbr": 13,
      "naziv": "DEJAN ILIJIĆ",
      "glasova": 6,
      "posto": "4,37"
    },{
      "rbr": 14,
      "naziv": "ROBERT CIFREK",
      "glasova": 1,
      "posto": "0,72"
    }]
  },{
    "rbr": 6,
    "stranke": [
      {"naziv": "STRANKA IVANA PERNARA"}
    ],
    "jedinstvenaSifra": "259",
    "glasova": 130,
    "naziv": "STRANKA IVANA PERNARA",
    "posto": "5,05",
    "lista": [{
      "rbr": 1,
      "naziv": "IVANA ŠAIN",
      "glasova": 28,
      "posto": "21,53"
    },{
      "rbr": 2,
      "naziv": "VLADIMIR LEON KELLER",
      "glasova": 26,
      "posto": "20,00"
    },{
      "rbr": 3,
      "naziv": "DENI RAKOVIĆ",
      "glasova": 28,
      "posto": "21,53"
    },{
      "rbr": 4,
      "naziv": "ANGELINA PRPIĆ",
      "glasova": 12,
      "posto": "9,23"
    },{
      "rbr": 5,
      "naziv": "BENITO LJUBOVIĆ",
      "glasova": 1,
      "posto": "0,76"
    },{
      "rbr": 6,
      "naziv": "ENA BABIĆ",
      "glasova": 7,
      "posto": "5,38"
    },{
      "rbr": 7,
      "naziv": "FILIP MARIĆ",
      "glasova": 13,
      "posto": "10,00"
    },{
      "rbr": 8,
      "naziv": "NINA ŠIMONOVIĆ",
      "glasova": 15,
      "posto": "11,53"
    },{
      "rbr": 9,
      "naziv": "STEFANO VIDONIS",
      "glasova": 0,
      "posto": "0,00"
    },{
      "rbr": 10,
      "naziv": "GORDANA VIDAK",
      "glasova": 0,
      "posto": "0,00"
    },{
      "rbr": 11,
      "naziv": "ROKO ORLOVIĆ",
      "glasova": 0,
      "posto": "0,00"
    },{
      "rbr": 12,
      "naziv": "LEAN MARETIĆ",
      "glasova": 0,
      "posto": "0,00"
    },{
      "rbr": 13,
      "naziv": "DANIJELA HORVAT",
      "glasova": 0,
      "posto": "0,00"
    },{
      "rbr": 14,
      "naziv": "MIRSADA IMŠIROVIĆ",
      "glasova": 0,
      "posto": "0,00"
    }]
  },{
    "rbr": 7,
    "stranke": [
      {"naziv": "MOŽEMO! - POLITIČKA PLATFORMA"}
    ],
    "jedinstvenaSifra": "255",
    "glasova": 128,
    "naziv": "MOŽEMO! - POLITIČKA PLATFORMA",
    "posto": "4,97",
    "lista": [{
      "rbr": 1,
      "naziv": "DUŠICA RADOJČIĆ",
      "glasova": 28,
      "posto": "21,87"
    },{
      "rbr": 2,
      "naziv": "MORENA LEKAN",
      "glasova": 25,
      "posto": "19,53"
    },{
      "rbr": 3,
      "naziv": "NEBOJŠA ZELIČ",
      "glasova": 28,
      "posto": "21,87"
    },{
      "rbr": 4,
      "naziv": "ENNA PEROŠ",
      "glasova": 12,
      "posto": "9,37"
    },{
      "rbr": 5,
      "naziv": "SLAVEN BOLJUN",
      "glasova": 0,
      "posto": "0,00"
    },{
      "rbr": 6,
      "naziv": "IVA DAVORIJA",
      "glasova": 7,
      "posto": "5,46"
    },{
      "rbr": 7,
      "naziv": "HANA PALEKA",
      "glasova": 13,
      "posto": "10,15"
    },{
      "rbr": 8,
      "naziv": "MIHA PAUS",
      "glasova": 15,
      "posto": "11,71"
    },{
      "rbr": 9,
      "naziv": "NOEL MIRKOVIĆ",
      "glasova": 0,
      "posto": "0,00"
    },{
      "rbr": 10,
      "naziv": "ANA FONOVIĆ",
      "glasova": 0,
      "posto": "0,00"
    },{
      "rbr": 11,
      "naziv": "RENATO STANKOVIĆ",
      "glasova": 0,
      "posto": "0,00"
    },{
      "rbr": 12,
      "naziv": "DANIEL ANTUNOVIĆ",
      "glasova": 0,
      "posto": "0,00"
    },{
      "rbr": 13,
      "naziv": "DRAGAN DRUŽETA",
      "glasova": 0,
      "posto": "0,00"
    },{
      "rbr": 14,
      "naziv": "SUZANA JAŠIĆ",
      "glasova": 0,
      "posto": "0,00"
    }]
  },{
    "rbr": 8,
    "stranke": [
      {"naziv": "DOMOVINSKI POKRET - DP"},
      {"naziv": "PRAVO I PRAVDA"}
    ],
    "jedinstvenaSifra": "267312",
    "glasova": 96,
    "naziv": "DP, PRAVO I PRAVDA",
    "posto": "3,72",
    "lista": [{
      "rbr": 1,
      "naziv": "IVAN VILIBOR SINČIĆ",
      "glasova": 22,
      "posto": "22,91"
    },{
      "rbr": 2,
      "naziv": "BOŽANA KRISTIĆ",
      "glasova": 6,
      "posto": "6,25"
    },{
      "rbr": 3,
      "naziv": "MARINA BEG UMILJENOVIĆ",
      "glasova": 0,
      "posto": "0,00"
    },{
      "rbr": 4,
      "naziv": "SNJEŽANA BAŽAJ-BOĆKAI",
      "glasova": 3,
      "posto": "3,12"
    },{
      "rbr": 5,
      "naziv": "MATEA FILIPOVIĆ",
      "glasova": 10,
      "posto": "10,41"
    },{
      "rbr": 6,
      "naziv": "PAOLA VELLICO BATEL",
      "glasova": 13,
      "posto": "13,54"
    },{
      "rbr": 7,
      "naziv": "MILICA ERCEG",
      "glasova": 0,
      "posto": "0,00"
    },{
      "rbr": 8,
      "naziv": "IVICA KRSTAŠ",
      "glasova": 0,
      "posto": "0,00"
    },{
      "rbr": 9,
      "naziv": "RITA UJČIĆ",
      "glasova": 21,
      "posto": "21,87"
    },{
      "rbr": 10,
      "naziv": "MARIJAN ZOVIĆ",
      "glasova": 21,
      "posto": "21,87"
    },{
      "rbr": 11,
      "naziv": "DENI JANKO",
      "glasova": 0,
      "posto": "0,00"
    },{
      "rbr": 12,
      "naziv": "ZORAN STJEPANOVIĆ",
      "glasova": 0,
      "posto": "0,00"
    },{
      "rbr": 13,
      "naziv": "FRANJO BARTOLAC",
      "glasova": 0,
      "posto": "0,00"
    },{
      "rbr": 14,
      "naziv": "DAVOR POPOVIĆ",
      "glasova": 0,
      "posto": "0,00"
    }]
  },{
    "rbr": 9,
    "stranke": [
      {"naziv": "MOST"},
      {"naziv": "HRVATSKI SUVERENISTI"},
      {"naziv": "HRVATSKA KONZERVATIVNA STRANKA - HKS"},
      {"naziv": "NEZAVISNA LISTA MLADIH - NLM"}
    ],
    "jedinstvenaSifra": "131165188263",
    "glasova": 79,
    "naziv": "MOST, HRVATSKI SUVERENISTI, HKS, NLM",
    "posto": "3,06",
    "lista": [{
      "rbr": 1,
      "naziv": "MARIN MILETIĆ",
      "glasova": 18,
      "posto": "22,78"
    },{
      "rbr": 2,
      "naziv": "IVAN VIDOVIĆ",
      "glasova": 13,
      "posto": "16,45"
    },{
      "rbr": 3,
      "naziv": "PETRA MANDIĆ",
      "glasova": 10,
      "posto": "12,65"
    },{
      "rbr": 4,
      "naziv": "LUKA JAKOPOVIĆ",
      "glasova": 7,
      "posto": "8,86"
    },{
      "rbr": 5,
      "naziv": "SILVIJA TERLEVIĆ",
      "glasova": 13,
      "posto": "16,45"
    },{
      "rbr": 6,
      "naziv": "MARIJAN ŠEGOTA",
      "glasova": 7,
      "posto": "8,86"
    },{
      "rbr": 7,
      "naziv": "SABINA MAROV",
      "glasova": 7,
      "posto": "8,86"
    },{
      "rbr": 8,
      "naziv": "BORIS ADŽIĆ",
      "glasova": 1,
      "posto": "1,26"
    },{
      "rbr": 9,
      "naziv": "JELENA ALESSIO",
      "glasova": 0,
      "posto": "0,00"
    },{
      "rbr": 10,
      "naziv": "VERICA ĆORKOVIĆ",
      "glasova": 2,
      "posto": "2,53"
    },{
      "rbr": 11,
      "naziv": "ORHAN SALI",
      "glasova": 0,
      "posto": "0,00"
    },{
      "rbr": 12,
      "naziv": "IZABELA ĐAKOVIĆ",
      "glasova": 1,
      "posto": "1,26"
    },{
      "rbr": 13,
      "naziv": "ALEKSANDAR-SAŠA MILAKOVIĆ",
      "glasova": 0,
      "posto": "0,00"
    },{
      "rbr": 14,
      "naziv": "JOSIP KATALINIĆ",
      "glasova": 0,
      "posto": "0,00"
    }]
  },{
    "rbr": 10,
    "stranke": [
      {"naziv": "ISTARSKI DEMOKRATSKI SABOR - IDS"},
      {"naziv": "PRIMORSKO GORANSKI SAVEZ - PGS"},
      {"naziv": "UNIJA KVARNERA - UNIJA"},
      {"naziv": "ISTARSKA STRANKA UMIROVLJENIKA - PARTITO ISTRIANO DEI PENSIONATI - ISU - PIP"},
      {"naziv": "SOCIJALDEMOKRATI"},
      {"naziv": "NARODNA STRANKA - REFORMISTI - REFORMISTI"},
      {"naziv": "DEMOKRATI"},
      {"naziv": "HRVATSKI LABURISTI - STRANKA RADA - LABURISTI"}
    ],
    "jedinstvenaSifra": "005006100121162241251299",
    "glasova": 57,
    "naziv": "IDS, PGS, UNIJA, ISU - PIP, SOCIJALDEMOKRATI, REFORMISTI, DEMOKRATI, LABURISTI",
    "posto": "2,21",
    "lista": [{
      "rbr": 1,
      "naziv": "DALIBOR PAUS",
      "glasova": 15,
      "posto": "26,31"
    },{
      "rbr": 2,
      "naziv": "DARIJO VASILIĆ",
      "glasova": 10,
      "posto": "17,54"
    },{
      "rbr": 3,
      "naziv": "VALTER GLAVIČIĆ",
      "glasova": 7,
      "posto": "12,28"
    },{
      "rbr": 4,
      "naziv": "LORIS PERŠURIĆ",
      "glasova": 7,
      "posto": "12,28"
    },{
      "rbr": 5,
      "naziv": "HELGA MOŽÉ",
      "glasova": 8,
      "posto": "14,03"
    },{
      "rbr": 6,
      "naziv": "EMIL DAUS",
      "glasova": 6,
      "posto": "10,52"
    },{
      "rbr": 7,
      "naziv": "TAJANA MASOVČIĆ",
      "glasova": 4,
      "posto": "7,01"
    },{
      "rbr": 8,
      "naziv": "LJILJANA MILOŠ",
      "glasova": 0,
      "posto": "0,00"
    },{
      "rbr": 9,
      "naziv": "TEA MIČIĆ BADURINA",
      "glasova": 0,
      "posto": "0,00"
    },{
      "rbr": 10,
      "naziv": "ANTEO MILOS",
      "glasova": 0,
      "posto": "0,00"
    },{
      "rbr": 11,
      "naziv": "KATARINA NEMET",
      "glasova": 0,
      "posto": "0,00"
    },{
      "rbr": 12,
      "naziv": "SENKA ŠUBAT",
      "glasova": 0,
      "posto": "0,00"
    },{
      "rbr": 13,
      "naziv": "MARKO PALIAGA",
      "glasova": 0,
      "posto": "0,00"
    },{
      "rbr": 14,
      "naziv": "MARKO BORAS MANDIĆ",
      "glasova": 0,
      "posto": "0,00"
    }]
  },{
    "rbr": 11,
    "stranke": [
      {"naziv": "SOCIJALDEMOKRATSKA PARTIJA HRVATSKE - SDP"},
      {"naziv": "CENTAR"},
      {"naziv": "HRVATSKA SELJAČKA STRANKA - HSS"},
      {"naziv": "\"DALIJA OREŠKOVIĆ I LJUDI S IMENOM I PREZIMENOM\" - \"DO i SIP\""},
      {"naziv": "GRAĐANSKO-LIBERALNI SAVEZ - GLAS"}
    ],
    "jedinstvenaSifra": "004017179244306",
    "glasova": 47,
    "naziv": "SDP, CENTAR, HSS, \"DO i SIP\", GLAS",
    "posto": "1,82",
    "lista": [{
      "rbr": 1,
      "naziv": "PEĐA GRBIN",
      "glasova": 13,
      "posto": "27,65"
    },{
      "rbr": 2,
      "naziv": "MIRELA AHMETOVIĆ",
      "glasova": 13,
      "posto": "27,65"
    },{
      "rbr": 3,
      "naziv": "ZLATKO KOMADINA",
      "glasova": 13,
      "posto": "27,65"
    },{
      "rbr": 4,
      "naziv": "SANJA RADOLOVIĆ",
      "glasova": 1,
      "posto": "2,12"
    },{
      "rbr": 5,
      "naziv": "SAŠA ĐUJIĆ",
      "glasova": 0,
      "posto": "0,00"
    },{
      "rbr": 6,
      "naziv": "ANA PUŽ KUKULJAN",
      "glasova": 0,
      "posto": "0,00"
    },{
      "rbr": 7,
      "naziv": "MARIN RAČIĆ",
      "glasova": 3,
      "posto": "6,38"
    },{
      "rbr": 8,
      "naziv": "SLOBODAN FRUK",
      "glasova": 4,
      "posto": "8,51"
    },{
      "rbr": 9,
      "naziv": "MARKO FERENAC",
      "glasova": 0,
      "posto": "0,00"
    },{
      "rbr": 10,
      "naziv": "MARIA BLAŽINA",
      "glasova": 0,
      "posto": "0,00"
    },{
      "rbr": 11,
      "naziv": "KRISTIAN ČARAPIĆ",
      "glasova": 0,
      "posto": "0,00"
    },{
      "rbr": 12,
      "naziv": "BOJANA PUZIGAĆA",
      "glasova": 0,
      "posto": "0,00"
    },{
      "rbr": 13,
      "naziv": "NADJA POROPAT",
      "glasova": 0,
      "posto": "0,00"
    },{
      "rbr": 14,
      "naziv": "ŽELJKO JOVANOVIĆ",
      "glasova": 0,
      "posto": "0,00"
    }]
  },{
    "rbr": 12,
    "stranke": [
      {"naziv": "FOKUS"},
      {"naziv": "REPUBLIKA"}
    ],
    "jedinstvenaSifra": "270310",
    "glasova": 36,
    "naziv": "FOKUS, REPUBLIKA",
    "posto": "1,39",
    "lista": [{
      "rbr": 1,
      "naziv": "GORDANA DERANJA",
      "glasova": 9,
      "posto": "25,00"
    },{
      "rbr": 2,
      "naziv": "LORAN MILANOVIĆ",
      "glasova": 0,
      "posto": "0,00"
    },{
      "rbr": 3,
      "naziv": "DAMIR PRHAT",
      "glasova": 0,
      "posto": "0,00"
    },{
      "rbr": 4,
      "naziv": "DAMIR GRÜNBAUM",
      "glasova": 0,
      "posto": "0,00"
    },{
      "rbr": 5,
      "naziv": "MILAN PERKOVIĆ",
      "glasova": 3,
      "posto": "8,33"
    },{
      "rbr": 6,
      "naziv": "IVA DELLABERNARDINA",
      "glasova": 6,
      "posto": "16,66"
    },{
      "rbr": 7,
      "naziv": "NIKOLINA BENIĆ",
      "glasova": 0,
      "posto": "0,00"
    },{
      "rbr": 8,
      "naziv": "PATRICIJA VANĐELIĆ",
      "glasova": 0,
      "posto": "0,00"
    },{
      "rbr": 9,
      "naziv": "MARIJA VIRKES",
      "glasova": 9,
      "posto": "25,00"
    },{
      "rbr": 10,
      "naziv": "NENAD ŠĆULAC",
      "glasova": 9,
      "posto": "25,00"
    },{
      "rbr": 11,
      "naziv": "DENIS KIŠ",
      "glasova": 0,
      "posto": "0,00"
    },{
      "rbr": 12,
      "naziv": "MARIJA VARŽIĆ GOLUBIĆ",
      "glasova": 0,
      "posto": "0,00"
    },{
      "rbr": 13,
      "naziv": "IGOR LUKEŽ",
      "glasova": 0,
      "posto": "0,00"
    },{
      "rbr": 14,
      "naziv": "ANDREJ RADETIĆ",
      "glasova": 0,
      "posto": "0,00"
    }]
  },{
    "rbr": 13,
    "stranke": [
      {"naziv": "HRVATSKA DEMOKRATSKA ZAJEDNICA - HDZ"},
      {"naziv": "HRVATSKA SOCIJALNO - LIBERALNA STRANKA - HSLS"},
      {"naziv": "HRVATSKA DEMOKRŠĆANSKA STRANKA - HDS"},
      {"naziv": "HRVATSKA NARODNA STRANKA - LIBERALNI DEMOKRATI - HNS"},
      {"naziv": "HRVATSKA STRANKA UMIROVLJENIKA - HSU"}
    ],
    "jedinstvenaSifra": "001002003011023",
    "glasova": 36,
    "naziv": "HDZ, HSLS, HDS, HNS, HSU",
    "posto": "1,39",
    "lista": [{
      "rbr": 1,
      "naziv": "OLEG BUTKOVIĆ",
      "glasova": 9,
      "posto": "25,00"
    },{
      "rbr": 2,
      "naziv": "ANTON KLIMAN",
      "glasova": 7,
      "posto": "19,44"
    },{
      "rbr": 3,
      "naziv": "JOSIP OSTROGOVIĆ",
      "glasova": 0,
      "posto": "0,00"
    },{
      "rbr": 4,
      "naziv": "TOMISLAV KLARIĆ",
      "glasova": 7,
      "posto": "19,44"
    },{
      "rbr": 5,
      "naziv": "IRENA HRSTIĆ",
      "glasova": 5,
      "posto": "13,88"
    },{
      "rbr": 6,
      "naziv": "ALEN RUŽIĆ",
      "glasova": 1,
      "posto": "2,77"
    },{
      "rbr": 7,
      "naziv": "JOSIP BORIĆ",
      "glasova": 7,
      "posto": "19,44"
    },{
      "rbr": 8,
      "naziv": "DAVOR ZUBOVIĆ",
      "glasova": 0,
      "posto": "0,00"
    },{
      "rbr": 9,
      "naziv": "ILIRJANA-CROATA MEDUR",
      "glasova": 0,
      "posto": "0,00"
    },{
      "rbr": 10,
      "naziv": "ANA KUČIĆ",
      "glasova": 0,
      "posto": "0,00"
    },{
      "rbr": 11,
      "naziv": "MARIO BRATULIĆ",
      "glasova": 0,
      "posto": "0,00"
    },{
      "rbr": 12,
      "naziv": "IVAN BUBIĆ",
      "glasova": 0,
      "posto": "0,00"
    },{
      "rbr": 13,
      "naziv": "KRISTJAN STANIČIĆ",
      "glasova": 0,
      "posto": "0,00"
    },{
      "rbr": 14,
      "naziv": "IVAN KIRIN",
      "glasova": 0,
      "posto": "0,00"
    }]
  },{
    "rbr": 14,
    "stranke": [
      {"naziv": "ODLUČNOST I PRAVEDNOST - OIP"}
    ],
    "jedinstvenaSifra": "300",
    "glasova": 5,
    "naziv": "OIP",
    "posto": "0,19",
    "lista": [{
      "rbr": 1,
      "naziv": "HRVOJE ŽUPARIĆ",
      "glasova": 5,
      "posto": "100,00"
    },{
      "rbr": 2,
      "naziv": "ANDRIJA RUŽIĆ",
      "glasova": 0,
      "posto": "0,00"
    },{
      "rbr": 3,
      "naziv": "BOJAN VUKOREPA",
      "glasova": 0,
      "posto": "0,00"
    },{
      "rbr": 4,
      "naziv": "FANI RADOVAN RIGOVIĆ",
      "glasova": 0,
      "posto": "0,00"
    },{
      "rbr": 5,
      "naziv": "TIHOMIR KRALJEVIĆ",
      "glasova": 0,
      "posto": "0,00"
    },{
      "rbr": 6,
      "naziv": "SENAD BEGIĆ",
      "glasova": 0,
      "posto": "0,00"
    },{
      "rbr": 7,
      "naziv": "EDO ŠARUNIĆ",
      "glasova": 0,
      "posto": "0,00"
    },{
      "rbr": 8,
      "naziv": "ANTO LUJIĆ",
      "glasova": 0,
      "posto": "0,00"
    },{
      "rbr": 9,
      "naziv": "ZORAN ANDRIĆ",
      "glasova": 0,
      "posto": "0,00"
    },{
      "rbr": 10,
      "naziv": "TONI GJAJA",
      "glasova": 0,
      "posto": "0,00"
    },{
      "rbr": 11,
      "naziv": "LEONARDO ŠALIĆ",
      "glasova": 0,
      "posto": "0,00"
    },{
      "rbr": 12,
      "naziv": "MILKA LOZIĆ",
      "glasova": 0,
      "posto": "0,00"
    },{
      "rbr": 13,
      "naziv": "MARTA MATANOVIĆ",
      "glasova": 0,
      "posto": "0,00"
    },{
      "rbr": 14,
      "naziv": "VESNA JAKOPOVIĆ",
      "glasova": 0,
      "posto": "0,00"
    }]
  }]
}
