{
  "izbori": "Zastupnički izbori 2024",
  "datum": "15.04.2024.",
  "vrijeme": "15:00",
  "izboriOznaka": "02",
  "ijSifra": "007",
  "bmSifra": "000",
  "ijNaziv": "VII. IZBORNA JEDINICA",
  "gropNaziv": "KUTINA",
  "bmNaziv": "",
  "bmZatvoreno": 34,
  "bmUkupno": 39,
  "biraciUkupno": 12765,
  "biraciGlasovalo": 4742,
  "biraciGlasovaloPosto": "37,15",
  "listiciUkupno": 4736,
  "listiciVazeci": 4639,
  "listiciVazeciPosto": "97,95",
  "listiciNevazeci": 97,
  "listiciNevazeciPosto": "2,05",
  "napomena": "* - objavljeni rezultati sadrže podatke samo s redovnih biračkih mjesta",
  "napomena2": "",
  "lista": [{
    "rbr": 1,
    "stranke": [
      {"naziv": "AKCIJA ZA PROMJENE"},
      {"naziv": "AGRARNA STRANKA - POKRET ZA HRVATSKU POLJOPRIVREDU"}
    ],
    "jedinstvenaSifra": "303305",
    "glasova": 1687,
    "naziv": "AKCIJA ZA PROMJENE, AGRARNA STRANKA - POKRET ZA HRVATSKU POLJOPRIVREDU",
    "posto": "36,36",
    "lista": [{
      "rbr": 1,
      "naziv": "NEBOJŠA ANDRIĆ",
      "glasova": 337,
      "posto": "19,97"
    },{
      "rbr": 2,
      "naziv": "DAVOR SMUĐ",
      "glasova": 114,
      "posto": "6,75"
    },{
      "rbr": 3,
      "naziv": "DANIJEL JURKAŠ",
      "glasova": 61,
      "posto": "3,61"
    },{
      "rbr": 4,
      "naziv": "ANDREA CULI",
      "glasova": 97,
      "posto": "5,74"
    },{
      "rbr": 5,
      "naziv": "GORDANA LIPŠINIĆ",
      "glasova": 134,
      "posto": "7,94"
    },{
      "rbr": 6,
      "naziv": "ŽELJKA VULETIĆ",
      "glasova": 167,
      "posto": "9,89"
    },{
      "rbr": 7,
      "naziv": "DAMIR RADINOVIĆ",
      "glasova": 18,
      "posto": "1,06"
    },{
      "rbr": 8,
      "naziv": "ZLATKO MIHALJEVIĆ",
      "glasova": 41,
      "posto": "2,43"
    },{
      "rbr": 9,
      "naziv": "LAHORKA BOBETKO",
      "glasova": 320,
      "posto": "18,96"
    },{
      "rbr": 10,
      "naziv": "GORDANA STJEPANOVIĆ",
      "glasova": 304,
      "posto": "18,02"
    },{
      "rbr": 11,
      "naziv": "DAVID ANČIĆ",
      "glasova": 12,
      "posto": "0,71"
    },{
      "rbr": 12,
      "naziv": "IVANKA TURKALJ",
      "glasova": 15,
      "posto": "0,88"
    },{
      "rbr": 13,
      "naziv": "JOSIP TUMPAK",
      "glasova": 19,
      "posto": "1,12"
    },{
      "rbr": 14,
      "naziv": "GORAN ĐEKIĆ",
      "glasova": 35,
      "posto": "2,07"
    }]
  },{
    "rbr": 2,
    "stranke": [
      {"naziv": "AUTOHTONA - HRVATSKA STRANKA PRAVA - DRAŽEN KELEMINEC - A - HSP - Dražen Keleminec"}
    ],
    "jedinstvenaSifra": "049",
    "glasova": 715,
    "naziv": "A - HSP - Dražen Keleminec",
    "posto": "15,41",
    "lista": [{
      "rbr": 1,
      "naziv": "DRAŽEN KELEMINEC",
      "glasova": 155,
      "posto": "21,67"
    },{
      "rbr": 2,
      "naziv": "MATE DILBER",
      "glasova": 137,
      "posto": "19,16"
    },{
      "rbr": 3,
      "naziv": "VANJA STERMOLE",
      "glasova": 153,
      "posto": "21,39"
    },{
      "rbr": 4,
      "naziv": "TOMA ŠTEDUL",
      "glasova": 51,
      "posto": "7,13"
    },{
      "rbr": 5,
      "naziv": "HEIDI MILČIĆ",
      "glasova": 26,
      "posto": "3,63"
    },{
      "rbr": 6,
      "naziv": "VID ROŠČAK",
      "glasova": 38,
      "posto": "5,31"
    },{
      "rbr": 7,
      "naziv": "JASMINKA MAJIĆ",
      "glasova": 62,
      "posto": "8,67"
    },{
      "rbr": 8,
      "naziv": "ĐURO MARKUŠ",
      "glasova": 75,
      "posto": "10,48"
    },{
      "rbr": 9,
      "naziv": "NENAD CEPAK",
      "glasova": 0,
      "posto": "0,00"
    },{
      "rbr": 10,
      "naziv": "MARIJAN GOLUBIĆ",
      "glasova": 4,
      "posto": "0,55"
    },{
      "rbr": 11,
      "naziv": "GORAN KUMPARE",
      "glasova": 14,
      "posto": "1,95"
    },{
      "rbr": 12,
      "naziv": "JASENKA STIPETIĆ FERENČABA",
      "glasova": 0,
      "posto": "0,00"
    },{
      "rbr": 13,
      "naziv": "ZDENKA RADIČIĆ",
      "glasova": 0,
      "posto": "0,00"
    },{
      "rbr": 14,
      "naziv": "ZVONKO MAJIĆ",
      "glasova": 0,
      "posto": "0,00"
    }]
  },{
    "rbr": 3,
    "stranke": [
      {"naziv": "UMIROVLJENICI ZAJEDNO - POLITIČKA PLATFORMA - UMIROVLJENICI ZAJEDNO"},
      {"naziv": "STRANKA UMIROVLJENIKA - SU"},
      {"naziv": "BLOK UMIROVLJENICI ZAJEDNO - BUZ"},
      {"naziv": "DEMOKRATSKA STRANKA UMIROVLJENIKA - DSU"}
    ],
    "jedinstvenaSifra": "039041102301",
    "glasova": 418,
    "naziv": "UMIROVLJENICI ZAJEDNO, SU, BUZ, DSU",
    "posto": "9,01",
    "lista": [{
      "rbr": 1,
      "naziv": "VESNA HORVAT",
      "glasova": 92,
      "posto": "22,00"
    },{
      "rbr": 2,
      "naziv": "MILIVOJ TIČARIĆ",
      "glasova": 86,
      "posto": "20,57"
    },{
      "rbr": 3,
      "naziv": "BISERKA SCHMUCK",
      "glasova": 90,
      "posto": "21,53"
    },{
      "rbr": 4,
      "naziv": "JOSIP MILINKOVIĆ",
      "glasova": 32,
      "posto": "7,65"
    },{
      "rbr": 5,
      "naziv": "VLADIMIR MARIJAN TUDJA",
      "glasova": 3,
      "posto": "0,71"
    },{
      "rbr": 6,
      "naziv": "MARIJA VRBANAC",
      "glasova": 25,
      "posto": "5,98"
    },{
      "rbr": 7,
      "naziv": "IVAN JELENČIĆ",
      "glasova": 40,
      "posto": "9,56"
    },{
      "rbr": 8,
      "naziv": "STJEPAN TOMEČAK",
      "glasova": 49,
      "posto": "11,72"
    },{
      "rbr": 9,
      "naziv": "KSENIJA DRAKULIĆ",
      "glasova": 0,
      "posto": "0,00"
    },{
      "rbr": 10,
      "naziv": "ILIJA KORDIĆ",
      "glasova": 0,
      "posto": "0,00"
    },{
      "rbr": 11,
      "naziv": "JELENA MANDIĆ",
      "glasova": 1,
      "posto": "0,23"
    },{
      "rbr": 12,
      "naziv": "ŽELJKO JEZDIĆ",
      "glasova": 0,
      "posto": "0,00"
    },{
      "rbr": 13,
      "naziv": "MARIJA ANDRIŠČAK",
      "glasova": 0,
      "posto": "0,00"
    },{
      "rbr": 14,
      "naziv": "SNJEŽANA DOZET",
      "glasova": 0,
      "posto": "0,00"
    }]
  },{
    "rbr": 4,
    "stranke": [
      {"naziv": "HRVATSKA STRANKA GRAĐANSKOG OTPORA - HSGO"}
    ],
    "jedinstvenaSifra": "247",
    "glasova": 381,
    "naziv": "HSGO",
    "posto": "8,21",
    "lista": [{
      "rbr": 1,
      "naziv": "DRAŽEN KATIĆ",
      "glasova": 87,
      "posto": "22,83"
    },{
      "rbr": 2,
      "naziv": "DEJAN VINČIĆ",
      "glasova": 61,
      "posto": "16,01"
    },{
      "rbr": 3,
      "naziv": "MARIETTE DAMJANOVIĆ",
      "glasova": 45,
      "posto": "11,81"
    },{
      "rbr": 4,
      "naziv": "ANEL DŽAFEROVIĆ",
      "glasova": 39,
      "posto": "10,23"
    },{
      "rbr": 5,
      "naziv": "JADRANKO PODVRŠAN",
      "glasova": 53,
      "posto": "13,91"
    },{
      "rbr": 6,
      "naziv": "VERA POGELŠEK",
      "glasova": 29,
      "posto": "7,61"
    },{
      "rbr": 7,
      "naziv": "VALENTINA CVITKOVIĆ",
      "glasova": 20,
      "posto": "5,24"
    },{
      "rbr": 8,
      "naziv": "TOMISLAV VRBANIĆ",
      "glasova": 15,
      "posto": "3,93"
    },{
      "rbr": 9,
      "naziv": "ANITA KLADNIK",
      "glasova": 12,
      "posto": "3,14"
    },{
      "rbr": 10,
      "naziv": "KATARINA BEŠIĆ",
      "glasova": 15,
      "posto": "3,93"
    },{
      "rbr": 11,
      "naziv": "MARINA ŽLIČAR",
      "glasova": 1,
      "posto": "0,26"
    },{
      "rbr": 12,
      "naziv": "BISERKA HAAG",
      "glasova": 4,
      "posto": "1,04"
    },{
      "rbr": 13,
      "naziv": "MARIJAN URH",
      "glasova": 0,
      "posto": "0,00"
    },{
      "rbr": 14,
      "naziv": "SLAVKO MACENIĆ",
      "glasova": 0,
      "posto": "0,00"
    }]
  },{
    "rbr": 5,
    "stranke": [
      {"naziv": "STRANKA IVANA PERNARA"}
    ],
    "jedinstvenaSifra": "259",
    "glasova": 251,
    "naziv": "STRANKA IVANA PERNARA",
    "posto": "5,41",
    "lista": [{
      "rbr": 1,
      "naziv": "GORDAN ŠEBALJ",
      "glasova": 63,
      "posto": "25,09"
    },{
      "rbr": 2,
      "naziv": "FRANJO MIROSLAV PERKOVIĆ",
      "glasova": 56,
      "posto": "22,31"
    },{
      "rbr": 3,
      "naziv": "JOSIP ŽUČKO",
      "glasova": 61,
      "posto": "24,30"
    },{
      "rbr": 4,
      "naziv": "NATAŠA POGAČIĆ",
      "glasova": 10,
      "posto": "3,98"
    },{
      "rbr": 5,
      "naziv": "MIHAIL MARŠON",
      "glasova": 0,
      "posto": "0,00"
    },{
      "rbr": 6,
      "naziv": "TIHANA SVIBEN",
      "glasova": 5,
      "posto": "1,99"
    },{
      "rbr": 7,
      "naziv": "IVANA PERIĆ",
      "glasova": 23,
      "posto": "9,16"
    },{
      "rbr": 8,
      "naziv": "ANDREJ SAJKO",
      "glasova": 33,
      "posto": "13,14"
    },{
      "rbr": 9,
      "naziv": "SONJA PERKOVIĆ",
      "glasova": 0,
      "posto": "0,00"
    },{
      "rbr": 10,
      "naziv": "TOMISLAV MILINOVIĆ",
      "glasova": 0,
      "posto": "0,00"
    },{
      "rbr": 11,
      "naziv": "VIŠNJA ŠIMIĆ",
      "glasova": 0,
      "posto": "0,00"
    },{
      "rbr": 12,
      "naziv": "DALIBOR MEDVEDOVIĆ",
      "glasova": 0,
      "posto": "0,00"
    },{
      "rbr": 13,
      "naziv": "ZORAN RADMAN",
      "glasova": 0,
      "posto": "0,00"
    },{
      "rbr": 14,
      "naziv": "ANĐELA MARUSZKY",
      "glasova": 0,
      "posto": "0,00"
    }]
  },{
    "rbr": 6,
    "stranke": [
      {"naziv": "DOMOVINSKI POKRET - DP"},
      {"naziv": "PRAVO I PRAVDA"},
      {"naziv": "DEMOKRATSKI HSS - DHSS"},
      {"naziv": "ZELENA LISTA"}
    ],
    "jedinstvenaSifra": "231267283312",
    "glasova": 199,
    "naziv": "DP, PRAVO I PRAVDA, DHSS, ZELENA LISTA",
    "posto": "4,28",
    "lista": [{
      "rbr": 1,
      "naziv": "JOSIP JURČEVIĆ",
      "glasova": 50,
      "posto": "25,12"
    },{
      "rbr": 2,
      "naziv": "DAMIR MARKUŠ",
      "glasova": 34,
      "posto": "17,08"
    },{
      "rbr": 3,
      "naziv": "ŽELJKO LENART",
      "glasova": 4,
      "posto": "2,01"
    },{
      "rbr": 4,
      "naziv": "ALENKO RIBIĆ",
      "glasova": 26,
      "posto": "13,06"
    },{
      "rbr": 5,
      "naziv": "VLATKO IVKA",
      "glasova": 20,
      "posto": "10,05"
    },{
      "rbr": 6,
      "naziv": "VIKTORIJA KALEB",
      "glasova": 15,
      "posto": "7,53"
    },{
      "rbr": 7,
      "naziv": "ROMANA MILAJČIĆ",
      "glasova": 30,
      "posto": "15,07"
    },{
      "rbr": 8,
      "naziv": "ZVONIMIR MRGAN",
      "glasova": 11,
      "posto": "5,52"
    },{
      "rbr": 9,
      "naziv": "SONJA BABIĆ",
      "glasova": 0,
      "posto": "0,00"
    },{
      "rbr": 10,
      "naziv": "ŠIME BUŠKULIĆ",
      "glasova": 9,
      "posto": "4,52"
    },{
      "rbr": 11,
      "naziv": "IVA KUČINIĆ RADOŠEVIĆ",
      "glasova": 0,
      "posto": "0,00"
    },{
      "rbr": 12,
      "naziv": "ANKICA ROSANDIĆ",
      "glasova": 0,
      "posto": "0,00"
    },{
      "rbr": 13,
      "naziv": "DUBRAVKA BIJELIĆ",
      "glasova": 0,
      "posto": "0,00"
    },{
      "rbr": 14,
      "naziv": "FILIP JARNEVIĆ",
      "glasova": 0,
      "posto": "0,00"
    }]
  },{
    "rbr": 7,
    "stranke": [
      {"naziv": "SOCIJALDEMOKRATSKA PARTIJA HRVATSKE - SDP"},
      {"naziv": "CENTAR"},
      {"naziv": "HRVATSKA SELJAČKA STRANKA - HSS"},
      {"naziv": "\"DALIJA OREŠKOVIĆ I LJUDI S IMENOM I PREZIMENOM\" - \"DO i SIP\""},
      {"naziv": "GRAĐANSKO-LIBERALNI SAVEZ - GLAS"}
    ],
    "jedinstvenaSifra": "004017179244306",
    "glasova": 196,
    "naziv": "SDP, CENTAR, HSS, \"DO i SIP\", GLAS",
    "posto": "4,22",
    "lista": [{
      "rbr": 1,
      "naziv": "KRISTINA IKIĆ BANIČEK",
      "glasova": 50,
      "posto": "25,51"
    },{
      "rbr": 2,
      "naziv": "IVICA LUKANOVIĆ",
      "glasova": 43,
      "posto": "21,93"
    },{
      "rbr": 3,
      "naziv": "SANDRA KRPAN",
      "glasova": 26,
      "posto": "13,26"
    },{
      "rbr": 4,
      "naziv": "DALIBOR DOMITROVIĆ",
      "glasova": 16,
      "posto": "8,16"
    },{
      "rbr": 5,
      "naziv": "BRANKA BAKŠIĆ-MITIĆ",
      "glasova": 32,
      "posto": "16,32"
    },{
      "rbr": 6,
      "naziv": "MIRELA MIKIĆ MUHA",
      "glasova": 15,
      "posto": "7,65"
    },{
      "rbr": 7,
      "naziv": "ZDENKO MOČNIK",
      "glasova": 14,
      "posto": "7,14"
    },{
      "rbr": 8,
      "naziv": "MATEJ MOSTARAC",
      "glasova": 0,
      "posto": "0,00"
    },{
      "rbr": 9,
      "naziv": "DRAGICA MALOVIĆ",
      "glasova": 0,
      "posto": "0,00"
    },{
      "rbr": 10,
      "naziv": "TONI ŠTIMAC",
      "glasova": 0,
      "posto": "0,00"
    },{
      "rbr": 11,
      "naziv": "KREŠIMIR ČULINOVIĆ",
      "glasova": 0,
      "posto": "0,00"
    },{
      "rbr": 12,
      "naziv": "JASMINKA MOLNAR",
      "glasova": 0,
      "posto": "0,00"
    },{
      "rbr": 13,
      "naziv": "TONI HERENDA",
      "glasova": 0,
      "posto": "0,00"
    },{
      "rbr": 14,
      "naziv": "VOJKO OBERSNEL",
      "glasova": 0,
      "posto": "0,00"
    }]
  },{
    "rbr": 8,
    "stranke": [
      {"naziv": "MOŽEMO! - POLITIČKA PLATFORMA"},
      {"naziv": "HOĆEMO PRAVEDNO"}
    ],
    "jedinstvenaSifra": "255297",
    "glasova": 165,
    "naziv": "MOŽEMO! - POLITIČKA PLATFORMA, HOĆEMO PRAVEDNO",
    "posto": "3,55",
    "lista": [{
      "rbr": 1,
      "naziv": "DRAŽENKA POLOVIĆ",
      "glasova": 47,
      "posto": "28,48"
    },{
      "rbr": 2,
      "naziv": "IVA IVŠIĆ",
      "glasova": 38,
      "posto": "23,03"
    },{
      "rbr": 3,
      "naziv": "DOBRIŠA ADAMEC",
      "glasova": 45,
      "posto": "27,27"
    },{
      "rbr": 4,
      "naziv": "ORJEN PETKOVIĆ",
      "glasova": 6,
      "posto": "3,63"
    },{
      "rbr": 5,
      "naziv": "ANA ALAPIĆ",
      "glasova": 0,
      "posto": "0,00"
    },{
      "rbr": 6,
      "naziv": "DIMITRIJE BIRAČ",
      "glasova": 0,
      "posto": "0,00"
    },{
      "rbr": 7,
      "naziv": "VLASTA LENDLER-ADAMEC",
      "glasova": 12,
      "posto": "7,27"
    },{
      "rbr": 8,
      "naziv": "DUBRAVKO GOLUBIĆ",
      "glasova": 17,
      "posto": "10,30"
    },{
      "rbr": 9,
      "naziv": "VLATKA KRIZMANIĆ",
      "glasova": 0,
      "posto": "0,00"
    },{
      "rbr": 10,
      "naziv": "SANDA ĆAKIĆ",
      "glasova": 0,
      "posto": "0,00"
    },{
      "rbr": 11,
      "naziv": "ZLATKO DOMLJAN",
      "glasova": 0,
      "posto": "0,00"
    },{
      "rbr": 12,
      "naziv": "NEVENKA SUDAC-VINSKI",
      "glasova": 0,
      "posto": "0,00"
    },{
      "rbr": 13,
      "naziv": "SNJEŽANA DRVODELIĆ",
      "glasova": 0,
      "posto": "0,00"
    },{
      "rbr": 14,
      "naziv": "ANA MATAN",
      "glasova": 0,
      "posto": "0,00"
    }]
  },{
    "rbr": 9,
    "stranke": [
      {"naziv": "HRVATSKA STRANKA PRAVA - HSP"},
      {"naziv": "HRVATSKO BILO"},
      {"naziv": "HRVATSKA DEMOKRATSKA SELJAČKA STRANKA - HDSS"}
    ],
    "jedinstvenaSifra": "007018308",
    "glasova": 141,
    "naziv": "HSP, HRVATSKO BILO, HDSS",
    "posto": "3,03",
    "lista": [{
      "rbr": 1,
      "naziv": "ANTE PRKAČIN",
      "glasova": 43,
      "posto": "30,49"
    },{
      "rbr": 2,
      "naziv": "NIKICA AUGUSTINOVIĆ",
      "glasova": 27,
      "posto": "19,14"
    },{
      "rbr": 3,
      "naziv": "ŽELJKO BELANEK",
      "glasova": 17,
      "posto": "12,05"
    },{
      "rbr": 4,
      "naziv": "MARIA ĆAĆIĆ",
      "glasova": 16,
      "posto": "11,34"
    },{
      "rbr": 5,
      "naziv": "GORAN MARKOVAC",
      "glasova": 22,
      "posto": "15,60"
    },{
      "rbr": 6,
      "naziv": "MARIO VRSELJA",
      "glasova": 12,
      "posto": "8,51"
    },{
      "rbr": 7,
      "naziv": "DAMIR PUČAK",
      "glasova": 4,
      "posto": "2,83"
    },{
      "rbr": 8,
      "naziv": "RENATA ČAČIĆ",
      "glasova": 0,
      "posto": "0,00"
    },{
      "rbr": 9,
      "naziv": "ANTONIA LOVREKOVIĆ",
      "glasova": 0,
      "posto": "0,00"
    },{
      "rbr": 10,
      "naziv": "ĐURĐICA JURIĆ",
      "glasova": 0,
      "posto": "0,00"
    },{
      "rbr": 11,
      "naziv": "LEONI GLAD",
      "glasova": 0,
      "posto": "0,00"
    },{
      "rbr": 12,
      "naziv": "JOSIP ŽARAK",
      "glasova": 0,
      "posto": "0,00"
    },{
      "rbr": 13,
      "naziv": "DIJANA LIPOVAC",
      "glasova": 0,
      "posto": "0,00"
    },{
      "rbr": 14,
      "naziv": "IVAN PIŠKOR",
      "glasova": 0,
      "posto": "0,00"
    }]
  },{
    "rbr": 10,
    "stranke": [
      {"naziv": "MOST"},
      {"naziv": "HRVATSKI SUVERENISTI"},
      {"naziv": "HRVATSKA KONZERVATIVNA STRANKA - HKS"},
      {"naziv": "NEZAVISNA LISTA MLADIH - NLM"}
    ],
    "jedinstvenaSifra": "131165188263",
    "glasova": 133,
    "naziv": "MOST, HRVATSKI SUVERENISTI, HKS, NLM",
    "posto": "2,86",
    "lista": [{
      "rbr": 1,
      "naziv": "ZVONIMIR TROSKOT",
      "glasova": 43,
      "posto": "32,33"
    },{
      "rbr": 2,
      "naziv": "LUCA GAŠPAR ŠAKO",
      "glasova": 33,
      "posto": "24,81"
    },{
      "rbr": 3,
      "naziv": "ŠIME GLIGORA",
      "glasova": 36,
      "posto": "27,06"
    },{
      "rbr": 4,
      "naziv": "ANAMARIJA JURKOVIĆ",
      "glasova": 2,
      "posto": "1,50"
    },{
      "rbr": 5,
      "naziv": "FRANO ČIRKO",
      "glasova": 0,
      "posto": "0,00"
    },{
      "rbr": 6,
      "naziv": "HRVOJE BEZJAK",
      "glasova": 0,
      "posto": "0,00"
    },{
      "rbr": 7,
      "naziv": "NEVIO KLARIĆ",
      "glasova": 5,
      "posto": "3,75"
    },{
      "rbr": 8,
      "naziv": "ROBERT GROZA",
      "glasova": 14,
      "posto": "10,52"
    },{
      "rbr": 9,
      "naziv": "LJILJANA LAMPERT",
      "glasova": 0,
      "posto": "0,00"
    },{
      "rbr": 10,
      "naziv": "TANJA ŠIMANIĆ",
      "glasova": 0,
      "posto": "0,00"
    },{
      "rbr": 11,
      "naziv": "RAFAELA SURINA",
      "glasova": 0,
      "posto": "0,00"
    },{
      "rbr": 12,
      "naziv": "GORDANA BREZINŠĆAK ĐOZO",
      "glasova": 0,
      "posto": "0,00"
    },{
      "rbr": 13,
      "naziv": "IVAN BULAJA",
      "glasova": 0,
      "posto": "0,00"
    },{
      "rbr": 14,
      "naziv": "FRANE VUČETIĆ",
      "glasova": 0,
      "posto": "0,00"
    }]
  },{
    "rbr": 11,
    "stranke": [
      {"naziv": "ODLUČNOST I PRAVEDNOST - OIP"}
    ],
    "jedinstvenaSifra": "300",
    "glasova": 108,
    "naziv": "OIP",
    "posto": "2,32",
    "lista": [{
      "rbr": 1,
      "naziv": "ROBERT KRPES",
      "glasova": 32,
      "posto": "29,62"
    },{
      "rbr": 2,
      "naziv": "ANA KRIVAK",
      "glasova": 17,
      "posto": "15,74"
    },{
      "rbr": 3,
      "naziv": "ZVONKO TOMLJENOVIĆ",
      "glasova": 3,
      "posto": "2,77"
    },{
      "rbr": 4,
      "naziv": "DANIJEL OPRAUŠ",
      "glasova": 0,
      "posto": "0,00"
    },{
      "rbr": 5,
      "naziv": "TOMISLAV BOŽIČEVIĆ",
      "glasova": 13,
      "posto": "12,03"
    },{
      "rbr": 6,
      "naziv": "IVAN JAKUBEK",
      "glasova": 0,
      "posto": "0,00"
    },{
      "rbr": 7,
      "naziv": "KRISTIJAN ŠANDOR",
      "glasova": 0,
      "posto": "0,00"
    },{
      "rbr": 8,
      "naziv": "VEDRAN ČANIĆ",
      "glasova": 0,
      "posto": "0,00"
    },{
      "rbr": 9,
      "naziv": "DALIBOR DOKMANIĆ",
      "glasova": 0,
      "posto": "0,00"
    },{
      "rbr": 10,
      "naziv": "IVAN MATAK",
      "glasova": 0,
      "posto": "0,00"
    },{
      "rbr": 11,
      "naziv": "MARIO MARINCEL",
      "glasova": 0,
      "posto": "0,00"
    },{
      "rbr": 12,
      "naziv": "JOSO PERKOVIĆ",
      "glasova": 0,
      "posto": "0,00"
    },{
      "rbr": 13,
      "naziv": "BORIS MORO",
      "glasova": 0,
      "posto": "0,00"
    },{
      "rbr": 14,
      "naziv": "IVANA FRANUL",
      "glasova": 43,
      "posto": "39,81"
    }]
  },{
    "rbr": 12,
    "stranke": [
      {"naziv": "RADNIČKA FRONTA - RF"}
    ],
    "jedinstvenaSifra": "168",
    "glasova": 76,
    "naziv": "RF",
    "posto": "1,63",
    "lista": [{
      "rbr": 1,
      "naziv": "ANTON GLASNOVIĆ",
      "glasova": 26,
      "posto": "34,21"
    },{
      "rbr": 2,
      "naziv": "SANDRA KASUNIĆ",
      "glasova": 18,
      "posto": "23,68"
    },{
      "rbr": 3,
      "naziv": "ANDREJ GEORGIEVSKI",
      "glasova": 13,
      "posto": "17,10"
    },{
      "rbr": 4,
      "naziv": "RUŽICA KARTELO",
      "glasova": 4,
      "posto": "5,26"
    },{
      "rbr": 5,
      "naziv": "VELIBOR VALENTA",
      "glasova": 15,
      "posto": "19,73"
    },{
      "rbr": 6,
      "naziv": "KSENIJA BATALO",
      "glasova": 0,
      "posto": "0,00"
    },{
      "rbr": 7,
      "naziv": "NIKOLA GVOJIĆ",
      "glasova": 0,
      "posto": "0,00"
    },{
      "rbr": 8,
      "naziv": "JASMINKA BUIĆ",
      "glasova": 0,
      "posto": "0,00"
    },{
      "rbr": 9,
      "naziv": "MLADEN BRAJAK",
      "glasova": 0,
      "posto": "0,00"
    },{
      "rbr": 10,
      "naziv": "ANITA BUHIN",
      "glasova": 0,
      "posto": "0,00"
    },{
      "rbr": 11,
      "naziv": "JOSIP IVANČIĆ",
      "glasova": 0,
      "posto": "0,00"
    },{
      "rbr": 12,
      "naziv": "MARIO ZAJIČEK",
      "glasova": 0,
      "posto": "0,00"
    },{
      "rbr": 13,
      "naziv": "IVICA ŠUSTIĆ",
      "glasova": 0,
      "posto": "0,00"
    },{
      "rbr": 14,
      "naziv": "MIRTA MATAIJA",
      "glasova": 0,
      "posto": "0,00"
    }]
  },{
    "rbr": 13,
    "stranke": [
      {"naziv": "NARODNA STRANKA - REFORMISTI - REFORMISTI"},
      {"naziv": "PRIMORSKO GORANSKI SAVEZ - PGS"},
      {"naziv": "ISTARSKI DEMOKRATSKI SABOR - IDS"},
      {"naziv": "UNIJA KVARNERA - UNIJA"},
      {"naziv": "STRANKA HRVATSKIH UMIROVLJENIKA - UMIROVLJENICI - UMIROVLJENICI"}
    ],
    "jedinstvenaSifra": "005006162178241",
    "glasova": 67,
    "naziv": "REFORMISTI, PGS, IDS, UNIJA, UMIROVLJENICI",
    "posto": "1,44",
    "lista": [{
      "rbr": 1,
      "naziv": "ALENKA KOŠIŠA ČIČIN-ŠAIN",
      "glasova": 25,
      "posto": "37,31"
    },{
      "rbr": 2,
      "naziv": "SNJEŽANA PODOBNIK",
      "glasova": 15,
      "posto": "22,38"
    },{
      "rbr": 3,
      "naziv": "MIRELLA MLADIN",
      "glasova": 16,
      "posto": "23,88"
    },{
      "rbr": 4,
      "naziv": "MARKO SOBOTINČIĆ",
      "glasova": 0,
      "posto": "0,00"
    },{
      "rbr": 5,
      "naziv": "ZINKA BRATUŠA",
      "glasova": 0,
      "posto": "0,00"
    },{
      "rbr": 6,
      "naziv": "DUŠAN ŠTEMBERGER",
      "glasova": 0,
      "posto": "0,00"
    },{
      "rbr": 7,
      "naziv": "ŽELJKO BEDEKOVIĆ",
      "glasova": 2,
      "posto": "2,98"
    },{
      "rbr": 8,
      "naziv": "NATAŠA BLAŽEVIĆ STARČEVIĆ",
      "glasova": 9,
      "posto": "13,43"
    },{
      "rbr": 9,
      "naziv": "MARIJAN ŠTEFANKO",
      "glasova": 0,
      "posto": "0,00"
    },{
      "rbr": 10,
      "naziv": "DAVID MAROT",
      "glasova": 0,
      "posto": "0,00"
    },{
      "rbr": 11,
      "naziv": "INGRID KRŠULJA",
      "glasova": 0,
      "posto": "0,00"
    },{
      "rbr": 12,
      "naziv": "SANDRO VIZLER",
      "glasova": 0,
      "posto": "0,00"
    },{
      "rbr": 13,
      "naziv": "IVANA TRTANJ",
      "glasova": 0,
      "posto": "0,00"
    },{
      "rbr": 14,
      "naziv": "NEDJELJKO PINEZIĆ",
      "glasova": 0,
      "posto": "0,00"
    }]
  },{
    "rbr": 14,
    "stranke": [
      {"naziv": "FOKUS"},
      {"naziv": "REPUBLIKA"}
    ],
    "jedinstvenaSifra": "270310",
    "glasova": 40,
    "naziv": "FOKUS, REPUBLIKA",
    "posto": "0,86",
    "lista": [{
      "rbr": 1,
      "naziv": "IVAN JANKOVIĆ",
      "glasova": 21,
      "posto": "52,50"
    },{
      "rbr": 2,
      "naziv": "GORAN BUKOVAC",
      "glasova": 0,
      "posto": "0,00"
    },{
      "rbr": 3,
      "naziv": "HRVOJE JURKOVIĆ",
      "glasova": 0,
      "posto": "0,00"
    },{
      "rbr": 4,
      "naziv": "KREŠIMIR KUTEROVAC",
      "glasova": 0,
      "posto": "0,00"
    },{
      "rbr": 5,
      "naziv": "VIKTORIJA ROGIĆ",
      "glasova": 0,
      "posto": "0,00"
    },{
      "rbr": 6,
      "naziv": "SABRINA PEJIĆ",
      "glasova": 0,
      "posto": "0,00"
    },{
      "rbr": 7,
      "naziv": "MAJA LINIĆ",
      "glasova": 0,
      "posto": "0,00"
    },{
      "rbr": 8,
      "naziv": "ARIJANA MRZLJAK",
      "glasova": 0,
      "posto": "0,00"
    },{
      "rbr": 9,
      "naziv": "DAVORKA ŠUŠNJIĆ",
      "glasova": 15,
      "posto": "37,50"
    },{
      "rbr": 10,
      "naziv": "ZVONIMIR CRNOGORAC",
      "glasova": 4,
      "posto": "10,00"
    },{
      "rbr": 11,
      "naziv": "GRETA BURŠIĆ",
      "glasova": 0,
      "posto": "0,00"
    },{
      "rbr": 12,
      "naziv": "MARKO LESKOVAR",
      "glasova": 0,
      "posto": "0,00"
    },{
      "rbr": 13,
      "naziv": "IRENA PEJAKOVIĆ",
      "glasova": 0,
      "posto": "0,00"
    },{
      "rbr": 14,
      "naziv": "DANIJEL TUŠAK",
      "glasova": 0,
      "posto": "0,00"
    }]
  },{
    "rbr": 15,
    "stranke": [
      {"naziv": "HRVATSKA DEMOKRATSKA ZAJEDNICA - HDZ"},
      {"naziv": "HRVATSKA SOCIJALNO - LIBERALNA STRANKA - HSLS"},
      {"naziv": "HRVATSKA DEMOKRŠĆANSKA STRANKA - HDS"},
      {"naziv": "HRVATSKA NARODNA STRANKA - LIBERALNI DEMOKRATI - HNS"},
      {"naziv": "HRVATSKA STRANKA UMIROVLJENIKA - HSU"}
    ],
    "jedinstvenaSifra": "001002003011023",
    "glasova": 31,
    "naziv": "HDZ, HSLS, HDS, HNS, HSU",
    "posto": "0,66",
    "lista": [{
      "rbr": 1,
      "naziv": "TOMO MEDVED",
      "glasova": 18,
      "posto": "58,06"
    },{
      "rbr": 2,
      "naziv": "IVAN CELJAK",
      "glasova": 13,
      "posto": "41,93"
    },{
      "rbr": 3,
      "naziv": "MARTINA FURDEK-HAJDIN",
      "glasova": 0,
      "posto": "0,00"
    },{
      "rbr": 4,
      "naziv": "MARIJANA PETIR",
      "glasova": 0,
      "posto": "0,00"
    },{
      "rbr": 5,
      "naziv": "ERNEST PETRY",
      "glasova": 0,
      "posto": "0,00"
    },{
      "rbr": 6,
      "naziv": "VESELKO GABRIČEVIĆ",
      "glasova": 0,
      "posto": "0,00"
    },{
      "rbr": 7,
      "naziv": "NIKOLINA BRNJAC",
      "glasova": 0,
      "posto": "0,00"
    },{
      "rbr": 8,
      "naziv": "MAJDA BURIĆ",
      "glasova": 0,
      "posto": "0,00"
    },{
      "rbr": 9,
      "naziv": "RADE ŠIMIČEVIĆ",
      "glasova": 0,
      "posto": "0,00"
    },{
      "rbr": 10,
      "naziv": "MAGDALENA KOMES",
      "glasova": 0,
      "posto": "0,00"
    },{
      "rbr": 11,
      "naziv": "DAMIR MANDIĆ",
      "glasova": 0,
      "posto": "0,00"
    },{
      "rbr": 12,
      "naziv": "ANĐELKA SALOPEK",
      "glasova": 0,
      "posto": "0,00"
    },{
      "rbr": 13,
      "naziv": "SANJA MIOKOVIĆ",
      "glasova": 0,
      "posto": "0,00"
    },{
      "rbr": 14,
      "naziv": "IVAN DABO",
      "glasova": 0,
      "posto": "0,00"
    }]
  },{
    "rbr": 16,
    "stranke": [
      {"naziv": "SOCIJALDEMOKRATI"},
      {"naziv": "HRVATSKI LABURISTI - STRANKA RADA - LABURISTI"},
      {"naziv": "DEMOKRATI"}
    ],
    "jedinstvenaSifra": "100251299",
    "glasova": 31,
    "naziv": "SOCIJALDEMOKRATI, LABURISTI, DEMOKRATI",
    "posto": "0,66",
    "lista": [{
      "rbr": 1,
      "naziv": "NATAŠA NOVAKOVIĆ",
      "glasova": 18,
      "posto": "58,06"
    },{
      "rbr": 2,
      "naziv": "DAVID BREGOVAC",
      "glasova": 13,
      "posto": "41,93"
    },{
      "rbr": 3,
      "naziv": "TOMISLAV ZRINSKI",
      "glasova": 0,
      "posto": "0,00"
    },{
      "rbr": 4,
      "naziv": "KATARINA PLEŠA JAKOVLJEVIĆ",
      "glasova": 0,
      "posto": "0,00"
    },{
      "rbr": 5,
      "naziv": "DALIBOR ŽILJAK",
      "glasova": 0,
      "posto": "0,00"
    },{
      "rbr": 6,
      "naziv": "TIHANA POCHOBRADSKY",
      "glasova": 0,
      "posto": "0,00"
    },{
      "rbr": 7,
      "naziv": "MOMIR RAJŠIĆ",
      "glasova": 0,
      "posto": "0,00"
    },{
      "rbr": 8,
      "naziv": "TANJA JOVIĆ",
      "glasova": 0,
      "posto": "0,00"
    },{
      "rbr": 9,
      "naziv": "LUKA PAVLOVIĆ",
      "glasova": 0,
      "posto": "0,00"
    },{
      "rbr": 10,
      "naziv": "JURICA KLARIĆ",
      "glasova": 0,
      "posto": "0,00"
    },{
      "rbr": 11,
      "naziv": "KRISTINA KOSTADINOVSKA",
      "glasova": 0,
      "posto": "0,00"
    },{
      "rbr": 12,
      "naziv": "TAMARA VIDAČEK",
      "glasova": 0,
      "posto": "0,00"
    },{
      "rbr": 13,
      "naziv": "BOŽIDAR RAUCH",
      "glasova": 0,
      "posto": "0,00"
    },{
      "rbr": 14,
      "naziv": "BRANKO KUKURIN",
      "glasova": 0,
      "posto": "0,00"
    }]
  }]
}
