{
  "izbori": "Zastupnički izbori 2024",
  "datum": "15.04.2024.",
  "vrijeme": "15:00",
  "izboriOznaka": "02",
  "ijSifra": "002",
  "bmSifra": "000",
  "ijNaziv": "II. IZBORNA JEDINICA",
  "gropNaziv": "KLOŠTAR IVANIĆ",
  "bmNaziv": "",
  "bmZatvoreno": 11,
  "bmUkupno": 14,
  "biraciUkupno": 4772,
  "biraciGlasovalo": 2248,
  "biraciGlasovaloPosto": "47,11",
  "listiciUkupno": 2246,
  "listiciVazeci": 2214,
  "listiciVazeciPosto": "98,58",
  "listiciNevazeci": 32,
  "listiciNevazeciPosto": "1,42",
  "napomena": "* - objavljeni rezultati sadrže podatke samo s redovnih biračkih mjesta",
  "napomena2": "",
  "lista": [{
    "rbr": 1,
    "stranke": [
      {"naziv": "AGRARNA STRANKA - POKRET ZA HRVATSKU POLJOPRIVREDU"},
      {"naziv": "AKCIJA ZA PROMJENE"}
    ],
    "jedinstvenaSifra": "303305",
    "glasova": 667,
    "naziv": "AGRARNA STRANKA - POKRET ZA HRVATSKU POLJOPRIVREDU, AKCIJA ZA PROMJENE",
    "posto": "30,12",
    "lista": [{
      "rbr": 1,
      "naziv": "DALIBOR JURINA",
      "glasova": 133,
      "posto": "19,94"
    },{
      "rbr": 2,
      "naziv": "MILJENKO ŠIMPRAGA",
      "glasova": 45,
      "posto": "6,74"
    },{
      "rbr": 3,
      "naziv": "ANDREJA MARCETIĆ",
      "glasova": 23,
      "posto": "3,44"
    },{
      "rbr": 4,
      "naziv": "JOSIP MIKUŠ",
      "glasova": 40,
      "posto": "5,99"
    },{
      "rbr": 5,
      "naziv": "DAMIR RADAN",
      "glasova": 53,
      "posto": "7,94"
    },{
      "rbr": 6,
      "naziv": "KRISTINA ŽIVKO",
      "glasova": 66,
      "posto": "9,89"
    },{
      "rbr": 7,
      "naziv": "KRUNOSLAV LUGARIĆ",
      "glasova": 8,
      "posto": "1,19"
    },{
      "rbr": 8,
      "naziv": "DARKO KOŠAR",
      "glasova": 17,
      "posto": "2,54"
    },{
      "rbr": 9,
      "naziv": "VERA HADŽIĆ",
      "glasova": 124,
      "posto": "18,59"
    },{
      "rbr": 10,
      "naziv": "STJEPAN RAKAS",
      "glasova": 119,
      "posto": "17,84"
    },{
      "rbr": 11,
      "naziv": "NADANA JELIĆ",
      "glasova": 3,
      "posto": "0,44"
    },{
      "rbr": 12,
      "naziv": "DOROTEA RIVIĆ",
      "glasova": 6,
      "posto": "0,89"
    },{
      "rbr": 13,
      "naziv": "MIRSAD SADIKOVIĆ",
      "glasova": 9,
      "posto": "1,34"
    },{
      "rbr": 14,
      "naziv": "KORNELIJA MARUŠIĆ RAKAS",
      "glasova": 14,
      "posto": "2,09"
    }]
  },{
    "rbr": 2,
    "stranke": [
      {"naziv": "RADNIČKA FRONTA - RF"}
    ],
    "jedinstvenaSifra": "168",
    "glasova": 317,
    "naziv": "RF",
    "posto": "14,31",
    "lista": [{
      "rbr": 1,
      "naziv": "SANDRA CRNKOVIĆ",
      "glasova": 62,
      "posto": "19,55"
    },{
      "rbr": 2,
      "naziv": "ZLATKO HARAPIN",
      "glasova": 59,
      "posto": "18,61"
    },{
      "rbr": 3,
      "naziv": "VIKTORIJA ĆURLIN",
      "glasova": 66,
      "posto": "20,82"
    },{
      "rbr": 4,
      "naziv": "DANIJEL DUJMOVIĆ",
      "glasova": 24,
      "posto": "7,57"
    },{
      "rbr": 5,
      "naziv": "SVJETLANA GETO",
      "glasova": 10,
      "posto": "3,15"
    },{
      "rbr": 6,
      "naziv": "ZDENKO LOVRIĆ",
      "glasova": 17,
      "posto": "5,36"
    },{
      "rbr": 7,
      "naziv": "MAŠA VARDA",
      "glasova": 27,
      "posto": "8,51"
    },{
      "rbr": 8,
      "naziv": "BRANKO CEROVAC",
      "glasova": 33,
      "posto": "10,41"
    },{
      "rbr": 9,
      "naziv": "ZLATKA RAŠPERIĆ",
      "glasova": 1,
      "posto": "0,31"
    },{
      "rbr": 10,
      "naziv": "VEDRAN IVANKOVIĆ",
      "glasova": 6,
      "posto": "1,89"
    },{
      "rbr": 11,
      "naziv": "ANICA KRPAN",
      "glasova": 8,
      "posto": "2,52"
    },{
      "rbr": 12,
      "naziv": "ANTONIJO CRNKOVIĆ",
      "glasova": 4,
      "posto": "1,26"
    },{
      "rbr": 13,
      "naziv": "DOMAGOJ MARTINIĆ",
      "glasova": 0,
      "posto": "0,00"
    },{
      "rbr": 14,
      "naziv": "VLADIMIR WÖLFL",
      "glasova": 0,
      "posto": "0,00"
    }]
  },{
    "rbr": 3,
    "stranke": [
      {"naziv": "STRANKA IVANA PERNARA"}
    ],
    "jedinstvenaSifra": "259",
    "glasova": 315,
    "naziv": "STRANKA IVANA PERNARA",
    "posto": "14,22",
    "lista": [{
      "rbr": 1,
      "naziv": "HERMAN VUKUŠIĆ",
      "glasova": 62,
      "posto": "19,68"
    },{
      "rbr": 2,
      "naziv": "KRISTIJAN MARKOVIĆ",
      "glasova": 59,
      "posto": "18,73"
    },{
      "rbr": 3,
      "naziv": "TAMARA CIBOCI",
      "glasova": 66,
      "posto": "20,95"
    },{
      "rbr": 4,
      "naziv": "KEMAL DELIĆ",
      "glasova": 24,
      "posto": "7,61"
    },{
      "rbr": 5,
      "naziv": "VEDRANA FUGAJ",
      "glasova": 10,
      "posto": "3,17"
    },{
      "rbr": 6,
      "naziv": "ZDENKA BABIĆ",
      "glasova": 17,
      "posto": "5,39"
    },{
      "rbr": 7,
      "naziv": "GABRIJELA PAUŠIĆ",
      "glasova": 27,
      "posto": "8,57"
    },{
      "rbr": 8,
      "naziv": "PATRICIJA GOLUBIĆ",
      "glasova": 33,
      "posto": "10,47"
    },{
      "rbr": 9,
      "naziv": "MAJA STROJANŠEK",
      "glasova": 0,
      "posto": "0,00"
    },{
      "rbr": 10,
      "naziv": "SEBASTIAN ILIĆ",
      "glasova": 6,
      "posto": "1,90"
    },{
      "rbr": 11,
      "naziv": "TOMISLAV PREVODNIK",
      "glasova": 8,
      "posto": "2,53"
    },{
      "rbr": 12,
      "naziv": "MATKO LOZANČIĆ",
      "glasova": 0,
      "posto": "0,00"
    },{
      "rbr": 13,
      "naziv": "SARI GHAZAL",
      "glasova": 0,
      "posto": "0,00"
    },{
      "rbr": 14,
      "naziv": "IVON RAJIČEVIĆ",
      "glasova": 3,
      "posto": "0,95"
    }]
  },{
    "rbr": 4,
    "stranke": [
      {"naziv": "UMIROVLJENICI ZAJEDNO - POLITIČKA PLATFORMA - UMIROVLJENICI ZAJEDNO"},
      {"naziv": "STRANKA UMIROVLJENIKA - SU"},
      {"naziv": "BLOK UMIROVLJENICI ZAJEDNO - BUZ"},
      {"naziv": "DEMOKRATSKA STRANKA UMIROVLJENIKA - DSU"}
    ],
    "jedinstvenaSifra": "039041102301",
    "glasova": 230,
    "naziv": "UMIROVLJENICI ZAJEDNO, SU, BUZ, DSU",
    "posto": "10,38",
    "lista": [{
      "rbr": 1,
      "naziv": "MARIJAN ŽIHER",
      "glasova": 92,
      "posto": "40,00"
    },{
      "rbr": 2,
      "naziv": "MILIVOJ ČEHULIĆ",
      "glasova": 32,
      "posto": "13,91"
    },{
      "rbr": 3,
      "naziv": "SLAVKO POSAVEC",
      "glasova": 26,
      "posto": "11,30"
    },{
      "rbr": 4,
      "naziv": "ŽELJKICA KRUHIN",
      "glasova": 19,
      "posto": "8,26"
    },{
      "rbr": 5,
      "naziv": "ŽELJKO ORŠOLIĆ",
      "glasova": 31,
      "posto": "13,47"
    },{
      "rbr": 6,
      "naziv": "DRAGUTIN POLAŠEK",
      "glasova": 12,
      "posto": "5,21"
    },{
      "rbr": 7,
      "naziv": "VALENTINA STARI",
      "glasova": 9,
      "posto": "3,91"
    },{
      "rbr": 8,
      "naziv": "MIRA TUPEK",
      "glasova": 2,
      "posto": "0,86"
    },{
      "rbr": 9,
      "naziv": "KATICA MUNTA",
      "glasova": 2,
      "posto": "0,86"
    },{
      "rbr": 10,
      "naziv": "MOMČILO TOMIĆ",
      "glasova": 3,
      "posto": "1,30"
    },{
      "rbr": 11,
      "naziv": "BOŽICA HARABAJSA",
      "glasova": 0,
      "posto": "0,00"
    },{
      "rbr": 12,
      "naziv": "MARICA SALOPEK",
      "glasova": 1,
      "posto": "0,43"
    },{
      "rbr": 13,
      "naziv": "DARKO MRAZ",
      "glasova": 1,
      "posto": "0,43"
    },{
      "rbr": 14,
      "naziv": "FABIJAN ZOVKIĆ",
      "glasova": 0,
      "posto": "0,00"
    }]
  },{
    "rbr": 5,
    "stranke": [
      {"naziv": "HRVATSKA STRANKA PRAVA - HSP"},
      {"naziv": "HRVATSKO BILO"},
      {"naziv": "HRVATSKA DEMOKRATSKA SELJAČKA STRANKA - HDSS"}
    ],
    "jedinstvenaSifra": "007018308",
    "glasova": 158,
    "naziv": "HSP, HRVATSKO BILO, HDSS",
    "posto": "7,13",
    "lista": [{
      "rbr": 1,
      "naziv": "NADA ŠIKIĆ",
      "glasova": 66,
      "posto": "41,77"
    },{
      "rbr": 2,
      "naziv": "BRIGITTE BERULEC",
      "glasova": 23,
      "posto": "14,55"
    },{
      "rbr": 3,
      "naziv": "ZORICA GREGURIĆ",
      "glasova": 19,
      "posto": "12,02"
    },{
      "rbr": 4,
      "naziv": "ANTUN CINDRIĆ",
      "glasova": 12,
      "posto": "7,59"
    },{
      "rbr": 5,
      "naziv": "HANA MALINA",
      "glasova": 21,
      "posto": "13,29"
    },{
      "rbr": 6,
      "naziv": "MARICA MARIĆ",
      "glasova": 8,
      "posto": "5,06"
    },{
      "rbr": 7,
      "naziv": "DALIBOR ŠOSTARIĆ",
      "glasova": 4,
      "posto": "2,53"
    },{
      "rbr": 8,
      "naziv": "KATARINA SVETEC",
      "glasova": 1,
      "posto": "0,63"
    },{
      "rbr": 9,
      "naziv": "ALIN KAVUR",
      "glasova": 1,
      "posto": "0,63"
    },{
      "rbr": 10,
      "naziv": "HRVOJE PAVIĆ",
      "glasova": 2,
      "posto": "1,26"
    },{
      "rbr": 11,
      "naziv": "ZVONKO KOROV",
      "glasova": 0,
      "posto": "0,00"
    },{
      "rbr": 12,
      "naziv": "MLADEN VUKASOVIĆ",
      "glasova": 1,
      "posto": "0,63"
    },{
      "rbr": 13,
      "naziv": "ANDRIJA NIKOLIĆ",
      "glasova": 0,
      "posto": "0,00"
    },{
      "rbr": 14,
      "naziv": "IGOR KIKIĆ",
      "glasova": 0,
      "posto": "0,00"
    }]
  },{
    "rbr": 6,
    "stranke": [
      {"naziv": "AUTOHTONA - HRVATSKA STRANKA PRAVA - DRAŽEN KELEMINEC - A - HSP - Dražen Keleminec"}
    ],
    "jedinstvenaSifra": "049",
    "glasova": 115,
    "naziv": "A - HSP - Dražen Keleminec",
    "posto": "5,19",
    "lista": [{
      "rbr": 1,
      "naziv": "NIKOLA LUKIĆ",
      "glasova": 25,
      "posto": "21,73"
    },{
      "rbr": 2,
      "naziv": "JOSIP ŠPIŠIĆ",
      "glasova": 25,
      "posto": "21,73"
    },{
      "rbr": 3,
      "naziv": "MARINKO PEREC",
      "glasova": 27,
      "posto": "23,47"
    },{
      "rbr": 4,
      "naziv": "STJEPAN SOKAČ",
      "glasova": 8,
      "posto": "6,95"
    },{
      "rbr": 5,
      "naziv": "MIRA KUTLEŠA",
      "glasova": 0,
      "posto": "0,00"
    },{
      "rbr": 6,
      "naziv": "GORAN ŠARIĆ",
      "glasova": 6,
      "posto": "5,21"
    },{
      "rbr": 7,
      "naziv": "MARIJANA PANIĆ",
      "glasova": 10,
      "posto": "8,69"
    },{
      "rbr": 8,
      "naziv": "MARKO KUTLEŠA",
      "glasova": 14,
      "posto": "12,17"
    },{
      "rbr": 9,
      "naziv": "SLADJANA PEREC",
      "glasova": 0,
      "posto": "0,00"
    },{
      "rbr": 10,
      "naziv": "ROBERT HUZEK-KITTAN",
      "glasova": 0,
      "posto": "0,00"
    },{
      "rbr": 11,
      "naziv": "MARGARETA MAJIĆ",
      "glasova": 0,
      "posto": "0,00"
    },{
      "rbr": 12,
      "naziv": "VEDRAN VESENJAK",
      "glasova": 0,
      "posto": "0,00"
    },{
      "rbr": 13,
      "naziv": "ZORICA POLJANEK",
      "glasova": 0,
      "posto": "0,00"
    },{
      "rbr": 14,
      "naziv": "MARINA HUZEK KITTAN",
      "glasova": 0,
      "posto": "0,00"
    }]
  },{
    "rbr": 7,
    "stranke": [
      {"naziv": "SOCIJALDEMOKRATI"},
      {"naziv": "ISTARSKI DEMOKRATSKI SABOR - IDS"},
      {"naziv": "PRIMORSKO GORANSKI SAVEZ - PGS"},
      {"naziv": "HRVATSKI LABURISTI - STRANKA RADA - LABURISTI"},
      {"naziv": "DEMOKRATI"}
    ],
    "jedinstvenaSifra": "005006100251299",
    "glasova": 84,
    "naziv": "SOCIJALDEMOKRATI, IDS, PGS, LABURISTI, DEMOKRATI",
    "posto": "3,79",
    "lista": [{
      "rbr": 1,
      "naziv": "VLADO ŠOLA",
      "glasova": 20,
      "posto": "23,80"
    },{
      "rbr": 2,
      "naziv": "VESNA NAĐ",
      "glasova": 19,
      "posto": "22,61"
    },{
      "rbr": 3,
      "naziv": "DOMAGOJ PRICA",
      "glasova": 20,
      "posto": "23,80"
    },{
      "rbr": 4,
      "naziv": "INES KOVAČEVIĆ",
      "glasova": 4,
      "posto": "4,76"
    },{
      "rbr": 5,
      "naziv": "IVAN CIKOVIĆ",
      "glasova": 0,
      "posto": "0,00"
    },{
      "rbr": 6,
      "naziv": "STJEPAN ZORMAN",
      "glasova": 1,
      "posto": "1,19"
    },{
      "rbr": 7,
      "naziv": "MARIJAN PREVAREK",
      "glasova": 8,
      "posto": "9,52"
    },{
      "rbr": 8,
      "naziv": "TOMISLAV KOLUNDŽIĆ",
      "glasova": 12,
      "posto": "14,28"
    },{
      "rbr": 9,
      "naziv": "KATA ĆORLUKA",
      "glasova": 0,
      "posto": "0,00"
    },{
      "rbr": 10,
      "naziv": "NERMA ŠIMUNIĆ",
      "glasova": 0,
      "posto": "0,00"
    },{
      "rbr": 11,
      "naziv": "PETAR KANEŠIĆ",
      "glasova": 0,
      "posto": "0,00"
    },{
      "rbr": 12,
      "naziv": "SOFIJA ŠTEFANAC KLOBUČAR",
      "glasova": 0,
      "posto": "0,00"
    },{
      "rbr": 13,
      "naziv": "JADRANKA LUKAVEČKI",
      "glasova": 0,
      "posto": "0,00"
    },{
      "rbr": 14,
      "naziv": "SLAVEN ĐURĐEVIĆ",
      "glasova": 0,
      "posto": "0,00"
    }]
  },{
    "rbr": 8,
    "stranke": [
      {"naziv": "DOMOVINSKI POKRET - DP"},
      {"naziv": "PRAVO I PRAVDA"},
      {"naziv": "DEMOKRATSKI HSS - DHSS"},
      {"naziv": "ZELENA LISTA"},
      {"naziv": "AGRAMERI - NEZAVISNA LISTA"}
    ],
    "jedinstvenaSifra": "231267274283312",
    "glasova": 63,
    "naziv": "DP, PRAVO I PRAVDA, DHSS, ZELENA LISTA, AGRAMERI - NEZAVISNA LISTA",
    "posto": "2,84",
    "lista": [{
      "rbr": 1,
      "naziv": "TOMISLAV JOSIĆ",
      "glasova": 3,
      "posto": "4,76"
    },{
      "rbr": 2,
      "naziv": "IVICA MESIĆ",
      "glasova": 13,
      "posto": "20,63"
    },{
      "rbr": 3,
      "naziv": "NENAD MATIĆ",
      "glasova": 0,
      "posto": "0,00"
    },{
      "rbr": 4,
      "naziv": "SLOBODAN NOVAK",
      "glasova": 11,
      "posto": "17,46"
    },{
      "rbr": 5,
      "naziv": "LUKA HOLJEVAC",
      "glasova": 7,
      "posto": "11,11"
    },{
      "rbr": 6,
      "naziv": "GRGO LUBURIĆ",
      "glasova": 6,
      "posto": "9,52"
    },{
      "rbr": 7,
      "naziv": "TOMISLAV LONČAR",
      "glasova": 9,
      "posto": "14,28"
    },{
      "rbr": 8,
      "naziv": "MAJA OREŠKI PAVLIŠ",
      "glasova": 4,
      "posto": "6,34"
    },{
      "rbr": 9,
      "naziv": "VALNA BASTIJANČIĆ ERJAVEC",
      "glasova": 6,
      "posto": "9,52"
    },{
      "rbr": 10,
      "naziv": "DUBRAVKA DRAGAŠEVIĆ",
      "glasova": 3,
      "posto": "4,76"
    },{
      "rbr": 11,
      "naziv": "VEDRAN ČERNY",
      "glasova": 1,
      "posto": "1,58"
    },{
      "rbr": 12,
      "naziv": "ANTO JURAKIĆ",
      "glasova": 0,
      "posto": "0,00"
    },{
      "rbr": 13,
      "naziv": "STEPHEN NIKOLA BARTULICA",
      "glasova": 0,
      "posto": "0,00"
    },{
      "rbr": 14,
      "naziv": "DAMIR DEAK",
      "glasova": 0,
      "posto": "0,00"
    }]
  },{
    "rbr": 9,
    "stranke": [
      {"naziv": "SOCIJALDEMOKRATSKA PARTIJA HRVATSKE - SDP"},
      {"naziv": "CENTAR"},
      {"naziv": "HRVATSKA SELJAČKA STRANKA - HSS"},
      {"naziv": "\"DALIJA OREŠKOVIĆ I LJUDI S IMENOM I PREZIMENOM\" - \"DO i SIP\""},
      {"naziv": "NARODNA STRANKA - REFORMISTI - REFORMISTI"},
      {"naziv": "GRAĐANSKO-LIBERALNI SAVEZ - GLAS"}
    ],
    "jedinstvenaSifra": "004017162179244306",
    "glasova": 57,
    "naziv": "SDP, CENTAR, HSS, \"DO i SIP\", REFORMISTI, GLAS",
    "posto": "2,57",
    "lista": [{
      "rbr": 1,
      "naziv": "BORIS LALOVAC",
      "glasova": 26,
      "posto": "45,61"
    },{
      "rbr": 2,
      "naziv": "TANJA SOKOLIĆ",
      "glasova": 13,
      "posto": "22,80"
    },{
      "rbr": 3,
      "naziv": "ANKA MRAK-TARITAŠ",
      "glasova": 6,
      "posto": "10,52"
    },{
      "rbr": 4,
      "naziv": "TOMISLAV GOLUBIĆ",
      "glasova": 3,
      "posto": "5,26"
    },{
      "rbr": 5,
      "naziv": "DAVORKA MOSLAVAC FORJAN",
      "glasova": 8,
      "posto": "14,03"
    },{
      "rbr": 6,
      "naziv": "DENIS KRALJ",
      "glasova": 1,
      "posto": "1,75"
    },{
      "rbr": 7,
      "naziv": "MAJA KRNJEVIĆ",
      "glasova": 0,
      "posto": "0,00"
    },{
      "rbr": 8,
      "naziv": "VALENTINA FOLNEGOVIĆ",
      "glasova": 0,
      "posto": "0,00"
    },{
      "rbr": 9,
      "naziv": "IGOR JAREŠ",
      "glasova": 0,
      "posto": "0,00"
    },{
      "rbr": 10,
      "naziv": "MARIJA VUKOBRATOVIĆ",
      "glasova": 0,
      "posto": "0,00"
    },{
      "rbr": 11,
      "naziv": "DEJAN PLENTAJ",
      "glasova": 0,
      "posto": "0,00"
    },{
      "rbr": 12,
      "naziv": "STANKO BORIĆ",
      "glasova": 0,
      "posto": "0,00"
    },{
      "rbr": 13,
      "naziv": "TESA GOLDSTEIN",
      "glasova": 0,
      "posto": "0,00"
    },{
      "rbr": 14,
      "naziv": "BOJAN GLAVAŠEVIĆ",
      "glasova": 0,
      "posto": "0,00"
    }]
  },{
    "rbr": 10,
    "stranke": [
      {"naziv": "MOST"},
      {"naziv": "HRVATSKI SUVERENISTI"},
      {"naziv": "HRVATSKA KONZERVATIVNA STRANKA - HKS"},
      {"naziv": "NEZAVISNA LISTA MLADIH - NLM"}
    ],
    "jedinstvenaSifra": "131165188263",
    "glasova": 55,
    "naziv": "MOST, HRVATSKI SUVERENISTI, HKS, NLM",
    "posto": "2,48",
    "lista": [{
      "rbr": 1,
      "naziv": "NINO RASPUDIĆ",
      "glasova": 25,
      "posto": "45,45"
    },{
      "rbr": 2,
      "naziv": "TRPIMIR GOLUŽA",
      "glasova": 13,
      "posto": "23,63"
    },{
      "rbr": 3,
      "naziv": "VINKO BATINIĆ",
      "glasova": 6,
      "posto": "10,90"
    },{
      "rbr": 4,
      "naziv": "IVANA VLADIMIRA PETRIC",
      "glasova": 3,
      "posto": "5,45"
    },{
      "rbr": 5,
      "naziv": "RENATA ČIBARIĆ",
      "glasova": 8,
      "posto": "14,54"
    },{
      "rbr": 6,
      "naziv": "VESNA KOTARAC",
      "glasova": 0,
      "posto": "0,00"
    },{
      "rbr": 7,
      "naziv": "ELIZABETA KRALJ KOVAČIĆ",
      "glasova": 0,
      "posto": "0,00"
    },{
      "rbr": 8,
      "naziv": "PAŠKO FILIĆ",
      "glasova": 0,
      "posto": "0,00"
    },{
      "rbr": 9,
      "naziv": "DOMAGOJ JUKIĆ",
      "glasova": 0,
      "posto": "0,00"
    },{
      "rbr": 10,
      "naziv": "LUKA PEŠUT",
      "glasova": 0,
      "posto": "0,00"
    },{
      "rbr": 11,
      "naziv": "ANĐA ČUJIĆ",
      "glasova": 0,
      "posto": "0,00"
    },{
      "rbr": 12,
      "naziv": "MARIJANA MARIN KOZINA",
      "glasova": 0,
      "posto": "0,00"
    },{
      "rbr": 13,
      "naziv": "MARTA BLAJIĆ DŽAJA",
      "glasova": 0,
      "posto": "0,00"
    },{
      "rbr": 14,
      "naziv": "BERNARD BUDIMIR",
      "glasova": 0,
      "posto": "0,00"
    }]
  },{
    "rbr": 11,
    "stranke": [
      {"naziv": "MOŽEMO! - POLITIČKA PLATFORMA"},
      {"naziv": "HOĆEMO PRAVEDNO"}
    ],
    "jedinstvenaSifra": "255297",
    "glasova": 48,
    "naziv": "MOŽEMO! - POLITIČKA PLATFORMA, HOĆEMO PRAVEDNO",
    "posto": "2,16",
    "lista": [{
      "rbr": 1,
      "naziv": "DANIJELA DOLENEC",
      "glasova": 12,
      "posto": "25,00"
    },{
      "rbr": 2,
      "naziv": "JELENA MILOŠ",
      "glasova": 9,
      "posto": "18,75"
    },{
      "rbr": 3,
      "naziv": "MARINA IVANDIĆ",
      "glasova": 15,
      "posto": "31,25"
    },{
      "rbr": 4,
      "naziv": "DAMIR LUJANAC",
      "glasova": 2,
      "posto": "4,16"
    },{
      "rbr": 5,
      "naziv": "MAURO SIROTNJAK",
      "glasova": 0,
      "posto": "0,00"
    },{
      "rbr": 6,
      "naziv": "BRANKO ANČIĆ",
      "glasova": 1,
      "posto": "2,08"
    },{
      "rbr": 7,
      "naziv": "DOROTEA ŠAFRANIĆ",
      "glasova": 4,
      "posto": "8,33"
    },{
      "rbr": 8,
      "naziv": "ANKICA PENAVA PEJČINOVIĆ",
      "glasova": 5,
      "posto": "10,41"
    },{
      "rbr": 9,
      "naziv": "JAGODA MUNIĆ",
      "glasova": 0,
      "posto": "0,00"
    },{
      "rbr": 10,
      "naziv": "NIKOLA ZDUNIĆ",
      "glasova": 0,
      "posto": "0,00"
    },{
      "rbr": 11,
      "naziv": "HELENA KERETA",
      "glasova": 0,
      "posto": "0,00"
    },{
      "rbr": 12,
      "naziv": "LUKA MALOČA",
      "glasova": 0,
      "posto": "0,00"
    },{
      "rbr": 13,
      "naziv": "MAGDALENA KOZARIĆ ŠPOLJARIĆ",
      "glasova": 0,
      "posto": "0,00"
    },{
      "rbr": 14,
      "naziv": "TIHOMIR MILOVAC",
      "glasova": 0,
      "posto": "0,00"
    }]
  },{
    "rbr": 12,
    "stranke": [
      {"naziv": "ODLUČNOST I PRAVEDNOST - OIP"}
    ],
    "jedinstvenaSifra": "300",
    "glasova": 42,
    "naziv": "OIP",
    "posto": "1,89",
    "lista": [{
      "rbr": 1,
      "naziv": "MARIO IVANIĆ",
      "glasova": 22,
      "posto": "52,38"
    },{
      "rbr": 2,
      "naziv": "GORDAN MAROVIĆ",
      "glasova": 8,
      "posto": "19,04"
    },{
      "rbr": 3,
      "naziv": "ŠTEFAN VIDOVIĆ",
      "glasova": 3,
      "posto": "7,14"
    },{
      "rbr": 4,
      "naziv": "SLAVOLJUB DUBRAVEC",
      "glasova": 3,
      "posto": "7,14"
    },{
      "rbr": 5,
      "naziv": "ANTE BARIČEVIĆ",
      "glasova": 6,
      "posto": "14,28"
    },{
      "rbr": 6,
      "naziv": "IVICA KAURIN",
      "glasova": 0,
      "posto": "0,00"
    },{
      "rbr": 7,
      "naziv": "DAVOR CINDRIĆ",
      "glasova": 0,
      "posto": "0,00"
    },{
      "rbr": 8,
      "naziv": "IVANA GRBEŠA",
      "glasova": 0,
      "posto": "0,00"
    },{
      "rbr": 9,
      "naziv": "ROBERT JOSIP VUJIČIĆ",
      "glasova": 0,
      "posto": "0,00"
    },{
      "rbr": 10,
      "naziv": "DARINKO TADIĆ",
      "glasova": 0,
      "posto": "0,00"
    },{
      "rbr": 11,
      "naziv": "DALIBOR LEŠNIK",
      "glasova": 0,
      "posto": "0,00"
    },{
      "rbr": 12,
      "naziv": "FILIP MALOČA",
      "glasova": 0,
      "posto": "0,00"
    },{
      "rbr": 13,
      "naziv": "VIKTOR KOKOROVIĆ",
      "glasova": 0,
      "posto": "0,00"
    },{
      "rbr": 14,
      "naziv": "IRENA BABIĆ",
      "glasova": 0,
      "posto": "0,00"
    }]
  },{
    "rbr": 13,
    "stranke": [
      {"naziv": "FOKUS"},
      {"naziv": "REPUBLIKA"}
    ],
    "jedinstvenaSifra": "270310",
    "glasova": 33,
    "naziv": "FOKUS, REPUBLIKA",
    "posto": "1,49",
    "lista": [{
      "rbr": 1,
      "naziv": "DAMIR BAJS",
      "glasova": 13,
      "posto": "39,39"
    },{
      "rbr": 2,
      "naziv": "HRVOJE KOŠĆEC",
      "glasova": 0,
      "posto": "0,00"
    },{
      "rbr": 3,
      "naziv": "NENAD PANIAN",
      "glasova": 0,
      "posto": "0,00"
    },{
      "rbr": 4,
      "naziv": "STJEPAN GADŽE",
      "glasova": 0,
      "posto": "0,00"
    },{
      "rbr": 5,
      "naziv": "MATIJA HERJAVIĆ",
      "glasova": 2,
      "posto": "6,06"
    },{
      "rbr": 6,
      "naziv": "IVANA RADAKOVIĆ",
      "glasova": 2,
      "posto": "6,06"
    },{
      "rbr": 7,
      "naziv": "MIRJANA HRANJEC BANOVEC",
      "glasova": 0,
      "posto": "0,00"
    },{
      "rbr": 8,
      "naziv": "LUKA KIPA",
      "glasova": 0,
      "posto": "0,00"
    },{
      "rbr": 9,
      "naziv": "STEVO TURČINOVIĆ",
      "glasova": 9,
      "posto": "27,27"
    },{
      "rbr": 10,
      "naziv": "JELENA HORVAT",
      "glasova": 7,
      "posto": "21,21"
    },{
      "rbr": 11,
      "naziv": "ŽELJKA JAREC BUKAL",
      "glasova": 0,
      "posto": "0,00"
    },{
      "rbr": 12,
      "naziv": "IVANA PIRIN",
      "glasova": 0,
      "posto": "0,00"
    },{
      "rbr": 13,
      "naziv": "IVANA EL-TAYEB",
      "glasova": 0,
      "posto": "0,00"
    },{
      "rbr": 14,
      "naziv": "MARIO KOLAR",
      "glasova": 0,
      "posto": "0,00"
    }]
  },{
    "rbr": 14,
    "stranke": [
      {"naziv": "HRVATSKA DEMOKRATSKA ZAJEDNICA - HDZ"},
      {"naziv": "HRVATSKA SOCIJALNO - LIBERALNA STRANKA - HSLS"},
      {"naziv": "HRVATSKA DEMOKRŠĆANSKA STRANKA - HDS"},
      {"naziv": "HRVATSKA NARODNA STRANKA - LIBERALNI DEMOKRATI - HNS"},
      {"naziv": "HRVATSKA STRANKA UMIROVLJENIKA - HSU"}
    ],
    "jedinstvenaSifra": "001002003011023",
    "glasova": 30,
    "naziv": "HDZ, HSLS, HDS, HNS, HSU",
    "posto": "1,35",
    "lista": [{
      "rbr": 1,
      "naziv": "GORDAN JANDROKOVIĆ",
      "glasova": 17,
      "posto": "56,66"
    },{
      "rbr": 2,
      "naziv": "KRUNOSLAV KATIČIĆ",
      "glasova": 6,
      "posto": "20,00"
    },{
      "rbr": 3,
      "naziv": "DARIO HREBAK",
      "glasova": 3,
      "posto": "10,00"
    },{
      "rbr": 4,
      "naziv": "ANTE DEUR",
      "glasova": 1,
      "posto": "3,33"
    },{
      "rbr": 5,
      "naziv": "GORDAN GRLIĆ-RADMAN",
      "glasova": 3,
      "posto": "10,00"
    },{
      "rbr": 6,
      "naziv": "MIRO TOTGERGELI",
      "glasova": 0,
      "posto": "0,00"
    },{
      "rbr": 7,
      "naziv": "JAVOR BOJAN LEŠ",
      "glasova": 0,
      "posto": "0,00"
    },{
      "rbr": 8,
      "naziv": "ZDRAVKA BUŠIĆ",
      "glasova": 0,
      "posto": "0,00"
    },{
      "rbr": 9,
      "naziv": "SANELA GRBAŠ BRATKOVIĆ",
      "glasova": 0,
      "posto": "0,00"
    },{
      "rbr": 10,
      "naziv": "TOMISLAV OKROŠA",
      "glasova": 0,
      "posto": "0,00"
    },{
      "rbr": 11,
      "naziv": "FRANJO POLJAK",
      "glasova": 0,
      "posto": "0,00"
    },{
      "rbr": 12,
      "naziv": "EVA JENDRIŠ ŠKRLJAK",
      "glasova": 0,
      "posto": "0,00"
    },{
      "rbr": 13,
      "naziv": "BRANKO HRG",
      "glasova": 0,
      "posto": "0,00"
    },{
      "rbr": 14,
      "naziv": "MARKO MARUŠIĆ",
      "glasova": 0,
      "posto": "0,00"
    }]
  }]
}
