{
  "izbori": "Zastupnički izbori 2024",
  "datum": "15.04.2024.",
  "vrijeme": "15:00",
  "izboriOznaka": "33",
  "ijSifra": "012",
  "bmSifra": "000",
  "ijNaziv": "XII. IZBORNA JEDINICA",
  "gropNaziv": "",
  "bmNaziv": "",
  "bmZatvoreno": 4645,
  "bmUkupno": 6990,
  "biraciUkupno": 9150,
  "biraciGlasovalo": 9150,
  "biraciGlasovaloPosto": "100,00",
  "listiciUkupno": 9034,
  "listiciVazeci": 8350,
  "listiciVazeciPosto": "92,43",
  "listiciNevazeci": 684,
  "listiciNevazeciPosto": "7,57",
  "napomena": "* - objavljeni rezultati sadrže i podatke s posebnih biračkih mjesta te s biračkih mjesta u inozemstvu",
  "napomena2": "",
  "lista": [{
    "rbr": 1,
    "stranke": [
      {"naziv": "CORRADO DUSSICH  - KANDIDAT GRUPE BIRAČA"}
    ],
    "jedinstvenaSifra": "4607",
    "glasova": 5179,
    "naziv": "CORRADO DUSSICH",
    "posto": "",
    "lista": []
  },{
    "rbr": 2,
    "stranke": [
      {"naziv": "FURIO RADIN  - KANDIDAT GRUPE BIRAČA"}
    ],
    "jedinstvenaSifra": "4603",
    "glasova": 3171,
    "naziv": "FURIO RADIN",
    "posto": "",
    "lista": []
  }]
}
