{
  "izbori": "Zastupnički izbori 2024",
  "datum": "15.04.2024.",
  "vrijeme": "15:15",
  "izboriOznaka": "02",
  "ijSifra": "001",
  "bmSifra": "000",
  "ijNaziv": "I. IZBORNA JEDINICA",
  "gropNaziv": "VELIKA GORICA",
  "bmNaziv": "",
  "bmZatvoreno": 39,
  "bmUkupno": 68,
  "biraciUkupno": 24437,
  "biraciGlasovalo": 11270,
  "biraciGlasovaloPosto": "46,12",
  "listiciUkupno": 11263,
  "listiciVazeci": 11121,
  "listiciVazeciPosto": "98,74",
  "listiciNevazeci": 142,
  "listiciNevazeciPosto": "1,26",
  "napomena": "* - objavljeni rezultati sadrže podatke samo s redovnih biračkih mjesta",
  "napomena2": "",
  "lista": [{
    "rbr": 1,
    "stranke": [
      {"naziv": "AGRARNA STRANKA - POKRET ZA HRVATSKU POLJOPRIVREDU"},
      {"naziv": "AKCIJA ZA PROMJENE"}
    ],
    "jedinstvenaSifra": "303305",
    "glasova": 3689,
    "naziv": "AGRARNA STRANKA - POKRET ZA HRVATSKU POLJOPRIVREDU, AKCIJA ZA PROMJENE",
    "posto": "33,17",
    "lista": [{
      "rbr": 1,
      "naziv": "ROBERT HADŽIĆ",
      "glasova": 722,
      "posto": "19,57"
    },{
      "rbr": 2,
      "naziv": "ŽELJKO ILIČIĆ",
      "glasova": 240,
      "posto": "6,50"
    },{
      "rbr": 3,
      "naziv": "ŽELIMIRA VRABEC",
      "glasova": 128,
      "posto": "3,46"
    },{
      "rbr": 4,
      "naziv": "MARIO ZACCARIA",
      "glasova": 200,
      "posto": "5,42"
    },{
      "rbr": 5,
      "naziv": "ALBERT MARINCULIĆ",
      "glasova": 278,
      "posto": "7,53"
    },{
      "rbr": 6,
      "naziv": "MIA CRNČIĆ",
      "glasova": 350,
      "posto": "9,48"
    },{
      "rbr": 7,
      "naziv": "ŽELJKO POKASIĆ",
      "glasova": 43,
      "posto": "1,16"
    },{
      "rbr": 8,
      "naziv": "LADA KRALJEVIĆ",
      "glasova": 91,
      "posto": "2,46"
    },{
      "rbr": 9,
      "naziv": "MATE BULJAN",
      "glasova": 682,
      "posto": "18,48"
    },{
      "rbr": 10,
      "naziv": "INES VRBAN",
      "glasova": 645,
      "posto": "17,48"
    },{
      "rbr": 11,
      "naziv": "MLADEN DUJMOVIĆ",
      "glasova": 23,
      "posto": "0,62"
    },{
      "rbr": 12,
      "naziv": "ANTONIA HOHNJEC",
      "glasova": 40,
      "posto": "1,08"
    },{
      "rbr": 13,
      "naziv": "LJUBICA PAVRLIŠAK MARINCULIĆ",
      "glasova": 50,
      "posto": "1,35"
    },{
      "rbr": 14,
      "naziv": "DENIS CVITKOVIĆ",
      "glasova": 89,
      "posto": "2,41"
    }]
  },{
    "rbr": 2,
    "stranke": [
      {"naziv": "PRAVEDNA HRVATSKA - PH"}
    ],
    "jedinstvenaSifra": "298",
    "glasova": 3468,
    "naziv": "PH",
    "posto": "31,18",
    "lista": [{
      "rbr": 1,
      "naziv": "MILAN VRKLJAN",
      "glasova": 1336,
      "posto": "38,52"
    },{
      "rbr": 2,
      "naziv": "TIHOMIR MAJIĆ",
      "glasova": 439,
      "posto": "12,65"
    },{
      "rbr": 3,
      "naziv": "VESNA ČIŽMAR",
      "glasova": 333,
      "posto": "9,60"
    },{
      "rbr": 4,
      "naziv": "ROBERT LILION",
      "glasova": 230,
      "posto": "6,63"
    },{
      "rbr": 5,
      "naziv": "JADRANKA PERASIĆ",
      "glasova": 399,
      "posto": "11,50"
    },{
      "rbr": 6,
      "naziv": "ŽELJKO STILINOVIĆ",
      "glasova": 193,
      "posto": "5,56"
    },{
      "rbr": 7,
      "naziv": "KATICA DŽIJAN LILION",
      "glasova": 123,
      "posto": "3,54"
    },{
      "rbr": 8,
      "naziv": "ŽELJKO STARČEVIĆ",
      "glasova": 47,
      "posto": "1,35"
    },{
      "rbr": 9,
      "naziv": "SANJA ERDELJA-ŠENJUG",
      "glasova": 44,
      "posto": "1,26"
    },{
      "rbr": 10,
      "naziv": "MARIO VRKLJAN",
      "glasova": 87,
      "posto": "2,50"
    },{
      "rbr": 11,
      "naziv": "MIRJANA VRKLJAN RADOŠEVIĆ",
      "glasova": 24,
      "posto": "0,69"
    },{
      "rbr": 12,
      "naziv": "DARKO PODGORELEC",
      "glasova": 67,
      "posto": "1,93"
    },{
      "rbr": 13,
      "naziv": "DAVOR JANDRIĆ",
      "glasova": 21,
      "posto": "0,60"
    },{
      "rbr": 14,
      "naziv": "JOSIPA OTTA PAUN",
      "glasova": 41,
      "posto": "1,18"
    }]
  },{
    "rbr": 3,
    "stranke": [
      {"naziv": "JAVNO DOBRO"}
    ],
    "jedinstvenaSifra": "309",
    "glasova": 1022,
    "naziv": "JAVNO DOBRO",
    "posto": "9,18",
    "lista": [{
      "rbr": 1,
      "naziv": "DINKA PAVELIĆ",
      "glasova": 406,
      "posto": "39,72"
    },{
      "rbr": 2,
      "naziv": "MARKO MILIN",
      "glasova": 142,
      "posto": "13,89"
    },{
      "rbr": 3,
      "naziv": "HRVOJE ČUPIĆ",
      "glasova": 107,
      "posto": "10,46"
    },{
      "rbr": 4,
      "naziv": "LJILJANA MIHALJEVIĆ",
      "glasova": 76,
      "posto": "7,43"
    },{
      "rbr": 5,
      "naziv": "ZORAN GRANCARIĆ",
      "glasova": 130,
      "posto": "12,72"
    },{
      "rbr": 6,
      "naziv": "DAVORKA KATARINA CINDRIĆ",
      "glasova": 65,
      "posto": "6,36"
    },{
      "rbr": 7,
      "naziv": "RENATA SKOVRON",
      "glasova": 39,
      "posto": "3,81"
    },{
      "rbr": 8,
      "naziv": "NATAŠA JURLIN",
      "glasova": 11,
      "posto": "1,07"
    },{
      "rbr": 9,
      "naziv": "DAMIR PIJAŽA-MIKELIĆ",
      "glasova": 6,
      "posto": "0,58"
    },{
      "rbr": 10,
      "naziv": "MILOŠ ILIĆ",
      "glasova": 20,
      "posto": "1,95"
    },{
      "rbr": 11,
      "naziv": "GALINA POPOVIĆ",
      "glasova": 1,
      "posto": "0,09"
    },{
      "rbr": 12,
      "naziv": "NINO REBRONJA",
      "glasova": 15,
      "posto": "1,46"
    },{
      "rbr": 13,
      "naziv": "IVA TADIĆ",
      "glasova": 3,
      "posto": "0,29"
    },{
      "rbr": 14,
      "naziv": "LJUBICA ĐANKOVIĆ",
      "glasova": 1,
      "posto": "0,09"
    }]
  },{
    "rbr": 4,
    "stranke": [
      {"naziv": "UMIROVLJENICI ZAJEDNO - POLITIČKA PLATFORMA - UMIROVLJENICI ZAJEDNO"},
      {"naziv": "STRANKA UMIROVLJENIKA - SU"},
      {"naziv": "BLOK UMIROVLJENICI ZAJEDNO - BUZ"},
      {"naziv": "DEMOKRATSKA STRANKA UMIROVLJENIKA - DSU"}
    ],
    "jedinstvenaSifra": "039041102301",
    "glasova": 930,
    "naziv": "UMIROVLJENICI ZAJEDNO, SU, BUZ, DSU",
    "posto": "8,36",
    "lista": [{
      "rbr": 1,
      "naziv": "MILIVOJ ŠPIKA",
      "glasova": 197,
      "posto": "21,18"
    },{
      "rbr": 2,
      "naziv": "DRAŽEN ŠTIGLIĆ",
      "glasova": 69,
      "posto": "7,41"
    },{
      "rbr": 3,
      "naziv": "ANKICA BIRTIĆ",
      "glasova": 25,
      "posto": "2,68"
    },{
      "rbr": 4,
      "naziv": "LJEPOSAVA BARTA",
      "glasova": 55,
      "posto": "5,91"
    },{
      "rbr": 5,
      "naziv": "IVAN KRESONJA",
      "glasova": 81,
      "posto": "8,70"
    },{
      "rbr": 6,
      "naziv": "DRAGAN ŠOLAJA",
      "glasova": 103,
      "posto": "11,07"
    },{
      "rbr": 7,
      "naziv": "PREDRAG BISIĆ",
      "glasova": 9,
      "posto": "0,96"
    },{
      "rbr": 8,
      "naziv": "KATA ALAVANJA",
      "glasova": 16,
      "posto": "1,72"
    },{
      "rbr": 9,
      "naziv": "VERICA LEŠKOVIĆ",
      "glasova": 189,
      "posto": "20,32"
    },{
      "rbr": 10,
      "naziv": "ANĐA BOŠNJAKOVIĆ",
      "glasova": 178,
      "posto": "19,13"
    },{
      "rbr": 11,
      "naziv": "PEPICA CRNIĆ",
      "glasova": 1,
      "posto": "0,10"
    },{
      "rbr": 12,
      "naziv": "MARTINA MARIJANČIĆ",
      "glasova": 3,
      "posto": "0,32"
    },{
      "rbr": 13,
      "naziv": "STJEPAN ČIRJAK",
      "glasova": 4,
      "posto": "0,43"
    },{
      "rbr": 14,
      "naziv": "ŠTEFICA MARINOVIĆ",
      "glasova": 0,
      "posto": "0,00"
    }]
  },{
    "rbr": 5,
    "stranke": [
      {"naziv": "HRVATSKA STRANKA PRAVA - HSP"},
      {"naziv": "HRVATSKO BILO"},
      {"naziv": "HRVATSKA DEMOKRATSKA SELJAČKA STRANKA - HDSS"}
    ],
    "jedinstvenaSifra": "007018308",
    "glasova": 797,
    "naziv": "HSP, HRVATSKO BILO, HDSS",
    "posto": "7,16",
    "lista": [{
      "rbr": 1,
      "naziv": "STEFAN NOVAK",
      "glasova": 325,
      "posto": "40,77"
    },{
      "rbr": 2,
      "naziv": "DAMIR KATULIĆ",
      "glasova": 116,
      "posto": "14,55"
    },{
      "rbr": 3,
      "naziv": "STJEPAN PALČIĆ",
      "glasova": 88,
      "posto": "11,04"
    },{
      "rbr": 4,
      "naziv": "MATE BEKAVAC",
      "glasova": 63,
      "posto": "7,90"
    },{
      "rbr": 5,
      "naziv": "IVICA GAŠPAR",
      "glasova": 105,
      "posto": "13,17"
    },{
      "rbr": 6,
      "naziv": "IVAN PALČIĆ",
      "glasova": 44,
      "posto": "5,52"
    },{
      "rbr": 7,
      "naziv": "MAJA JUKIĆ",
      "glasova": 27,
      "posto": "3,38"
    },{
      "rbr": 8,
      "naziv": "DANKO IŠTVANEK",
      "glasova": 7,
      "posto": "0,87"
    },{
      "rbr": 9,
      "naziv": "ROBERT BODRUŽIĆ",
      "glasova": 6,
      "posto": "0,75"
    },{
      "rbr": 10,
      "naziv": "IVANA VRSELJA",
      "glasova": 13,
      "posto": "1,63"
    },{
      "rbr": 11,
      "naziv": "KARLO BLAGAJ",
      "glasova": 0,
      "posto": "0,00"
    },{
      "rbr": 12,
      "naziv": "MIRJANA HEGEDUŠ",
      "glasova": 3,
      "posto": "0,37"
    },{
      "rbr": 13,
      "naziv": "IVAN JURIŠIĆ",
      "glasova": 0,
      "posto": "0,00"
    },{
      "rbr": 14,
      "naziv": "LJILJANA GLAD",
      "glasova": 0,
      "posto": "0,00"
    }]
  },{
    "rbr": 6,
    "stranke": [
      {"naziv": "MOŽEMO! - POLITIČKA PLATFORMA"}
    ],
    "jedinstvenaSifra": "255",
    "glasova": 352,
    "naziv": "MOŽEMO! - POLITIČKA PLATFORMA",
    "posto": "3,16",
    "lista": [{
      "rbr": 1,
      "naziv": "SANDRA BENČIĆ",
      "glasova": 79,
      "posto": "22,44"
    },{
      "rbr": 2,
      "naziv": "IVANA KEKIN",
      "glasova": 75,
      "posto": "21,30"
    },{
      "rbr": 3,
      "naziv": "DAMIR BAKIĆ",
      "glasova": 84,
      "posto": "23,86"
    },{
      "rbr": 4,
      "naziv": "TEODOR CELAKOSKI",
      "glasova": 21,
      "posto": "5,96"
    },{
      "rbr": 5,
      "naziv": "MARTA KIŠ",
      "glasova": 1,
      "posto": "0,28"
    },{
      "rbr": 6,
      "naziv": "MARIJA BRAJDIĆ VUKOVIĆ",
      "glasova": 12,
      "posto": "3,40"
    },{
      "rbr": 7,
      "naziv": "LUKA KEREČIN",
      "glasova": 34,
      "posto": "9,65"
    },{
      "rbr": 8,
      "naziv": "TOMISLAV DOMES",
      "glasova": 46,
      "posto": "13,06"
    },{
      "rbr": 9,
      "naziv": "SUZANA DOBRIĆ",
      "glasova": 0,
      "posto": "0,00"
    },{
      "rbr": 10,
      "naziv": "TONKO BOGOVAC",
      "glasova": 0,
      "posto": "0,00"
    },{
      "rbr": 11,
      "naziv": "MARIJA KRNIĆ",
      "glasova": 0,
      "posto": "0,00"
    },{
      "rbr": 12,
      "naziv": "LUKA KAMENEČKI",
      "glasova": 0,
      "posto": "0,00"
    },{
      "rbr": 13,
      "naziv": "MATKO DUJMOVIĆ",
      "glasova": 0,
      "posto": "0,00"
    },{
      "rbr": 14,
      "naziv": "JAN KRUHAK",
      "glasova": 0,
      "posto": "0,00"
    }]
  },{
    "rbr": 7,
    "stranke": [
      {"naziv": "POKRET ZA MODERNU HRVATSKU"}
    ],
    "jedinstvenaSifra": "118",
    "glasova": 206,
    "naziv": "POKRET ZA MODERNU HRVATSKU",
    "posto": "1,85",
    "lista": [{
      "rbr": 1,
      "naziv": "SONJA VIDOŠEVIĆ LJUBIĆ",
      "glasova": 53,
      "posto": "25,72"
    },{
      "rbr": 2,
      "naziv": "DAMIR MIHELIĆ",
      "glasova": 50,
      "posto": "24,27"
    },{
      "rbr": 3,
      "naziv": "ELLA DELAČ",
      "glasova": 56,
      "posto": "27,18"
    },{
      "rbr": 4,
      "naziv": "IVAN PURGAR",
      "glasova": 8,
      "posto": "3,88"
    },{
      "rbr": 5,
      "naziv": "TENA ŠAMEC",
      "glasova": 0,
      "posto": "0,00"
    },{
      "rbr": 6,
      "naziv": "JURICA ILIĆ",
      "glasova": 2,
      "posto": "0,97"
    },{
      "rbr": 7,
      "naziv": "KATARINA BERIŠIĆ",
      "glasova": 13,
      "posto": "6,31"
    },{
      "rbr": 8,
      "naziv": "ŽELJKO ŽEGARAC",
      "glasova": 24,
      "posto": "11,65"
    },{
      "rbr": 9,
      "naziv": "MARIJA JELIĆ",
      "glasova": 0,
      "posto": "0,00"
    },{
      "rbr": 10,
      "naziv": "LUKA GAŠPAROVIĆ",
      "glasova": 0,
      "posto": "0,00"
    },{
      "rbr": 11,
      "naziv": "SNJEŽANA IVČEVIĆ",
      "glasova": 0,
      "posto": "0,00"
    },{
      "rbr": 12,
      "naziv": "JOSIP PALIĆ",
      "glasova": 0,
      "posto": "0,00"
    },{
      "rbr": 13,
      "naziv": "MATEA PIKNJAČ",
      "glasova": 0,
      "posto": "0,00"
    },{
      "rbr": 14,
      "naziv": "VLADO PODHRAŠKI",
      "glasova": 0,
      "posto": "0,00"
    }]
  },{
    "rbr": 8,
    "stranke": [
      {"naziv": "RADNIČKA FRONTA - RF"}
    ],
    "jedinstvenaSifra": "168",
    "glasova": 138,
    "naziv": "RF",
    "posto": "1,24",
    "lista": [{
      "rbr": 1,
      "naziv": "DENIS GETO",
      "glasova": 71,
      "posto": "51,44"
    },{
      "rbr": 2,
      "naziv": "ŽELJKA BILOŠ",
      "glasova": 37,
      "posto": "26,81"
    },{
      "rbr": 3,
      "naziv": "NENAD RIZVANOVIĆ",
      "glasova": 12,
      "posto": "8,69"
    },{
      "rbr": 4,
      "naziv": "KARMEN RATKOVIĆ",
      "glasova": 4,
      "posto": "2,89"
    },{
      "rbr": 5,
      "naziv": "VLADIMIR CVETKOVIĆ",
      "glasova": 14,
      "posto": "10,14"
    },{
      "rbr": 6,
      "naziv": "MILENA KRAMER",
      "glasova": 0,
      "posto": "0,00"
    },{
      "rbr": 7,
      "naziv": "ŽELJKO KAŠAJ",
      "glasova": 0,
      "posto": "0,00"
    },{
      "rbr": 8,
      "naziv": "JOSIPA VLASAC GLASNOVIĆ",
      "glasova": 0,
      "posto": "0,00"
    },{
      "rbr": 9,
      "naziv": "ANTONIO HORVATIĆ",
      "glasova": 0,
      "posto": "0,00"
    },{
      "rbr": 10,
      "naziv": "BARBARA TRBOJEVIĆ",
      "glasova": 0,
      "posto": "0,00"
    },{
      "rbr": 11,
      "naziv": "NEVEN BRNJAS",
      "glasova": 0,
      "posto": "0,00"
    },{
      "rbr": 12,
      "naziv": "BRANKA GALIĆ",
      "glasova": 0,
      "posto": "0,00"
    },{
      "rbr": 13,
      "naziv": "SINIŠA BARIŠIĆ",
      "glasova": 0,
      "posto": "0,00"
    },{
      "rbr": 14,
      "naziv": "VELIBOR ZANINOVIĆ",
      "glasova": 0,
      "posto": "0,00"
    }]
  },{
    "rbr": 9,
    "stranke": [
      {"naziv": "AUTOHTONA - HRVATSKA STRANKA PRAVA - DRAŽEN KELEMINEC - A - HSP - Dražen Keleminec"}
    ],
    "jedinstvenaSifra": "049",
    "glasova": 124,
    "naziv": "A - HSP - Dražen Keleminec",
    "posto": "1,11",
    "lista": [{
      "rbr": 1,
      "naziv": "TEOFIL KOŽUL",
      "glasova": 38,
      "posto": "30,64"
    },{
      "rbr": 2,
      "naziv": "BORIS TAKAČ",
      "glasova": 26,
      "posto": "20,96"
    },{
      "rbr": 3,
      "naziv": "ANTONIJO ZIDAR",
      "glasova": 43,
      "posto": "34,67"
    },{
      "rbr": 4,
      "naziv": "ALOJZ HRŽENJAK",
      "glasova": 0,
      "posto": "0,00"
    },{
      "rbr": 5,
      "naziv": "JADRANKA BIŠČANIĆ",
      "glasova": 0,
      "posto": "0,00"
    },{
      "rbr": 6,
      "naziv": "ZDENKA BEBEK",
      "glasova": 0,
      "posto": "0,00"
    },{
      "rbr": 7,
      "naziv": "RAJKO RADAČIĆ",
      "glasova": 6,
      "posto": "4,83"
    },{
      "rbr": 8,
      "naziv": "VATROSLAVA BUDIMIR",
      "glasova": 11,
      "posto": "8,87"
    },{
      "rbr": 9,
      "naziv": "ZVEZDANA POSTRUŽIN",
      "glasova": 0,
      "posto": "0,00"
    },{
      "rbr": 10,
      "naziv": "DRAGUTIN BELOŠEVIĆ",
      "glasova": 0,
      "posto": "0,00"
    },{
      "rbr": 11,
      "naziv": "VIŠNJA ZIEGELMEYER",
      "glasova": 0,
      "posto": "0,00"
    },{
      "rbr": 12,
      "naziv": "GORAN POSTRUŽIN",
      "glasova": 0,
      "posto": "0,00"
    },{
      "rbr": 13,
      "naziv": "MILE PAULIĆ",
      "glasova": 0,
      "posto": "0,00"
    },{
      "rbr": 14,
      "naziv": "NADA LAZAREVIĆ",
      "glasova": 0,
      "posto": "0,00"
    }]
  },{
    "rbr": 10,
    "stranke": [
      {"naziv": "FOKUS"},
      {"naziv": "REPUBLIKA"}
    ],
    "jedinstvenaSifra": "270310",
    "glasova": 95,
    "naziv": "FOKUS, REPUBLIKA",
    "posto": "0,85",
    "lista": [{
      "rbr": 1,
      "naziv": "DAMIR VANĐELIĆ",
      "glasova": 38,
      "posto": "40,00"
    },{
      "rbr": 2,
      "naziv": "MARTINA KOLAR BILLEGE",
      "glasova": 0,
      "posto": "0,00"
    },{
      "rbr": 3,
      "naziv": "VALENTINA PAVLOVIĆ VINOGRADAC",
      "glasova": 0,
      "posto": "0,00"
    },{
      "rbr": 4,
      "naziv": "SUZANA SKOKO",
      "glasova": 0,
      "posto": "0,00"
    },{
      "rbr": 5,
      "naziv": "MELITA BESTVINA",
      "glasova": 4,
      "posto": "4,21"
    },{
      "rbr": 6,
      "naziv": "JASNA MATASIĆ",
      "glasova": 8,
      "posto": "8,42"
    },{
      "rbr": 7,
      "naziv": "MILIVOJ MANDIĆ",
      "glasova": 0,
      "posto": "0,00"
    },{
      "rbr": 8,
      "naziv": "DOMINIK KRAMARIĆ",
      "glasova": 0,
      "posto": "0,00"
    },{
      "rbr": 9,
      "naziv": "VESELJKO RAJIČ",
      "glasova": 28,
      "posto": "29,47"
    },{
      "rbr": 10,
      "naziv": "MLADEN LASIĆ",
      "glasova": 17,
      "posto": "17,89"
    },{
      "rbr": 11,
      "naziv": "ANTONIO PRIŠĆAN",
      "glasova": 0,
      "posto": "0,00"
    },{
      "rbr": 12,
      "naziv": "MARTINA MLINAC",
      "glasova": 0,
      "posto": "0,00"
    },{
      "rbr": 13,
      "naziv": "ROBERT CAVOR",
      "glasova": 0,
      "posto": "0,00"
    },{
      "rbr": 14,
      "naziv": "IVAN ŠKEGRO",
      "glasova": 0,
      "posto": "0,00"
    }]
  },{
    "rbr": 11,
    "stranke": [
      {"naziv": "SOCIJALDEMOKRATI"},
      {"naziv": "ISTARSKI DEMOKRATSKI SABOR - IDS"},
      {"naziv": "PRIMORSKO GORANSKI SAVEZ - PGS"},
      {"naziv": "HRVATSKI LABURISTI - STRANKA RADA - LABURISTI"},
      {"naziv": "DEMOKRATI"}
    ],
    "jedinstvenaSifra": "005006100251299",
    "glasova": 79,
    "naziv": "SOCIJALDEMOKRATI, IDS, PGS, LABURISTI, DEMOKRATI",
    "posto": "0,71",
    "lista": [{
      "rbr": 1,
      "naziv": "DAVORKO VIDOVIĆ",
      "glasova": 48,
      "posto": "60,75"
    },{
      "rbr": 2,
      "naziv": "IVANA POSAVEC KRIVEC",
      "glasova": 19,
      "posto": "24,05"
    },{
      "rbr": 3,
      "naziv": "SANJA ŠUTEJ",
      "glasova": 4,
      "posto": "5,06"
    },{
      "rbr": 4,
      "naziv": "STANISLAV FRANČIŠKOVIĆ BILINSKI",
      "glasova": 0,
      "posto": "0,00"
    },{
      "rbr": 5,
      "naziv": "MATO ŠIMIĆ",
      "glasova": 8,
      "posto": "10,12"
    },{
      "rbr": 6,
      "naziv": "MAJA GLIBO PRICA",
      "glasova": 0,
      "posto": "0,00"
    },{
      "rbr": 7,
      "naziv": "IGOR MATIJEVAC",
      "glasova": 0,
      "posto": "0,00"
    },{
      "rbr": 8,
      "naziv": "NEDJELJKO TUDJA",
      "glasova": 0,
      "posto": "0,00"
    },{
      "rbr": 9,
      "naziv": "SANJICA FRESL",
      "glasova": 0,
      "posto": "0,00"
    },{
      "rbr": 10,
      "naziv": "MLADEN PETRONIJEVIĆ",
      "glasova": 0,
      "posto": "0,00"
    },{
      "rbr": 11,
      "naziv": "NINA PLEŠE",
      "glasova": 0,
      "posto": "0,00"
    },{
      "rbr": 12,
      "naziv": "KATICA POŽEGA",
      "glasova": 0,
      "posto": "0,00"
    },{
      "rbr": 13,
      "naziv": "ADRIAN ŠEVIĆ",
      "glasova": 0,
      "posto": "0,00"
    },{
      "rbr": 14,
      "naziv": "BARBARA-ELIZABETA OTHMAN",
      "glasova": 0,
      "posto": "0,00"
    }]
  },{
    "rbr": 12,
    "stranke": [
      {"naziv": "MOST"},
      {"naziv": "HRVATSKI SUVERENISTI"},
      {"naziv": "HRVATSKA KONZERVATIVNA STRANKA - HKS"},
      {"naziv": "NEZAVISNA LISTA MLADIH - NLM"}
    ],
    "jedinstvenaSifra": "131165188263",
    "glasova": 68,
    "naziv": "MOST, HRVATSKI SUVERENISTI, HKS, NLM",
    "posto": "0,61",
    "lista": [{
      "rbr": 1,
      "naziv": "MARIJA SELAK RASPUDIĆ",
      "glasova": 18,
      "posto": "26,47"
    },{
      "rbr": 2,
      "naziv": "IVAN BEKAVAC",
      "glasova": 11,
      "posto": "16,17"
    },{
      "rbr": 3,
      "naziv": "GLORIA TKALČIĆ",
      "glasova": 32,
      "posto": "47,05"
    },{
      "rbr": 4,
      "naziv": "BRANIMIR PERVAN",
      "glasova": 0,
      "posto": "0,00"
    },{
      "rbr": 5,
      "naziv": "NADA FINDERLE",
      "glasova": 0,
      "posto": "0,00"
    },{
      "rbr": 6,
      "naziv": "JOSIP PERIŠA",
      "glasova": 0,
      "posto": "0,00"
    },{
      "rbr": 7,
      "naziv": "IRIS VERONIKA CETINA",
      "glasova": 2,
      "posto": "2,94"
    },{
      "rbr": 8,
      "naziv": "KREŠIMIR ROTIM",
      "glasova": 5,
      "posto": "7,35"
    },{
      "rbr": 9,
      "naziv": "TINA BULIĆ",
      "glasova": 0,
      "posto": "0,00"
    },{
      "rbr": 10,
      "naziv": "LOVRO MILAKOVIĆ",
      "glasova": 0,
      "posto": "0,00"
    },{
      "rbr": 11,
      "naziv": "VALENTINA DOROTIĆ",
      "glasova": 0,
      "posto": "0,00"
    },{
      "rbr": 12,
      "naziv": "ANTONIO KULIŠ",
      "glasova": 0,
      "posto": "0,00"
    },{
      "rbr": 13,
      "naziv": "MARIJA ZUBEC",
      "glasova": 0,
      "posto": "0,00"
    },{
      "rbr": 14,
      "naziv": "DAMIR SLOJŠEK",
      "glasova": 0,
      "posto": "0,00"
    }]
  },{
    "rbr": 13,
    "stranke": [
      {"naziv": "SOCIJALDEMOKRATSKA PARTIJA HRVATSKE - SDP"},
      {"naziv": "CENTAR"},
      {"naziv": "HRVATSKA SELJAČKA STRANKA - HSS"},
      {"naziv": "\"DALIJA OREŠKOVIĆ I LJUDI S IMENOM I PREZIMENOM\" - \"DO i SIP\""},
      {"naziv": "NARODNA STRANKA - REFORMISTI - REFORMISTI"},
      {"naziv": "GRAĐANSKO-LIBERALNI SAVEZ - GLAS"}
    ],
    "jedinstvenaSifra": "004017162179244306",
    "glasova": 61,
    "naziv": "SDP, CENTAR, HSS, \"DO i SIP\", REFORMISTI, GLAS",
    "posto": "0,54",
    "lista": [{
      "rbr": 1,
      "naziv": "ARSEN BAUK",
      "glasova": 15,
      "posto": "24,59"
    },{
      "rbr": 2,
      "naziv": "DALIJA OREŠKOVIĆ",
      "glasova": 9,
      "posto": "14,75"
    },{
      "rbr": 3,
      "naziv": "BRANKO KOLARIĆ",
      "glasova": 31,
      "posto": "50,81"
    },{
      "rbr": 4,
      "naziv": "MARIJANA PULJAK",
      "glasova": 0,
      "posto": "0,00"
    },{
      "rbr": 5,
      "naziv": "SARA MEDVED",
      "glasova": 0,
      "posto": "0,00"
    },{
      "rbr": 6,
      "naziv": "JOSIP TICA",
      "glasova": 0,
      "posto": "0,00"
    },{
      "rbr": 7,
      "naziv": "IVANA MLINAR",
      "glasova": 2,
      "posto": "3,27"
    },{
      "rbr": 8,
      "naziv": "FRANKO DOTA",
      "glasova": 4,
      "posto": "6,55"
    },{
      "rbr": 9,
      "naziv": "LJILJANA ŠTOKALO",
      "glasova": 0,
      "posto": "0,00"
    },{
      "rbr": 10,
      "naziv": "SAŠA STANISLAV HORVATH",
      "glasova": 0,
      "posto": "0,00"
    },{
      "rbr": 11,
      "naziv": "DALIBOR PREVENDAR",
      "glasova": 0,
      "posto": "0,00"
    },{
      "rbr": 12,
      "naziv": "LANA PAVIĆ",
      "glasova": 0,
      "posto": "0,00"
    },{
      "rbr": 13,
      "naziv": "DANICA JURIČIĆ SPASOVIĆ",
      "glasova": 0,
      "posto": "0,00"
    },{
      "rbr": 14,
      "naziv": "IVO JELUŠIĆ",
      "glasova": 0,
      "posto": "0,00"
    }]
  },{
    "rbr": 14,
    "stranke": [
      {"naziv": "DOMOVINSKI POKRET - DP"},
      {"naziv": "PRAVO I PRAVDA"},
      {"naziv": "BLOK ZA HRVATSKU - BLOK"},
      {"naziv": "AGRAMERI - NEZAVISNA LISTA"}
    ],
    "jedinstvenaSifra": "265267274312",
    "glasova": 45,
    "naziv": "DP, PRAVO I PRAVDA, BLOK, AGRAMERI - NEZAVISNA LISTA",
    "posto": "0,40",
    "lista": [{
      "rbr": 1,
      "naziv": "MISLAV KOLAKUŠIĆ",
      "glasova": 0,
      "posto": "0,00"
    },{
      "rbr": 2,
      "naziv": "ZLATKO HASANBEGOVIĆ",
      "glasova": 24,
      "posto": "53,33"
    },{
      "rbr": 3,
      "naziv": "ZVONIMIR LOVRIĆ",
      "glasova": 0,
      "posto": "0,00"
    },{
      "rbr": 4,
      "naziv": "MARIJA VERONKICA CVJETKOVIĆ",
      "glasova": 14,
      "posto": "31,11"
    },{
      "rbr": 5,
      "naziv": "MISLAV BARIŠIĆ",
      "glasova": 2,
      "posto": "4,44"
    },{
      "rbr": 6,
      "naziv": "STJEPAN STANIĆ",
      "glasova": 0,
      "posto": "0,00"
    },{
      "rbr": 7,
      "naziv": "MARIJANA PEHER",
      "glasova": 5,
      "posto": "11,11"
    },{
      "rbr": 8,
      "naziv": "DALIBOR BOŽAN",
      "glasova": 0,
      "posto": "0,00"
    },{
      "rbr": 9,
      "naziv": "ANA LEDERER",
      "glasova": 0,
      "posto": "0,00"
    },{
      "rbr": 10,
      "naziv": "VLADIMIRA IVANKOVIĆ BRADIĆ",
      "glasova": 0,
      "posto": "0,00"
    },{
      "rbr": 11,
      "naziv": "ANDREJA ŠEGO TURKOVIĆ",
      "glasova": 0,
      "posto": "0,00"
    },{
      "rbr": 12,
      "naziv": "PERO IVANČIĆ",
      "glasova": 0,
      "posto": "0,00"
    },{
      "rbr": 13,
      "naziv": "DORIS PERKOVIĆ",
      "glasova": 0,
      "posto": "0,00"
    },{
      "rbr": 14,
      "naziv": "DRAŽAN DIZDAR",
      "glasova": 0,
      "posto": "0,00"
    }]
  },{
    "rbr": 15,
    "stranke": [
      {"naziv": "ODLUČNOST I PRAVEDNOST - OIP"}
    ],
    "jedinstvenaSifra": "300",
    "glasova": 42,
    "naziv": "OIP",
    "posto": "0,37",
    "lista": [{
      "rbr": 1,
      "naziv": "KAROLINA VIDOVIĆ KRIŠTO",
      "glasova": 29,
      "posto": "69,04"
    },{
      "rbr": 2,
      "naziv": "DINO SAČARIĆ",
      "glasova": 11,
      "posto": "26,19"
    },{
      "rbr": 3,
      "naziv": "TOMISLAV ANTE ZRNC",
      "glasova": 0,
      "posto": "0,00"
    },{
      "rbr": 4,
      "naziv": "PETAR PETROVSKI",
      "glasova": 0,
      "posto": "0,00"
    },{
      "rbr": 5,
      "naziv": "JOSIP TOMIČIĆ",
      "glasova": 2,
      "posto": "4,76"
    },{
      "rbr": 6,
      "naziv": "HRVOJE LEKO",
      "glasova": 0,
      "posto": "0,00"
    },{
      "rbr": 7,
      "naziv": "DARINKA MILJANA BARRUETO JAMAN",
      "glasova": 0,
      "posto": "0,00"
    },{
      "rbr": 8,
      "naziv": "IVAN GLAVURDIĆ",
      "glasova": 0,
      "posto": "0,00"
    },{
      "rbr": 9,
      "naziv": "IVANA ŠIKIĆ",
      "glasova": 0,
      "posto": "0,00"
    },{
      "rbr": 10,
      "naziv": "DRAGAN KORUGA",
      "glasova": 0,
      "posto": "0,00"
    },{
      "rbr": 11,
      "naziv": "SLAVEN RUPČIĆ",
      "glasova": 0,
      "posto": "0,00"
    },{
      "rbr": 12,
      "naziv": "KRUNO POLJANČIĆ",
      "glasova": 0,
      "posto": "0,00"
    },{
      "rbr": 13,
      "naziv": "DANIJELA CVITANOVIĆ",
      "glasova": 0,
      "posto": "0,00"
    },{
      "rbr": 14,
      "naziv": "DAVOR KRNJAK",
      "glasova": 0,
      "posto": "0,00"
    }]
  },{
    "rbr": 16,
    "stranke": [
      {"naziv": "HRVATSKA DEMOKRATSKA ZAJEDNICA - HDZ"},
      {"naziv": "HRVATSKA SOCIJALNO - LIBERALNA STRANKA - HSLS"},
      {"naziv": "HRVATSKA DEMOKRŠĆANSKA STRANKA - HDS"},
      {"naziv": "HRVATSKA NARODNA STRANKA - LIBERALNI DEMOKRATI - HNS"},
      {"naziv": "HRVATSKA STRANKA UMIROVLJENIKA - HSU"}
    ],
    "jedinstvenaSifra": "001002003011023",
    "glasova": 5,
    "naziv": "HDZ, HSLS, HDS, HNS, HSU",
    "posto": "0,04",
    "lista": [{
      "rbr": 1,
      "naziv": "ANDREJ PLENKOVIĆ",
      "glasova": 5,
      "posto": "100,00"
    },{
      "rbr": 2,
      "naziv": "ŽELJKO REINER",
      "glasova": 0,
      "posto": "0,00"
    },{
      "rbr": 3,
      "naziv": "NINA OBULJEN KORŽINEK",
      "glasova": 0,
      "posto": "0,00"
    },{
      "rbr": 4,
      "naziv": "KREŠIMIR AČKAR",
      "glasova": 0,
      "posto": "0,00"
    },{
      "rbr": 5,
      "naziv": "DARKO KLASIĆ",
      "glasova": 0,
      "posto": "0,00"
    },{
      "rbr": 6,
      "naziv": "MARKO MILIĆ",
      "glasova": 0,
      "posto": "0,00"
    },{
      "rbr": 7,
      "naziv": "LJUBICA LUKAČIĆ",
      "glasova": 0,
      "posto": "0,00"
    },{
      "rbr": 8,
      "naziv": "ALEMKA MARKOTIĆ",
      "glasova": 0,
      "posto": "0,00"
    },{
      "rbr": 9,
      "naziv": "MATO ČIČAK",
      "glasova": 0,
      "posto": "0,00"
    },{
      "rbr": 10,
      "naziv": "MAKSIMILIJAN ŠIMRAK",
      "glasova": 0,
      "posto": "0,00"
    },{
      "rbr": 11,
      "naziv": "MARIO ŽUPAN",
      "glasova": 0,
      "posto": "0,00"
    },{
      "rbr": 12,
      "naziv": "TUGOMIR MAJDAK",
      "glasova": 0,
      "posto": "0,00"
    },{
      "rbr": 13,
      "naziv": "IVICA MIŠKULIN",
      "glasova": 0,
      "posto": "0,00"
    },{
      "rbr": 14,
      "naziv": "JOSIP LUCIĆ",
      "glasova": 0,
      "posto": "0,00"
    }]
  },{
    "rbr": 17,
    "stranke": [
      {"naziv": "STRANKA IVANA PERNARA"}
    ],
    "jedinstvenaSifra": "259",
    "glasova": 0,
    "naziv": "STRANKA IVANA PERNARA",
    "posto": "0,00",
    "lista": [{
      "rbr": 1,
      "naziv": "LEONARDO LAMON",
      "glasova": 0,
      "posto": "0,00"
    },{
      "rbr": 2,
      "naziv": "DUBRAVKA DRAGUN",
      "glasova": 0,
      "posto": "0,00"
    },{
      "rbr": 3,
      "naziv": "LEO ALAGIĆ",
      "glasova": 0,
      "posto": "0,00"
    },{
      "rbr": 4,
      "naziv": "DIJANA DELIĆ",
      "glasova": 0,
      "posto": "0,00"
    },{
      "rbr": 5,
      "naziv": "ZDENKO RINČIĆ",
      "glasova": 0,
      "posto": "0,00"
    },{
      "rbr": 6,
      "naziv": "MIRA KRIVOŠIJA",
      "glasova": 0,
      "posto": "0,00"
    },{
      "rbr": 7,
      "naziv": "ANA RADOŠ",
      "glasova": 0,
      "posto": "0,00"
    },{
      "rbr": 8,
      "naziv": "KARMELA FIŠER",
      "glasova": 0,
      "posto": "0,00"
    },{
      "rbr": 9,
      "naziv": "MARKO KLIŠANIĆ",
      "glasova": 0,
      "posto": "0,00"
    },{
      "rbr": 10,
      "naziv": "NEVENKA BORJAN",
      "glasova": 0,
      "posto": "0,00"
    },{
      "rbr": 11,
      "naziv": "JAN ŠEREŠ",
      "glasova": 0,
      "posto": "0,00"
    },{
      "rbr": 12,
      "naziv": "MARKO PETROVIĆ",
      "glasova": 0,
      "posto": "0,00"
    },{
      "rbr": 13,
      "naziv": "HUBERT LOOS",
      "glasova": 0,
      "posto": "0,00"
    },{
      "rbr": 14,
      "naziv": "DAVOR PERNAR",
      "glasova": 0,
      "posto": "0,00"
    }]
  }]
}
