{
  "izbori": "Zastupnički izbori 2024",
  "datum": "15.04.2024.",
  "vrijeme": "15:15",
  "izboriOznaka": "02",
  "ijSifra": "002",
  "bmSifra": "000",
  "ijNaziv": "II. IZBORNA JEDINICA",
  "gropNaziv": "SVETI IVAN ZELINA",
  "bmNaziv": "",
  "bmZatvoreno": 45,
  "bmUkupno": 50,
  "biraciUkupno": 10659,
  "biraciGlasovalo": 5035,
  "biraciGlasovaloPosto": "47,24",
  "listiciUkupno": 5026,
  "listiciVazeci": 4944,
  "listiciVazeciPosto": "98,37",
  "listiciNevazeci": 82,
  "listiciNevazeciPosto": "1,63",
  "napomena": "* - objavljeni rezultati sadrže podatke samo s redovnih biračkih mjesta",
  "napomena2": "",
  "lista": [{
    "rbr": 1,
    "stranke": [
      {"naziv": "AGRARNA STRANKA - POKRET ZA HRVATSKU POLJOPRIVREDU"},
      {"naziv": "AKCIJA ZA PROMJENE"}
    ],
    "jedinstvenaSifra": "303305",
    "glasova": 1500,
    "naziv": "AGRARNA STRANKA - POKRET ZA HRVATSKU POLJOPRIVREDU, AKCIJA ZA PROMJENE",
    "posto": "30,33",
    "lista": [{
      "rbr": 1,
      "naziv": "DALIBOR JURINA",
      "glasova": 307,
      "posto": "20,46"
    },{
      "rbr": 2,
      "naziv": "MILJENKO ŠIMPRAGA",
      "glasova": 111,
      "posto": "7,40"
    },{
      "rbr": 3,
      "naziv": "ANDREJA MARCETIĆ",
      "glasova": 52,
      "posto": "3,46"
    },{
      "rbr": 4,
      "naziv": "JOSIP MIKUŠ",
      "glasova": 93,
      "posto": "6,20"
    },{
      "rbr": 5,
      "naziv": "DAMIR RADAN",
      "glasova": 126,
      "posto": "8,40"
    },{
      "rbr": 6,
      "naziv": "KRISTINA ŽIVKO",
      "glasova": 157,
      "posto": "10,46"
    },{
      "rbr": 7,
      "naziv": "KRUNOSLAV LUGARIĆ",
      "glasova": 8,
      "posto": "0,53"
    },{
      "rbr": 8,
      "naziv": "DARKO KOŠAR",
      "glasova": 32,
      "posto": "2,13"
    },{
      "rbr": 9,
      "naziv": "VERA HADŽIĆ",
      "glasova": 294,
      "posto": "19,60"
    },{
      "rbr": 10,
      "naziv": "STJEPAN RAKAS",
      "glasova": 278,
      "posto": "18,53"
    },{
      "rbr": 11,
      "naziv": "NADANA JELIĆ",
      "glasova": 2,
      "posto": "0,13"
    },{
      "rbr": 12,
      "naziv": "DOROTEA RIVIĆ",
      "glasova": 4,
      "posto": "0,26"
    },{
      "rbr": 13,
      "naziv": "MIRSAD SADIKOVIĆ",
      "glasova": 11,
      "posto": "0,73"
    },{
      "rbr": 14,
      "naziv": "KORNELIJA MARUŠIĆ RAKAS",
      "glasova": 24,
      "posto": "1,60"
    }]
  },{
    "rbr": 2,
    "stranke": [
      {"naziv": "RADNIČKA FRONTA - RF"}
    ],
    "jedinstvenaSifra": "168",
    "glasova": 724,
    "naziv": "RF",
    "posto": "14,64",
    "lista": [{
      "rbr": 1,
      "naziv": "SANDRA CRNKOVIĆ",
      "glasova": 154,
      "posto": "21,27"
    },{
      "rbr": 2,
      "naziv": "ZLATKO HARAPIN",
      "glasova": 150,
      "posto": "20,71"
    },{
      "rbr": 3,
      "naziv": "VIKTORIJA ĆURLIN",
      "glasova": 158,
      "posto": "21,82"
    },{
      "rbr": 4,
      "naziv": "DANIJEL DUJMOVIĆ",
      "glasova": 51,
      "posto": "7,04"
    },{
      "rbr": 5,
      "naziv": "SVJETLANA GETO",
      "glasova": 11,
      "posto": "1,51"
    },{
      "rbr": 6,
      "naziv": "ZDENKO LOVRIĆ",
      "glasova": 38,
      "posto": "5,24"
    },{
      "rbr": 7,
      "naziv": "MAŠA VARDA",
      "glasova": 65,
      "posto": "8,97"
    },{
      "rbr": 8,
      "naziv": "BRANKO CEROVAC",
      "glasova": 83,
      "posto": "11,46"
    },{
      "rbr": 9,
      "naziv": "ZLATKA RAŠPERIĆ",
      "glasova": 0,
      "posto": "0,00"
    },{
      "rbr": 10,
      "naziv": "VEDRAN IVANKOVIĆ",
      "glasova": 4,
      "posto": "0,55"
    },{
      "rbr": 11,
      "naziv": "ANICA KRPAN",
      "glasova": 8,
      "posto": "1,10"
    },{
      "rbr": 12,
      "naziv": "ANTONIJO CRNKOVIĆ",
      "glasova": 2,
      "posto": "0,27"
    },{
      "rbr": 13,
      "naziv": "DOMAGOJ MARTINIĆ",
      "glasova": 0,
      "posto": "0,00"
    },{
      "rbr": 14,
      "naziv": "VLADIMIR WÖLFL",
      "glasova": 0,
      "posto": "0,00"
    }]
  },{
    "rbr": 3,
    "stranke": [
      {"naziv": "STRANKA IVANA PERNARA"}
    ],
    "jedinstvenaSifra": "259",
    "glasova": 714,
    "naziv": "STRANKA IVANA PERNARA",
    "posto": "14,44",
    "lista": [{
      "rbr": 1,
      "naziv": "HERMAN VUKUŠIĆ",
      "glasova": 153,
      "posto": "21,42"
    },{
      "rbr": 2,
      "naziv": "KRISTIJAN MARKOVIĆ",
      "glasova": 148,
      "posto": "20,72"
    },{
      "rbr": 3,
      "naziv": "TAMARA CIBOCI",
      "glasova": 157,
      "posto": "21,98"
    },{
      "rbr": 4,
      "naziv": "KEMAL DELIĆ",
      "glasova": 51,
      "posto": "7,14"
    },{
      "rbr": 5,
      "naziv": "VEDRANA FUGAJ",
      "glasova": 11,
      "posto": "1,54"
    },{
      "rbr": 6,
      "naziv": "ZDENKA BABIĆ",
      "glasova": 33,
      "posto": "4,62"
    },{
      "rbr": 7,
      "naziv": "GABRIJELA PAUŠIĆ",
      "glasova": 65,
      "posto": "9,10"
    },{
      "rbr": 8,
      "naziv": "PATRICIJA GOLUBIĆ",
      "glasova": 83,
      "posto": "11,62"
    },{
      "rbr": 9,
      "naziv": "MAJA STROJANŠEK",
      "glasova": 0,
      "posto": "0,00"
    },{
      "rbr": 10,
      "naziv": "SEBASTIAN ILIĆ",
      "glasova": 4,
      "posto": "0,56"
    },{
      "rbr": 11,
      "naziv": "TOMISLAV PREVODNIK",
      "glasova": 7,
      "posto": "0,98"
    },{
      "rbr": 12,
      "naziv": "MATKO LOZANČIĆ",
      "glasova": 0,
      "posto": "0,00"
    },{
      "rbr": 13,
      "naziv": "SARI GHAZAL",
      "glasova": 0,
      "posto": "0,00"
    },{
      "rbr": 14,
      "naziv": "IVON RAJIČEVIĆ",
      "glasova": 2,
      "posto": "0,28"
    }]
  },{
    "rbr": 4,
    "stranke": [
      {"naziv": "UMIROVLJENICI ZAJEDNO - POLITIČKA PLATFORMA - UMIROVLJENICI ZAJEDNO"},
      {"naziv": "STRANKA UMIROVLJENIKA - SU"},
      {"naziv": "BLOK UMIROVLJENICI ZAJEDNO - BUZ"},
      {"naziv": "DEMOKRATSKA STRANKA UMIROVLJENIKA - DSU"}
    ],
    "jedinstvenaSifra": "039041102301",
    "glasova": 522,
    "naziv": "UMIROVLJENICI ZAJEDNO, SU, BUZ, DSU",
    "posto": "10,55",
    "lista": [{
      "rbr": 1,
      "naziv": "MARIJAN ŽIHER",
      "glasova": 218,
      "posto": "41,76"
    },{
      "rbr": 2,
      "naziv": "MILIVOJ ČEHULIĆ",
      "glasova": 85,
      "posto": "16,28"
    },{
      "rbr": 3,
      "naziv": "SLAVKO POSAVEC",
      "glasova": 65,
      "posto": "12,45"
    },{
      "rbr": 4,
      "naziv": "ŽELJKICA KRUHIN",
      "glasova": 43,
      "posto": "8,23"
    },{
      "rbr": 5,
      "naziv": "ŽELJKO ORŠOLIĆ",
      "glasova": 75,
      "posto": "14,36"
    },{
      "rbr": 6,
      "naziv": "DRAGUTIN POLAŠEK",
      "glasova": 23,
      "posto": "4,40"
    },{
      "rbr": 7,
      "naziv": "VALENTINA STARI",
      "glasova": 10,
      "posto": "1,91"
    },{
      "rbr": 8,
      "naziv": "MIRA TUPEK",
      "glasova": 1,
      "posto": "0,19"
    },{
      "rbr": 9,
      "naziv": "KATICA MUNTA",
      "glasova": 0,
      "posto": "0,00"
    },{
      "rbr": 10,
      "naziv": "MOMČILO TOMIĆ",
      "glasova": 2,
      "posto": "0,38"
    },{
      "rbr": 11,
      "naziv": "BOŽICA HARABAJSA",
      "glasova": 0,
      "posto": "0,00"
    },{
      "rbr": 12,
      "naziv": "MARICA SALOPEK",
      "glasova": 0,
      "posto": "0,00"
    },{
      "rbr": 13,
      "naziv": "DARKO MRAZ",
      "glasova": 0,
      "posto": "0,00"
    },{
      "rbr": 14,
      "naziv": "FABIJAN ZOVKIĆ",
      "glasova": 0,
      "posto": "0,00"
    }]
  },{
    "rbr": 5,
    "stranke": [
      {"naziv": "HRVATSKA STRANKA PRAVA - HSP"},
      {"naziv": "HRVATSKO BILO"},
      {"naziv": "HRVATSKA DEMOKRATSKA SELJAČKA STRANKA - HDSS"}
    ],
    "jedinstvenaSifra": "007018308",
    "glasova": 360,
    "naziv": "HSP, HRVATSKO BILO, HDSS",
    "posto": "7,28",
    "lista": [{
      "rbr": 1,
      "naziv": "NADA ŠIKIĆ",
      "glasova": 159,
      "posto": "44,16"
    },{
      "rbr": 2,
      "naziv": "BRIGITTE BERULEC",
      "glasova": 65,
      "posto": "18,05"
    },{
      "rbr": 3,
      "naziv": "ZORICA GREGURIĆ",
      "glasova": 44,
      "posto": "12,22"
    },{
      "rbr": 4,
      "naziv": "ANTUN CINDRIĆ",
      "glasova": 26,
      "posto": "7,22"
    },{
      "rbr": 5,
      "naziv": "HANA MALINA",
      "glasova": 54,
      "posto": "15,00"
    },{
      "rbr": 6,
      "naziv": "MARICA MARIĆ",
      "glasova": 8,
      "posto": "2,22"
    },{
      "rbr": 7,
      "naziv": "DALIBOR ŠOSTARIĆ",
      "glasova": 3,
      "posto": "0,83"
    },{
      "rbr": 8,
      "naziv": "KATARINA SVETEC",
      "glasova": 0,
      "posto": "0,00"
    },{
      "rbr": 9,
      "naziv": "ALIN KAVUR",
      "glasova": 0,
      "posto": "0,00"
    },{
      "rbr": 10,
      "naziv": "HRVOJE PAVIĆ",
      "glasova": 1,
      "posto": "0,27"
    },{
      "rbr": 11,
      "naziv": "ZVONKO KOROV",
      "glasova": 0,
      "posto": "0,00"
    },{
      "rbr": 12,
      "naziv": "MLADEN VUKASOVIĆ",
      "glasova": 0,
      "posto": "0,00"
    },{
      "rbr": 13,
      "naziv": "ANDRIJA NIKOLIĆ",
      "glasova": 0,
      "posto": "0,00"
    },{
      "rbr": 14,
      "naziv": "IGOR KIKIĆ",
      "glasova": 0,
      "posto": "0,00"
    }]
  },{
    "rbr": 6,
    "stranke": [
      {"naziv": "AUTOHTONA - HRVATSKA STRANKA PRAVA - DRAŽEN KELEMINEC - A - HSP - Dražen Keleminec"}
    ],
    "jedinstvenaSifra": "049",
    "glasova": 269,
    "naziv": "A - HSP - Dražen Keleminec",
    "posto": "5,44",
    "lista": [{
      "rbr": 1,
      "naziv": "NIKOLA LUKIĆ",
      "glasova": 67,
      "posto": "24,90"
    },{
      "rbr": 2,
      "naziv": "JOSIP ŠPIŠIĆ",
      "glasova": 64,
      "posto": "23,79"
    },{
      "rbr": 3,
      "naziv": "MARINKO PEREC",
      "glasova": 70,
      "posto": "26,02"
    },{
      "rbr": 4,
      "naziv": "STJEPAN SOKAČ",
      "glasova": 10,
      "posto": "3,71"
    },{
      "rbr": 5,
      "naziv": "MIRA KUTLEŠA",
      "glasova": 0,
      "posto": "0,00"
    },{
      "rbr": 6,
      "naziv": "GORAN ŠARIĆ",
      "glasova": 4,
      "posto": "1,48"
    },{
      "rbr": 7,
      "naziv": "MARIJANA PANIĆ",
      "glasova": 21,
      "posto": "7,80"
    },{
      "rbr": 8,
      "naziv": "MARKO KUTLEŠA",
      "glasova": 33,
      "posto": "12,26"
    },{
      "rbr": 9,
      "naziv": "SLADJANA PEREC",
      "glasova": 0,
      "posto": "0,00"
    },{
      "rbr": 10,
      "naziv": "ROBERT HUZEK-KITTAN",
      "glasova": 0,
      "posto": "0,00"
    },{
      "rbr": 11,
      "naziv": "MARGARETA MAJIĆ",
      "glasova": 0,
      "posto": "0,00"
    },{
      "rbr": 12,
      "naziv": "VEDRAN VESENJAK",
      "glasova": 0,
      "posto": "0,00"
    },{
      "rbr": 13,
      "naziv": "ZORICA POLJANEK",
      "glasova": 0,
      "posto": "0,00"
    },{
      "rbr": 14,
      "naziv": "MARINA HUZEK KITTAN",
      "glasova": 0,
      "posto": "0,00"
    }]
  },{
    "rbr": 7,
    "stranke": [
      {"naziv": "SOCIJALDEMOKRATI"},
      {"naziv": "ISTARSKI DEMOKRATSKI SABOR - IDS"},
      {"naziv": "PRIMORSKO GORANSKI SAVEZ - PGS"},
      {"naziv": "HRVATSKI LABURISTI - STRANKA RADA - LABURISTI"},
      {"naziv": "DEMOKRATI"}
    ],
    "jedinstvenaSifra": "005006100251299",
    "glasova": 194,
    "naziv": "SOCIJALDEMOKRATI, IDS, PGS, LABURISTI, DEMOKRATI",
    "posto": "3,92",
    "lista": [{
      "rbr": 1,
      "naziv": "VLADO ŠOLA",
      "glasova": 54,
      "posto": "27,83"
    },{
      "rbr": 2,
      "naziv": "VESNA NAĐ",
      "glasova": 43,
      "posto": "22,16"
    },{
      "rbr": 3,
      "naziv": "DOMAGOJ PRICA",
      "glasova": 56,
      "posto": "28,86"
    },{
      "rbr": 4,
      "naziv": "INES KOVAČEVIĆ",
      "glasova": 2,
      "posto": "1,03"
    },{
      "rbr": 5,
      "naziv": "IVAN CIKOVIĆ",
      "glasova": 0,
      "posto": "0,00"
    },{
      "rbr": 6,
      "naziv": "STJEPAN ZORMAN",
      "glasova": 1,
      "posto": "0,51"
    },{
      "rbr": 7,
      "naziv": "MARIJAN PREVAREK",
      "glasova": 13,
      "posto": "6,70"
    },{
      "rbr": 8,
      "naziv": "TOMISLAV KOLUNDŽIĆ",
      "glasova": 25,
      "posto": "12,88"
    },{
      "rbr": 9,
      "naziv": "KATA ĆORLUKA",
      "glasova": 0,
      "posto": "0,00"
    },{
      "rbr": 10,
      "naziv": "NERMA ŠIMUNIĆ",
      "glasova": 0,
      "posto": "0,00"
    },{
      "rbr": 11,
      "naziv": "PETAR KANEŠIĆ",
      "glasova": 0,
      "posto": "0,00"
    },{
      "rbr": 12,
      "naziv": "SOFIJA ŠTEFANAC KLOBUČAR",
      "glasova": 0,
      "posto": "0,00"
    },{
      "rbr": 13,
      "naziv": "JADRANKA LUKAVEČKI",
      "glasova": 0,
      "posto": "0,00"
    },{
      "rbr": 14,
      "naziv": "SLAVEN ĐURĐEVIĆ",
      "glasova": 0,
      "posto": "0,00"
    }]
  },{
    "rbr": 8,
    "stranke": [
      {"naziv": "DOMOVINSKI POKRET - DP"},
      {"naziv": "PRAVO I PRAVDA"},
      {"naziv": "DEMOKRATSKI HSS - DHSS"},
      {"naziv": "ZELENA LISTA"},
      {"naziv": "AGRAMERI - NEZAVISNA LISTA"}
    ],
    "jedinstvenaSifra": "231267274283312",
    "glasova": 135,
    "naziv": "DP, PRAVO I PRAVDA, DHSS, ZELENA LISTA, AGRAMERI - NEZAVISNA LISTA",
    "posto": "2,73",
    "lista": [{
      "rbr": 1,
      "naziv": "TOMISLAV JOSIĆ",
      "glasova": 1,
      "posto": "0,74"
    },{
      "rbr": 2,
      "naziv": "IVICA MESIĆ",
      "glasova": 46,
      "posto": "34,07"
    },{
      "rbr": 3,
      "naziv": "NENAD MATIĆ",
      "glasova": 0,
      "posto": "0,00"
    },{
      "rbr": 4,
      "naziv": "SLOBODAN NOVAK",
      "glasova": 32,
      "posto": "23,70"
    },{
      "rbr": 5,
      "naziv": "LUKA HOLJEVAC",
      "glasova": 15,
      "posto": "11,11"
    },{
      "rbr": 6,
      "naziv": "GRGO LUBURIĆ",
      "glasova": 6,
      "posto": "4,44"
    },{
      "rbr": 7,
      "naziv": "TOMISLAV LONČAR",
      "glasova": 22,
      "posto": "16,29"
    },{
      "rbr": 8,
      "naziv": "MAJA OREŠKI PAVLIŠ",
      "glasova": 3,
      "posto": "2,22"
    },{
      "rbr": 9,
      "naziv": "VALNA BASTIJANČIĆ ERJAVEC",
      "glasova": 8,
      "posto": "5,92"
    },{
      "rbr": 10,
      "naziv": "DUBRAVKA DRAGAŠEVIĆ",
      "glasova": 1,
      "posto": "0,74"
    },{
      "rbr": 11,
      "naziv": "VEDRAN ČERNY",
      "glasova": 1,
      "posto": "0,74"
    },{
      "rbr": 12,
      "naziv": "ANTO JURAKIĆ",
      "glasova": 0,
      "posto": "0,00"
    },{
      "rbr": 13,
      "naziv": "STEPHEN NIKOLA BARTULICA",
      "glasova": 0,
      "posto": "0,00"
    },{
      "rbr": 14,
      "naziv": "DAMIR DEAK",
      "glasova": 0,
      "posto": "0,00"
    }]
  },{
    "rbr": 9,
    "stranke": [
      {"naziv": "SOCIJALDEMOKRATSKA PARTIJA HRVATSKE - SDP"},
      {"naziv": "CENTAR"},
      {"naziv": "HRVATSKA SELJAČKA STRANKA - HSS"},
      {"naziv": "\"DALIJA OREŠKOVIĆ I LJUDI S IMENOM I PREZIMENOM\" - \"DO i SIP\""},
      {"naziv": "NARODNA STRANKA - REFORMISTI - REFORMISTI"},
      {"naziv": "GRAĐANSKO-LIBERALNI SAVEZ - GLAS"}
    ],
    "jedinstvenaSifra": "004017162179244306",
    "glasova": 117,
    "naziv": "SDP, CENTAR, HSS, \"DO i SIP\", REFORMISTI, GLAS",
    "posto": "2,36",
    "lista": [{
      "rbr": 1,
      "naziv": "BORIS LALOVAC",
      "glasova": 67,
      "posto": "57,26"
    },{
      "rbr": 2,
      "naziv": "TANJA SOKOLIĆ",
      "glasova": 31,
      "posto": "26,49"
    },{
      "rbr": 3,
      "naziv": "ANKA MRAK-TARITAŠ",
      "glasova": 6,
      "posto": "5,12"
    },{
      "rbr": 4,
      "naziv": "TOMISLAV GOLUBIĆ",
      "glasova": 2,
      "posto": "1,70"
    },{
      "rbr": 5,
      "naziv": "DAVORKA MOSLAVAC FORJAN",
      "glasova": 11,
      "posto": "9,40"
    },{
      "rbr": 6,
      "naziv": "DENIS KRALJ",
      "glasova": 0,
      "posto": "0,00"
    },{
      "rbr": 7,
      "naziv": "MAJA KRNJEVIĆ",
      "glasova": 0,
      "posto": "0,00"
    },{
      "rbr": 8,
      "naziv": "VALENTINA FOLNEGOVIĆ",
      "glasova": 0,
      "posto": "0,00"
    },{
      "rbr": 9,
      "naziv": "IGOR JAREŠ",
      "glasova": 0,
      "posto": "0,00"
    },{
      "rbr": 10,
      "naziv": "MARIJA VUKOBRATOVIĆ",
      "glasova": 0,
      "posto": "0,00"
    },{
      "rbr": 11,
      "naziv": "DEJAN PLENTAJ",
      "glasova": 0,
      "posto": "0,00"
    },{
      "rbr": 12,
      "naziv": "STANKO BORIĆ",
      "glasova": 0,
      "posto": "0,00"
    },{
      "rbr": 13,
      "naziv": "TESA GOLDSTEIN",
      "glasova": 0,
      "posto": "0,00"
    },{
      "rbr": 14,
      "naziv": "BOJAN GLAVAŠEVIĆ",
      "glasova": 0,
      "posto": "0,00"
    }]
  },{
    "rbr": 10,
    "stranke": [
      {"naziv": "MOST"},
      {"naziv": "HRVATSKI SUVERENISTI"},
      {"naziv": "HRVATSKA KONZERVATIVNA STRANKA - HKS"},
      {"naziv": "NEZAVISNA LISTA MLADIH - NLM"}
    ],
    "jedinstvenaSifra": "131165188263",
    "glasova": 111,
    "naziv": "MOST, HRVATSKI SUVERENISTI, HKS, NLM",
    "posto": "2,24",
    "lista": [{
      "rbr": 1,
      "naziv": "NINO RASPUDIĆ",
      "glasova": 63,
      "posto": "56,75"
    },{
      "rbr": 2,
      "naziv": "TRPIMIR GOLUŽA",
      "glasova": 30,
      "posto": "27,02"
    },{
      "rbr": 3,
      "naziv": "VINKO BATINIĆ",
      "glasova": 6,
      "posto": "5,40"
    },{
      "rbr": 4,
      "naziv": "IVANA VLADIMIRA PETRIC",
      "glasova": 2,
      "posto": "1,80"
    },{
      "rbr": 5,
      "naziv": "RENATA ČIBARIĆ",
      "glasova": 10,
      "posto": "9,00"
    },{
      "rbr": 6,
      "naziv": "VESNA KOTARAC",
      "glasova": 0,
      "posto": "0,00"
    },{
      "rbr": 7,
      "naziv": "ELIZABETA KRALJ KOVAČIĆ",
      "glasova": 0,
      "posto": "0,00"
    },{
      "rbr": 8,
      "naziv": "PAŠKO FILIĆ",
      "glasova": 0,
      "posto": "0,00"
    },{
      "rbr": 9,
      "naziv": "DOMAGOJ JUKIĆ",
      "glasova": 0,
      "posto": "0,00"
    },{
      "rbr": 10,
      "naziv": "LUKA PEŠUT",
      "glasova": 0,
      "posto": "0,00"
    },{
      "rbr": 11,
      "naziv": "ANĐA ČUJIĆ",
      "glasova": 0,
      "posto": "0,00"
    },{
      "rbr": 12,
      "naziv": "MARIJANA MARIN KOZINA",
      "glasova": 0,
      "posto": "0,00"
    },{
      "rbr": 13,
      "naziv": "MARTA BLAJIĆ DŽAJA",
      "glasova": 0,
      "posto": "0,00"
    },{
      "rbr": 14,
      "naziv": "BERNARD BUDIMIR",
      "glasova": 0,
      "posto": "0,00"
    }]
  },{
    "rbr": 11,
    "stranke": [
      {"naziv": "MOŽEMO! - POLITIČKA PLATFORMA"},
      {"naziv": "HOĆEMO PRAVEDNO"}
    ],
    "jedinstvenaSifra": "255297",
    "glasova": 96,
    "naziv": "MOŽEMO! - POLITIČKA PLATFORMA, HOĆEMO PRAVEDNO",
    "posto": "1,94",
    "lista": [{
      "rbr": 1,
      "naziv": "DANIJELA DOLENEC",
      "glasova": 26,
      "posto": "27,08"
    },{
      "rbr": 2,
      "naziv": "JELENA MILOŠ",
      "glasova": 17,
      "posto": "17,70"
    },{
      "rbr": 3,
      "naziv": "MARINA IVANDIĆ",
      "glasova": 42,
      "posto": "43,75"
    },{
      "rbr": 4,
      "naziv": "DAMIR LUJANAC",
      "glasova": 1,
      "posto": "1,04"
    },{
      "rbr": 5,
      "naziv": "MAURO SIROTNJAK",
      "glasova": 0,
      "posto": "0,00"
    },{
      "rbr": 6,
      "naziv": "BRANKO ANČIĆ",
      "glasova": 0,
      "posto": "0,00"
    },{
      "rbr": 7,
      "naziv": "DOROTEA ŠAFRANIĆ",
      "glasova": 3,
      "posto": "3,12"
    },{
      "rbr": 8,
      "naziv": "ANKICA PENAVA PEJČINOVIĆ",
      "glasova": 7,
      "posto": "7,29"
    },{
      "rbr": 9,
      "naziv": "JAGODA MUNIĆ",
      "glasova": 0,
      "posto": "0,00"
    },{
      "rbr": 10,
      "naziv": "NIKOLA ZDUNIĆ",
      "glasova": 0,
      "posto": "0,00"
    },{
      "rbr": 11,
      "naziv": "HELENA KERETA",
      "glasova": 0,
      "posto": "0,00"
    },{
      "rbr": 12,
      "naziv": "LUKA MALOČA",
      "glasova": 0,
      "posto": "0,00"
    },{
      "rbr": 13,
      "naziv": "MAGDALENA KOZARIĆ ŠPOLJARIĆ",
      "glasova": 0,
      "posto": "0,00"
    },{
      "rbr": 14,
      "naziv": "TIHOMIR MILOVAC",
      "glasova": 0,
      "posto": "0,00"
    }]
  },{
    "rbr": 12,
    "stranke": [
      {"naziv": "ODLUČNOST I PRAVEDNOST - OIP"}
    ],
    "jedinstvenaSifra": "300",
    "glasova": 82,
    "naziv": "OIP",
    "posto": "1,65",
    "lista": [{
      "rbr": 1,
      "naziv": "MARIO IVANIĆ",
      "glasova": 53,
      "posto": "64,63"
    },{
      "rbr": 2,
      "naziv": "GORDAN MAROVIĆ",
      "glasova": 20,
      "posto": "24,39"
    },{
      "rbr": 3,
      "naziv": "ŠTEFAN VIDOVIĆ",
      "glasova": 2,
      "posto": "2,43"
    },{
      "rbr": 4,
      "naziv": "SLAVOLJUB DUBRAVEC",
      "glasova": 2,
      "posto": "2,43"
    },{
      "rbr": 5,
      "naziv": "ANTE BARIČEVIĆ",
      "glasova": 5,
      "posto": "6,09"
    },{
      "rbr": 6,
      "naziv": "IVICA KAURIN",
      "glasova": 0,
      "posto": "0,00"
    },{
      "rbr": 7,
      "naziv": "DAVOR CINDRIĆ",
      "glasova": 0,
      "posto": "0,00"
    },{
      "rbr": 8,
      "naziv": "IVANA GRBEŠA",
      "glasova": 0,
      "posto": "0,00"
    },{
      "rbr": 9,
      "naziv": "ROBERT JOSIP VUJIČIĆ",
      "glasova": 0,
      "posto": "0,00"
    },{
      "rbr": 10,
      "naziv": "DARINKO TADIĆ",
      "glasova": 0,
      "posto": "0,00"
    },{
      "rbr": 11,
      "naziv": "DALIBOR LEŠNIK",
      "glasova": 0,
      "posto": "0,00"
    },{
      "rbr": 12,
      "naziv": "FILIP MALOČA",
      "glasova": 0,
      "posto": "0,00"
    },{
      "rbr": 13,
      "naziv": "VIKTOR KOKOROVIĆ",
      "glasova": 0,
      "posto": "0,00"
    },{
      "rbr": 14,
      "naziv": "IRENA BABIĆ",
      "glasova": 0,
      "posto": "0,00"
    }]
  },{
    "rbr": 13,
    "stranke": [
      {"naziv": "FOKUS"},
      {"naziv": "REPUBLIKA"}
    ],
    "jedinstvenaSifra": "270310",
    "glasova": 62,
    "naziv": "FOKUS, REPUBLIKA",
    "posto": "1,25",
    "lista": [{
      "rbr": 1,
      "naziv": "DAMIR BAJS",
      "glasova": 35,
      "posto": "56,45"
    },{
      "rbr": 2,
      "naziv": "HRVOJE KOŠĆEC",
      "glasova": 0,
      "posto": "0,00"
    },{
      "rbr": 3,
      "naziv": "NENAD PANIAN",
      "glasova": 0,
      "posto": "0,00"
    },{
      "rbr": 4,
      "naziv": "STJEPAN GADŽE",
      "glasova": 0,
      "posto": "0,00"
    },{
      "rbr": 5,
      "naziv": "MATIJA HERJAVIĆ",
      "glasova": 1,
      "posto": "1,61"
    },{
      "rbr": 6,
      "naziv": "IVANA RADAKOVIĆ",
      "glasova": 1,
      "posto": "1,61"
    },{
      "rbr": 7,
      "naziv": "MIRJANA HRANJEC BANOVEC",
      "glasova": 0,
      "posto": "0,00"
    },{
      "rbr": 8,
      "naziv": "LUKA KIPA",
      "glasova": 0,
      "posto": "0,00"
    },{
      "rbr": 9,
      "naziv": "STEVO TURČINOVIĆ",
      "glasova": 18,
      "posto": "29,03"
    },{
      "rbr": 10,
      "naziv": "JELENA HORVAT",
      "glasova": 7,
      "posto": "11,29"
    },{
      "rbr": 11,
      "naziv": "ŽELJKA JAREC BUKAL",
      "glasova": 0,
      "posto": "0,00"
    },{
      "rbr": 12,
      "naziv": "IVANA PIRIN",
      "glasova": 0,
      "posto": "0,00"
    },{
      "rbr": 13,
      "naziv": "IVANA EL-TAYEB",
      "glasova": 0,
      "posto": "0,00"
    },{
      "rbr": 14,
      "naziv": "MARIO KOLAR",
      "glasova": 0,
      "posto": "0,00"
    }]
  },{
    "rbr": 14,
    "stranke": [
      {"naziv": "HRVATSKA DEMOKRATSKA ZAJEDNICA - HDZ"},
      {"naziv": "HRVATSKA SOCIJALNO - LIBERALNA STRANKA - HSLS"},
      {"naziv": "HRVATSKA DEMOKRŠĆANSKA STRANKA - HDS"},
      {"naziv": "HRVATSKA NARODNA STRANKA - LIBERALNI DEMOKRATI - HNS"},
      {"naziv": "HRVATSKA STRANKA UMIROVLJENIKA - HSU"}
    ],
    "jedinstvenaSifra": "001002003011023",
    "glasova": 58,
    "naziv": "HDZ, HSLS, HDS, HNS, HSU",
    "posto": "1,17",
    "lista": [{
      "rbr": 1,
      "naziv": "GORDAN JANDROKOVIĆ",
      "glasova": 39,
      "posto": "67,24"
    },{
      "rbr": 2,
      "naziv": "KRUNOSLAV KATIČIĆ",
      "glasova": 15,
      "posto": "25,86"
    },{
      "rbr": 3,
      "naziv": "DARIO HREBAK",
      "glasova": 2,
      "posto": "3,44"
    },{
      "rbr": 4,
      "naziv": "ANTE DEUR",
      "glasova": 0,
      "posto": "0,00"
    },{
      "rbr": 5,
      "naziv": "GORDAN GRLIĆ-RADMAN",
      "glasova": 2,
      "posto": "3,44"
    },{
      "rbr": 6,
      "naziv": "MIRO TOTGERGELI",
      "glasova": 0,
      "posto": "0,00"
    },{
      "rbr": 7,
      "naziv": "JAVOR BOJAN LEŠ",
      "glasova": 0,
      "posto": "0,00"
    },{
      "rbr": 8,
      "naziv": "ZDRAVKA BUŠIĆ",
      "glasova": 0,
      "posto": "0,00"
    },{
      "rbr": 9,
      "naziv": "SANELA GRBAŠ BRATKOVIĆ",
      "glasova": 0,
      "posto": "0,00"
    },{
      "rbr": 10,
      "naziv": "TOMISLAV OKROŠA",
      "glasova": 0,
      "posto": "0,00"
    },{
      "rbr": 11,
      "naziv": "FRANJO POLJAK",
      "glasova": 0,
      "posto": "0,00"
    },{
      "rbr": 12,
      "naziv": "EVA JENDRIŠ ŠKRLJAK",
      "glasova": 0,
      "posto": "0,00"
    },{
      "rbr": 13,
      "naziv": "BRANKO HRG",
      "glasova": 0,
      "posto": "0,00"
    },{
      "rbr": 14,
      "naziv": "MARKO MARUŠIĆ",
      "glasova": 0,
      "posto": "0,00"
    }]
  }]
}
