{
  "izbori": "Zastupnički izbori 2024",
  "datum": "15.04.2024.",
  "vrijeme": "15:15",
  "izboriOznaka": "02",
  "ijSifra": "003",
  "bmSifra": "000",
  "ijNaziv": "III. IZBORNA JEDINICA",
  "gropNaziv": "KRAPINA",
  "bmNaziv": "",
  "bmZatvoreno": 18,
  "bmUkupno": 18,
  "biraciUkupno": 9669,
  "biraciGlasovalo": 4652,
  "biraciGlasovaloPosto": "48,11",
  "listiciUkupno": 4649,
  "listiciVazeci": 4579,
  "listiciVazeciPosto": "98,49",
  "listiciNevazeci": 70,
  "listiciNevazeciPosto": "1,51",
  "napomena": "* - objavljeni rezultati sadrže podatke samo s redovnih biračkih mjesta",
  "napomena2": "",
  "lista": [{
    "rbr": 1,
    "stranke": [
      {"naziv": "STRANKA IVANA PERNARA"}
    ],
    "jedinstvenaSifra": "259",
    "glasova": 1429,
    "naziv": "STRANKA IVANA PERNARA",
    "posto": "31,20",
    "lista": [{
      "rbr": 1,
      "naziv": "LIDIJA FERENČAK",
      "glasova": 267,
      "posto": "18,68"
    },{
      "rbr": 2,
      "naziv": "DAVID KOVAČIĆ",
      "glasova": 252,
      "posto": "17,63"
    },{
      "rbr": 3,
      "naziv": "IVAN LOVAKOVIĆ",
      "glasova": 282,
      "posto": "19,73"
    },{
      "rbr": 4,
      "naziv": "IVANA ŠAIĆ",
      "glasova": 95,
      "posto": "6,64"
    },{
      "rbr": 5,
      "naziv": "NIKOLA PERAS",
      "glasova": 53,
      "posto": "3,70"
    },{
      "rbr": 6,
      "naziv": "MARIJA ŠRBEC",
      "glasova": 80,
      "posto": "5,59"
    },{
      "rbr": 7,
      "naziv": "LJUBOMIR FLAJŠMAN",
      "glasova": 110,
      "posto": "7,69"
    },{
      "rbr": 8,
      "naziv": "PETAR JAGARČEC",
      "glasova": 139,
      "posto": "9,72"
    },{
      "rbr": 9,
      "naziv": "MAJA POKOS",
      "glasova": 15,
      "posto": "1,04"
    },{
      "rbr": 10,
      "naziv": "MATEO CILER",
      "glasova": 33,
      "posto": "2,30"
    },{
      "rbr": 11,
      "naziv": "MARIJA DUJMOVIĆ",
      "glasova": 46,
      "posto": "3,21"
    },{
      "rbr": 12,
      "naziv": "ANDREJ ŠPOLJAR",
      "glasova": 6,
      "posto": "0,41"
    },{
      "rbr": 13,
      "naziv": "SARA KORJENIĆ",
      "glasova": 14,
      "posto": "0,97"
    },{
      "rbr": 14,
      "naziv": "MARKO ŠVIGIR",
      "glasova": 25,
      "posto": "1,74"
    }]
  },{
    "rbr": 2,
    "stranke": [
      {"naziv": "NEOVISNA LISTA -  VIKTOR ŠIMUNIĆ"}
    ],
    "jedinstvenaSifra": "4602",
    "glasova": 1293,
    "naziv": "NEOVISNA LISTA -  VIKTOR ŠIMUNIĆ",
    "posto": "28,23",
    "lista": [{
      "rbr": 1,
      "naziv": "VIKTOR ŠIMUNIĆ",
      "glasova": 240,
      "posto": "18,56"
    },{
      "rbr": 2,
      "naziv": "ROMEO VINCELJ",
      "glasova": 230,
      "posto": "17,78"
    },{
      "rbr": 3,
      "naziv": "INES DEBELIĆ",
      "glasova": 254,
      "posto": "19,64"
    },{
      "rbr": 4,
      "naziv": "LEONARD FULIR",
      "glasova": 88,
      "posto": "6,80"
    },{
      "rbr": 5,
      "naziv": "PETRA BOLFEK BELOŠEVIĆ",
      "glasova": 48,
      "posto": "3,71"
    },{
      "rbr": 6,
      "naziv": "TINA DUNDOVIĆ",
      "glasova": 75,
      "posto": "5,80"
    },{
      "rbr": 7,
      "naziv": "ADALBERT TURNER",
      "glasova": 100,
      "posto": "7,73"
    },{
      "rbr": 8,
      "naziv": "JOSIPA GREGORINA",
      "glasova": 122,
      "posto": "9,43"
    },{
      "rbr": 9,
      "naziv": "DARKO MIRT",
      "glasova": 15,
      "posto": "1,16"
    },{
      "rbr": 10,
      "naziv": "MARTINA TOPOLOVEC",
      "glasova": 31,
      "posto": "2,39"
    },{
      "rbr": 11,
      "naziv": "BARTOL KNEZIĆ",
      "glasova": 44,
      "posto": "3,40"
    },{
      "rbr": 12,
      "naziv": "MIRTA MARIJA MUŠEC",
      "glasova": 9,
      "posto": "0,69"
    },{
      "rbr": 13,
      "naziv": "BRANKO FEREK-JAMBREK",
      "glasova": 14,
      "posto": "1,08"
    },{
      "rbr": 14,
      "naziv": "DARIO JURIČAN",
      "glasova": 8,
      "posto": "0,61"
    }]
  },{
    "rbr": 3,
    "stranke": [
      {"naziv": "UMIROVLJENICI ZAJEDNO - POLITIČKA PLATFORMA - UMIROVLJENICI ZAJEDNO"},
      {"naziv": "STRANKA UMIROVLJENIKA - SU"},
      {"naziv": "BLOK UMIROVLJENICI ZAJEDNO - BUZ"},
      {"naziv": "DEMOKRATSKA STRANKA UMIROVLJENIKA - DSU"}
    ],
    "jedinstvenaSifra": "039041102301",
    "glasova": 428,
    "naziv": "UMIROVLJENICI ZAJEDNO, SU, BUZ, DSU",
    "posto": "9,34",
    "lista": [{
      "rbr": 1,
      "naziv": "MIROSLAV VOJVODIĆ",
      "glasova": 88,
      "posto": "20,56"
    },{
      "rbr": 2,
      "naziv": "VESNA BAJKOVEC",
      "glasova": 82,
      "posto": "19,15"
    },{
      "rbr": 3,
      "naziv": "DRAGA VUKOJE-CUPAĆ",
      "glasova": 89,
      "posto": "20,79"
    },{
      "rbr": 4,
      "naziv": "IVAN KRANJC",
      "glasova": 32,
      "posto": "7,47"
    },{
      "rbr": 5,
      "naziv": "ROBERT MARIJANČIĆ",
      "glasova": 13,
      "posto": "3,03"
    },{
      "rbr": 6,
      "naziv": "DANIJELA MILAŠIN",
      "glasova": 26,
      "posto": "6,07"
    },{
      "rbr": 7,
      "naziv": "KATA MUŽJAK",
      "glasova": 38,
      "posto": "8,87"
    },{
      "rbr": 8,
      "naziv": "ZDENKA FARKAŠ",
      "glasova": 48,
      "posto": "11,21"
    },{
      "rbr": 9,
      "naziv": "STAKA STIPANIČIĆ",
      "glasova": 0,
      "posto": "0,00"
    },{
      "rbr": 10,
      "naziv": "AMALIJA ČUHNIL",
      "glasova": 2,
      "posto": "0,46"
    },{
      "rbr": 11,
      "naziv": "ČESTMIR KOMAREK",
      "glasova": 10,
      "posto": "2,33"
    },{
      "rbr": 12,
      "naziv": "BOŽICA VREČIĆ",
      "glasova": 0,
      "posto": "0,00"
    },{
      "rbr": 13,
      "naziv": "FRANJO GURABIĆ",
      "glasova": 0,
      "posto": "0,00"
    },{
      "rbr": 14,
      "naziv": "FRANCO CUCULIĆ",
      "glasova": 0,
      "posto": "0,00"
    }]
  },{
    "rbr": 4,
    "stranke": [
      {"naziv": "HRVATSKA STRANKA PRAVA - HSP"},
      {"naziv": "HRVATSKO BILO"},
      {"naziv": "HRVATSKA DEMOKRATSKA SELJAČKA STRANKA - HDSS"}
    ],
    "jedinstvenaSifra": "007018308",
    "glasova": 283,
    "naziv": "HSP, HRVATSKO BILO, HDSS",
    "posto": "6,18",
    "lista": [{
      "rbr": 1,
      "naziv": "IGOR REŠETAR",
      "glasova": 115,
      "posto": "40,63"
    },{
      "rbr": 2,
      "naziv": "GORANKA BARIČEVIĆ",
      "glasova": 45,
      "posto": "15,90"
    },{
      "rbr": 3,
      "naziv": "BARBARA FUČEC BOROVIĆ",
      "glasova": 34,
      "posto": "12,01"
    },{
      "rbr": 4,
      "naziv": "MLADEN KRANJEC",
      "glasova": 26,
      "posto": "9,18"
    },{
      "rbr": 5,
      "naziv": "IVAN VURUŠIĆ",
      "glasova": 39,
      "posto": "13,78"
    },{
      "rbr": 6,
      "naziv": "JOSIPA VANDETTA HABULA",
      "glasova": 15,
      "posto": "5,30"
    },{
      "rbr": 7,
      "naziv": "MATEJA VRANOVIĆ",
      "glasova": 6,
      "posto": "2,12"
    },{
      "rbr": 8,
      "naziv": "ŽELJKO POMPER",
      "glasova": 0,
      "posto": "0,00"
    },{
      "rbr": 9,
      "naziv": "FILIP HLAPČIĆ",
      "glasova": 0,
      "posto": "0,00"
    },{
      "rbr": 10,
      "naziv": "DANILA MARTAN",
      "glasova": 3,
      "posto": "1,06"
    },{
      "rbr": 11,
      "naziv": "ANA ŠTEFIČAR",
      "glasova": 0,
      "posto": "0,00"
    },{
      "rbr": 12,
      "naziv": "JOSIP RADEK",
      "glasova": 0,
      "posto": "0,00"
    },{
      "rbr": 13,
      "naziv": "EDI DODLEK-BARIČEVIĆ",
      "glasova": 0,
      "posto": "0,00"
    },{
      "rbr": 14,
      "naziv": "MARIO SLAVIČEK",
      "glasova": 0,
      "posto": "0,00"
    }]
  },{
    "rbr": 5,
    "stranke": [
      {"naziv": "RADNIČKA FRONTA - RF"}
    ],
    "jedinstvenaSifra": "168",
    "glasova": 276,
    "naziv": "RF",
    "posto": "6,02",
    "lista": [{
      "rbr": 1,
      "naziv": "HRVOJ KRŽAK",
      "glasova": 113,
      "posto": "40,94"
    },{
      "rbr": 2,
      "naziv": "SINIŠA MILIČIĆ",
      "glasova": 44,
      "posto": "15,94"
    },{
      "rbr": 3,
      "naziv": "ANDREJA JAGEČIĆ",
      "glasova": 33,
      "posto": "11,95"
    },{
      "rbr": 4,
      "naziv": "GORAN JAKUŠ",
      "glasova": 25,
      "posto": "9,05"
    },{
      "rbr": 5,
      "naziv": "SANJA LEŽ",
      "glasova": 36,
      "posto": "13,04"
    },{
      "rbr": 6,
      "naziv": "MANUELA PERŠIĆ",
      "glasova": 14,
      "posto": "5,07"
    },{
      "rbr": 7,
      "naziv": "TOMISLAV LUKEC",
      "glasova": 8,
      "posto": "2,89"
    },{
      "rbr": 8,
      "naziv": "KRISTINA PETRUŠA",
      "glasova": 0,
      "posto": "0,00"
    },{
      "rbr": 9,
      "naziv": "SINIŠA VUDRAGOVIĆ",
      "glasova": 0,
      "posto": "0,00"
    },{
      "rbr": 10,
      "naziv": "ANKICA NEMET",
      "glasova": 3,
      "posto": "1,08"
    },{
      "rbr": 11,
      "naziv": "MISLAV SOKAČIĆ",
      "glasova": 0,
      "posto": "0,00"
    },{
      "rbr": 12,
      "naziv": "CARMEN KRŽAK",
      "glasova": 0,
      "posto": "0,00"
    },{
      "rbr": 13,
      "naziv": "ZVONIMIR KOŠĆAK",
      "glasova": 0,
      "posto": "0,00"
    },{
      "rbr": 14,
      "naziv": "GORAN STRAHIJA",
      "glasova": 0,
      "posto": "0,00"
    }]
  },{
    "rbr": 6,
    "stranke": [
      {"naziv": "HRVATSKA STRANKA GRAĐANSKOG OTPORA - HSGO"}
    ],
    "jedinstvenaSifra": "247",
    "glasova": 194,
    "naziv": "HSGO",
    "posto": "4,23",
    "lista": [{
      "rbr": 1,
      "naziv": "JOSIP BABOK",
      "glasova": 83,
      "posto": "42,78"
    },{
      "rbr": 2,
      "naziv": "VESNA VUKOVIĆ",
      "glasova": 31,
      "posto": "15,97"
    },{
      "rbr": 3,
      "naziv": "ŠTEFICA HUSEINOVIĆ",
      "glasova": 25,
      "posto": "12,88"
    },{
      "rbr": 4,
      "naziv": "KREŠIMIR JAMBROŠIĆ",
      "glasova": 18,
      "posto": "9,27"
    },{
      "rbr": 5,
      "naziv": "IVICA PETRINJAK",
      "glasova": 27,
      "posto": "13,91"
    },{
      "rbr": 6,
      "naziv": "MARINA ČRNJAK",
      "glasova": 6,
      "posto": "3,09"
    },{
      "rbr": 7,
      "naziv": "BARICA GOTIĆ",
      "glasova": 4,
      "posto": "2,06"
    },{
      "rbr": 8,
      "naziv": "MIRJANA ILAK",
      "glasova": 0,
      "posto": "0,00"
    },{
      "rbr": 9,
      "naziv": "BOŽIDAR TARODI",
      "glasova": 0,
      "posto": "0,00"
    },{
      "rbr": 10,
      "naziv": "TOMO LONČAREVIĆ",
      "glasova": 0,
      "posto": "0,00"
    },{
      "rbr": 11,
      "naziv": "NADA BABOK",
      "glasova": 0,
      "posto": "0,00"
    },{
      "rbr": 12,
      "naziv": "BOŽO BABIĆ",
      "glasova": 0,
      "posto": "0,00"
    },{
      "rbr": 13,
      "naziv": "BLAŽENKA ŠĆETINEC",
      "glasova": 0,
      "posto": "0,00"
    },{
      "rbr": 14,
      "naziv": "JASNA DAMJANOVIĆ",
      "glasova": 0,
      "posto": "0,00"
    }]
  },{
    "rbr": 7,
    "stranke": [
      {"naziv": "MOST"},
      {"naziv": "HRVATSKI SUVERENISTI"},
      {"naziv": "HRVATSKA KONZERVATIVNA STRANKA - HKS"},
      {"naziv": "NEZAVISNA LISTA MLADIH - NLM"}
    ],
    "jedinstvenaSifra": "131165188263",
    "glasova": 144,
    "naziv": "MOST, HRVATSKI SUVERENISTI, HKS, NLM",
    "posto": "3,14",
    "lista": [{
      "rbr": 1,
      "naziv": "ŽELJKO SAČIĆ",
      "glasova": 34,
      "posto": "23,61"
    },{
      "rbr": 2,
      "naziv": "ROBERT PODOLNJAK",
      "glasova": 34,
      "posto": "23,61"
    },{
      "rbr": 3,
      "naziv": "MARIJA HERTELENDI",
      "glasova": 35,
      "posto": "24,30"
    },{
      "rbr": 4,
      "naziv": "BRIGITA MUŽAR",
      "glasova": 7,
      "posto": "4,86"
    },{
      "rbr": 5,
      "naziv": "DOMINIK KLEMENČIĆ",
      "glasova": 0,
      "posto": "0,00"
    },{
      "rbr": 6,
      "naziv": "ANĐELKO MARTINČEVIĆ",
      "glasova": 3,
      "posto": "2,08"
    },{
      "rbr": 7,
      "naziv": "ZLATKA VINKOVIĆ",
      "glasova": 11,
      "posto": "7,63"
    },{
      "rbr": 8,
      "naziv": "MAGDALENA PRANJEŠ",
      "glasova": 20,
      "posto": "13,88"
    },{
      "rbr": 9,
      "naziv": "MARIJAN BOHNEC",
      "glasova": 0,
      "posto": "0,00"
    },{
      "rbr": 10,
      "naziv": "IVANČICA MILOVEC",
      "glasova": 0,
      "posto": "0,00"
    },{
      "rbr": 11,
      "naziv": "IVANA ŠLEZAK",
      "glasova": 0,
      "posto": "0,00"
    },{
      "rbr": 12,
      "naziv": "VOJMIR SABOLIĆ",
      "glasova": 0,
      "posto": "0,00"
    },{
      "rbr": 13,
      "naziv": "STJEPAN DAMIŠ",
      "glasova": 0,
      "posto": "0,00"
    },{
      "rbr": 14,
      "naziv": "JOSIP LISAK",
      "glasova": 0,
      "posto": "0,00"
    }]
  },{
    "rbr": 8,
    "stranke": [
      {"naziv": "SOCIJALDEMOKRATSKA PARTIJA HRVATSKE - SDP"},
      {"naziv": "CENTAR"},
      {"naziv": "HRVATSKA SELJAČKA STRANKA - HSS"},
      {"naziv": "\"DALIJA OREŠKOVIĆ I LJUDI S IMENOM I PREZIMENOM\" - \"DO i SIP\""},
      {"naziv": "NARODNA STRANKA - REFORMISTI - REFORMISTI"},
      {"naziv": "GRAĐANSKO-LIBERALNI SAVEZ - GLAS"}
    ],
    "jedinstvenaSifra": "004017162179244306",
    "glasova": 135,
    "naziv": "SDP, CENTAR, HSS, \"DO i SIP\", REFORMISTI, GLAS",
    "posto": "2,94",
    "lista": [{
      "rbr": 1,
      "naziv": "SINIŠA HAJDAŠ DONČIĆ",
      "glasova": 61,
      "posto": "45,18"
    },{
      "rbr": 2,
      "naziv": "BARBARA ANTOLIĆ VUPORA",
      "glasova": 24,
      "posto": "17,77"
    },{
      "rbr": 3,
      "naziv": "ŽELJKO KOLAR",
      "glasova": 16,
      "posto": "11,85"
    },{
      "rbr": 4,
      "naziv": "BOŠKA BAN VLAHEK",
      "glasova": 9,
      "posto": "6,66"
    },{
      "rbr": 5,
      "naziv": "MIROSLAV MARKOVIĆ",
      "glasova": 22,
      "posto": "16,29"
    },{
      "rbr": 6,
      "naziv": "JASENKA AUGUŠTAN-PENTEK",
      "glasova": 3,
      "posto": "2,22"
    },{
      "rbr": 7,
      "naziv": "NATALIJA MARTINČEVIĆ",
      "glasova": 0,
      "posto": "0,00"
    },{
      "rbr": 8,
      "naziv": "MARIO MEDVED",
      "glasova": 0,
      "posto": "0,00"
    },{
      "rbr": 9,
      "naziv": "ANDREJA MARIĆ",
      "glasova": 0,
      "posto": "0,00"
    },{
      "rbr": 10,
      "naziv": "ŽELJKO POSAVEC",
      "glasova": 0,
      "posto": "0,00"
    },{
      "rbr": 11,
      "naziv": "ANITA CURIŠ KROK",
      "glasova": 0,
      "posto": "0,00"
    },{
      "rbr": 12,
      "naziv": "LOVRO LUKAVEČKI",
      "glasova": 0,
      "posto": "0,00"
    },{
      "rbr": 13,
      "naziv": "RADIMIR ČAČIĆ",
      "glasova": 0,
      "posto": "0,00"
    },{
      "rbr": 14,
      "naziv": "LANA REMAR",
      "glasova": 0,
      "posto": "0,00"
    }]
  },{
    "rbr": 9,
    "stranke": [
      {"naziv": "MEĐIMURSKI DEMOKRATSKI SAVEZ - MDS"}
    ],
    "jedinstvenaSifra": "067",
    "glasova": 120,
    "naziv": "MDS",
    "posto": "2,62",
    "lista": [{
      "rbr": 1,
      "naziv": "ŽELJKO PAVLIC",
      "glasova": 55,
      "posto": "45,83"
    },{
      "rbr": 2,
      "naziv": "MIRJANA KORUNIĆ",
      "glasova": 23,
      "posto": "19,16"
    },{
      "rbr": 3,
      "naziv": "MILJENKO ZELENBABA",
      "glasova": 15,
      "posto": "12,50"
    },{
      "rbr": 4,
      "naziv": "MARTINA CIMERMAN TELJEGA",
      "glasova": 8,
      "posto": "6,66"
    },{
      "rbr": 5,
      "naziv": "JOSIP BOŽIĆ",
      "glasova": 19,
      "posto": "15,83"
    },{
      "rbr": 6,
      "naziv": "ŽELJKA NOVAK",
      "glasova": 0,
      "posto": "0,00"
    },{
      "rbr": 7,
      "naziv": "ŽELJKO MEDLOBI",
      "glasova": 0,
      "posto": "0,00"
    },{
      "rbr": 8,
      "naziv": "NEDELJKA NOVAK",
      "glasova": 0,
      "posto": "0,00"
    },{
      "rbr": 9,
      "naziv": "DRAGUTIN ŠARIĆ",
      "glasova": 0,
      "posto": "0,00"
    },{
      "rbr": 10,
      "naziv": "VESNA PAVLIC",
      "glasova": 0,
      "posto": "0,00"
    },{
      "rbr": 11,
      "naziv": "BOŽIDAR KOS",
      "glasova": 0,
      "posto": "0,00"
    },{
      "rbr": 12,
      "naziv": "SUZANA PETEK",
      "glasova": 0,
      "posto": "0,00"
    },{
      "rbr": 13,
      "naziv": "IVAN CMREČNJAK",
      "glasova": 0,
      "posto": "0,00"
    },{
      "rbr": 14,
      "naziv": "RUŽICA DOBRANIĆ",
      "glasova": 0,
      "posto": "0,00"
    }]
  },{
    "rbr": 10,
    "stranke": [
      {"naziv": "HRVATSKA DEMOKRATSKA ZAJEDNICA - HDZ"},
      {"naziv": "HRVATSKA SOCIJALNO - LIBERALNA STRANKA - HSLS"},
      {"naziv": "HRVATSKA DEMOKRŠĆANSKA STRANKA - HDS"},
      {"naziv": "HRVATSKA NARODNA STRANKA - LIBERALNI DEMOKRATI - HNS"},
      {"naziv": "HRVATSKA STRANKA UMIROVLJENIKA - HSU"}
    ],
    "jedinstvenaSifra": "001002003011023",
    "glasova": 94,
    "naziv": "HDZ, HSLS, HDS, HNS, HSU",
    "posto": "2,05",
    "lista": [{
      "rbr": 1,
      "naziv": "ANĐELKO STRIČAK",
      "glasova": 3,
      "posto": "3,19"
    },{
      "rbr": 2,
      "naziv": "ZORAN GREGUROVIĆ",
      "glasova": 18,
      "posto": "19,14"
    },{
      "rbr": 3,
      "naziv": "LJUBOMIR KOLAREK",
      "glasova": 0,
      "posto": "0,00"
    },{
      "rbr": 4,
      "naziv": "PREDRAG ŠTROMAR",
      "glasova": 18,
      "posto": "19,14"
    },{
      "rbr": 5,
      "naziv": "DAMIR HABIJAN",
      "glasova": 12,
      "posto": "12,76"
    },{
      "rbr": 6,
      "naziv": "ŽARKO TUŠEK",
      "glasova": 7,
      "posto": "7,44"
    },{
      "rbr": 7,
      "naziv": "SANJA BOROVEC",
      "glasova": 16,
      "posto": "17,02"
    },{
      "rbr": 8,
      "naziv": "DRAŽEN SRPAK",
      "glasova": 5,
      "posto": "5,31"
    },{
      "rbr": 9,
      "naziv": "LJUBICA JEMBRIH",
      "glasova": 9,
      "posto": "9,57"
    },{
      "rbr": 10,
      "naziv": "SINIŠA JENKAČ",
      "glasova": 4,
      "posto": "4,25"
    },{
      "rbr": 11,
      "naziv": "ROBERT ŠPLAJT",
      "glasova": 2,
      "posto": "2,12"
    },{
      "rbr": 12,
      "naziv": "GORDANA RAMUŠĆAK",
      "glasova": 0,
      "posto": "0,00"
    },{
      "rbr": 13,
      "naziv": "ZDRAVKO TUŠEK",
      "glasova": 0,
      "posto": "0,00"
    },{
      "rbr": 14,
      "naziv": "GORAN KANIŠKI",
      "glasova": 0,
      "posto": "0,00"
    }]
  },{
    "rbr": 11,
    "stranke": [
      {"naziv": "MOŽEMO! - POLITIČKA PLATFORMA"},
      {"naziv": "HOĆEMO PRAVEDNO"}
    ],
    "jedinstvenaSifra": "255297",
    "glasova": 72,
    "naziv": "MOŽEMO! - POLITIČKA PLATFORMA, HOĆEMO PRAVEDNO",
    "posto": "1,57",
    "lista": [{
      "rbr": 1,
      "naziv": "LUKA KORLAET",
      "glasova": 23,
      "posto": "31,94"
    },{
      "rbr": 2,
      "naziv": "DUBRAVKA NOVAK",
      "glasova": 17,
      "posto": "23,61"
    },{
      "rbr": 3,
      "naziv": "DRAGICA TRUMBETAŠ",
      "glasova": 23,
      "posto": "31,94"
    },{
      "rbr": 4,
      "naziv": "DANIELA ŠIRINIĆ",
      "glasova": 0,
      "posto": "0,00"
    },{
      "rbr": 5,
      "naziv": "DOROTEA STRELEC",
      "glasova": 0,
      "posto": "0,00"
    },{
      "rbr": 6,
      "naziv": "RENATA SEVER",
      "glasova": 0,
      "posto": "0,00"
    },{
      "rbr": 7,
      "naziv": "MATIJA KRALJ ŠTEFANIĆ",
      "glasova": 2,
      "posto": "2,77"
    },{
      "rbr": 8,
      "naziv": "PETAR ELDAN",
      "glasova": 7,
      "posto": "9,72"
    },{
      "rbr": 9,
      "naziv": "ROMAN KARATUROVIĆ",
      "glasova": 0,
      "posto": "0,00"
    },{
      "rbr": 10,
      "naziv": "DAMIR KOVAČIĆ",
      "glasova": 0,
      "posto": "0,00"
    },{
      "rbr": 11,
      "naziv": "ZDRAVKO KRZNAR",
      "glasova": 0,
      "posto": "0,00"
    },{
      "rbr": 12,
      "naziv": "INES BANIČEK-VUK",
      "glasova": 0,
      "posto": "0,00"
    },{
      "rbr": 13,
      "naziv": "MARIJA HOLETIĆ",
      "glasova": 0,
      "posto": "0,00"
    },{
      "rbr": 14,
      "naziv": "MARINA PAVKOVIĆ",
      "glasova": 0,
      "posto": "0,00"
    }]
  },{
    "rbr": 12,
    "stranke": [
      {"naziv": "NEZAVISNA PLATFORMA SJEVERA - NPS"}
    ],
    "jedinstvenaSifra": "304",
    "glasova": 57,
    "naziv": "NPS",
    "posto": "1,24",
    "lista": [{
      "rbr": 1,
      "naziv": "MATIJA POSAVEC",
      "glasova": 30,
      "posto": "52,63"
    },{
      "rbr": 2,
      "naziv": "DUBRAVKO BILIĆ",
      "glasova": 16,
      "posto": "28,07"
    },{
      "rbr": 3,
      "naziv": "ROBERT GREBLIČKI",
      "glasova": 4,
      "posto": "7,01"
    },{
      "rbr": 4,
      "naziv": "LJERKA CIVIDINI",
      "glasova": 0,
      "posto": "0,00"
    },{
      "rbr": 5,
      "naziv": "MILORAD BATINIĆ",
      "glasova": 7,
      "posto": "12,28"
    },{
      "rbr": 6,
      "naziv": "IGOR ŠEGOVIĆ",
      "glasova": 0,
      "posto": "0,00"
    },{
      "rbr": 7,
      "naziv": "KSENIJA KRIVEC JURAK",
      "glasova": 0,
      "posto": "0,00"
    },{
      "rbr": 8,
      "naziv": "RAJKO SOLAR",
      "glasova": 0,
      "posto": "0,00"
    },{
      "rbr": 9,
      "naziv": "ĐURĐICA SLAMEK",
      "glasova": 0,
      "posto": "0,00"
    },{
      "rbr": 10,
      "naziv": "VELIMIR KUČKO",
      "glasova": 0,
      "posto": "0,00"
    },{
      "rbr": 11,
      "naziv": "ANICA NARANĐA",
      "glasova": 0,
      "posto": "0,00"
    },{
      "rbr": 12,
      "naziv": "BOJANA PETRIĆ",
      "glasova": 0,
      "posto": "0,00"
    },{
      "rbr": 13,
      "naziv": "MIRJANA MURK",
      "glasova": 0,
      "posto": "0,00"
    },{
      "rbr": 14,
      "naziv": "IVICA BAKSA",
      "glasova": 0,
      "posto": "0,00"
    }]
  },{
    "rbr": 13,
    "stranke": [
      {"naziv": "FOKUS"},
      {"naziv": "REPUBLIKA"}
    ],
    "jedinstvenaSifra": "270310",
    "glasova": 46,
    "naziv": "FOKUS, REPUBLIKA",
    "posto": "1,00",
    "lista": [{
      "rbr": 1,
      "naziv": "GORAN ALEKSIĆ",
      "glasova": 18,
      "posto": "39,13"
    },{
      "rbr": 2,
      "naziv": "DRAŽEN JELAVIĆ",
      "glasova": 0,
      "posto": "0,00"
    },{
      "rbr": 3,
      "naziv": "ADRIJANA CVRTILA",
      "glasova": 0,
      "posto": "0,00"
    },{
      "rbr": 4,
      "naziv": "DARKO ZVER",
      "glasova": 0,
      "posto": "0,00"
    },{
      "rbr": 5,
      "naziv": "LUKA KRALJEVIĆ",
      "glasova": 3,
      "posto": "6,52"
    },{
      "rbr": 6,
      "naziv": "IVANA JOKIĆ",
      "glasova": 5,
      "posto": "10,86"
    },{
      "rbr": 7,
      "naziv": "SLAVKO MEZDJIĆ",
      "glasova": 0,
      "posto": "0,00"
    },{
      "rbr": 8,
      "naziv": "MARE JERKOVIĆ",
      "glasova": 0,
      "posto": "0,00"
    },{
      "rbr": 9,
      "naziv": "NEVENKA PUH MALOGORSKI",
      "glasova": 12,
      "posto": "26,08"
    },{
      "rbr": 10,
      "naziv": "BARBARA VINCEKOVIĆ",
      "glasova": 8,
      "posto": "17,39"
    },{
      "rbr": 11,
      "naziv": "TOMISLAV PALJAK",
      "glasova": 0,
      "posto": "0,00"
    },{
      "rbr": 12,
      "naziv": "FILIP DELIĆ",
      "glasova": 0,
      "posto": "0,00"
    },{
      "rbr": 13,
      "naziv": "MIRELA GOJKOVIĆ NOVAK",
      "glasova": 0,
      "posto": "0,00"
    },{
      "rbr": 14,
      "naziv": "BISERKA VINCEKOVIĆ",
      "glasova": 0,
      "posto": "0,00"
    }]
  },{
    "rbr": 14,
    "stranke": [
      {"naziv": "AUTOHTONA - HRVATSKA STRANKA PRAVA - DRAŽEN KELEMINEC - A - HSP - Dražen Keleminec"}
    ],
    "jedinstvenaSifra": "049",
    "glasova": 8,
    "naziv": "A - HSP - Dražen Keleminec",
    "posto": "0,17",
    "lista": [{
      "rbr": 1,
      "naziv": "DRAGUTIN JAMBREČINA",
      "glasova": 0,
      "posto": "0,00"
    },{
      "rbr": 2,
      "naziv": "ŽELJKO ANTONČIĆ",
      "glasova": 0,
      "posto": "0,00"
    },{
      "rbr": 3,
      "naziv": "IVAN PAVUSA, rođ.1962.",
      "glasova": 8,
      "posto": "100,00"
    },{
      "rbr": 4,
      "naziv": "DAVID LEŠNJAK",
      "glasova": 0,
      "posto": "0,00"
    },{
      "rbr": 5,
      "naziv": "TIHOMIR KRIŽANIĆ",
      "glasova": 0,
      "posto": "0,00"
    },{
      "rbr": 6,
      "naziv": "BRANKICA LEDINŠČIĆ",
      "glasova": 0,
      "posto": "0,00"
    },{
      "rbr": 7,
      "naziv": "MARIJAN BLAGA",
      "glasova": 0,
      "posto": "0,00"
    },{
      "rbr": 8,
      "naziv": "STJEPAN PRAVICA",
      "glasova": 0,
      "posto": "0,00"
    },{
      "rbr": 9,
      "naziv": "FRANJO POBI",
      "glasova": 0,
      "posto": "0,00"
    },{
      "rbr": 10,
      "naziv": "VLADO BRUNEC",
      "glasova": 0,
      "posto": "0,00"
    },{
      "rbr": 11,
      "naziv": "DOMINIK ŠPOLJAR",
      "glasova": 0,
      "posto": "0,00"
    },{
      "rbr": 12,
      "naziv": "ANDRIJA KOLAR",
      "glasova": 0,
      "posto": "0,00"
    },{
      "rbr": 13,
      "naziv": "JOSIP KOČMAR",
      "glasova": 0,
      "posto": "0,00"
    },{
      "rbr": 14,
      "naziv": "IVAN PAVUSA, rođ.1957.",
      "glasova": 0,
      "posto": "0,00"
    }]
  },{
    "rbr": 15,
    "stranke": [
      {"naziv": "ODLUČNOST I PRAVEDNOST - OIP"}
    ],
    "jedinstvenaSifra": "300",
    "glasova": 0,
    "naziv": "OIP",
    "posto": "0,00",
    "lista": [{
      "rbr": 1,
      "naziv": "SINIŠA MARKULINČIĆ",
      "glasova": 0,
      "posto": "0,00"
    },{
      "rbr": 2,
      "naziv": "ELEONORA ERNOIĆ KRNJAK",
      "glasova": 0,
      "posto": "0,00"
    },{
      "rbr": 3,
      "naziv": "MILJENKO KNIEWALD",
      "glasova": 0,
      "posto": "0,00"
    },{
      "rbr": 4,
      "naziv": "IVAN BELEC",
      "glasova": 0,
      "posto": "0,00"
    },{
      "rbr": 5,
      "naziv": "MILJENKA STRJAČKI",
      "glasova": 0,
      "posto": "0,00"
    },{
      "rbr": 6,
      "naziv": "DARKO ČUČEK",
      "glasova": 0,
      "posto": "0,00"
    },{
      "rbr": 7,
      "naziv": "KARLO MIKIĆ",
      "glasova": 0,
      "posto": "0,00"
    },{
      "rbr": 8,
      "naziv": "MARO FRANUŠIĆ",
      "glasova": 0,
      "posto": "0,00"
    },{
      "rbr": 9,
      "naziv": "VLADO KESER",
      "glasova": 0,
      "posto": "0,00"
    },{
      "rbr": 10,
      "naziv": "ZDENKA PERIĆ",
      "glasova": 0,
      "posto": "0,00"
    },{
      "rbr": 11,
      "naziv": "MONIKA ČIŽMEK",
      "glasova": 0,
      "posto": "0,00"
    },{
      "rbr": 12,
      "naziv": "VESELJKO KRALJ",
      "glasova": 0,
      "posto": "0,00"
    },{
      "rbr": 13,
      "naziv": "NENAD KONDRES",
      "glasova": 0,
      "posto": "0,00"
    },{
      "rbr": 14,
      "naziv": "MARIO JEČMENJAK",
      "glasova": 0,
      "posto": "0,00"
    }]
  },{
    "rbr": 16,
    "stranke": [
      {"naziv": "DOMOVINSKI POKRET - DP"},
      {"naziv": "PRAVO I PRAVDA"},
      {"naziv": "DEMOKRATSKI HSS - DHSS"},
      {"naziv": "ZELENA LISTA"}
    ],
    "jedinstvenaSifra": "231267283312",
    "glasova": 0,
    "naziv": "DP, PRAVO I PRAVDA, DHSS, ZELENA LISTA",
    "posto": "0,00",
    "lista": [{
      "rbr": 1,
      "naziv": "DAVOR DRETAR",
      "glasova": 0,
      "posto": "0,00"
    },{
      "rbr": 2,
      "naziv": "IVANČICA PAHOR",
      "glasova": 0,
      "posto": "0,00"
    },{
      "rbr": 3,
      "naziv": "DAVOR RASPASOVIĆ",
      "glasova": 0,
      "posto": "0,00"
    },{
      "rbr": 4,
      "naziv": "DAVOR PEJNOVIĆ",
      "glasova": 0,
      "posto": "0,00"
    },{
      "rbr": 5,
      "naziv": "MARIJAN HOHNJEC",
      "glasova": 0,
      "posto": "0,00"
    },{
      "rbr": 6,
      "naziv": "MARIJAN TUPEK",
      "glasova": 0,
      "posto": "0,00"
    },{
      "rbr": 7,
      "naziv": "IVAN JAKLIN",
      "glasova": 0,
      "posto": "0,00"
    },{
      "rbr": 8,
      "naziv": "DRAGA KELER",
      "glasova": 0,
      "posto": "0,00"
    },{
      "rbr": 9,
      "naziv": "ROBERT ŽIŽANOVIĆ",
      "glasova": 0,
      "posto": "0,00"
    },{
      "rbr": 10,
      "naziv": "IVICA ŠANTEK",
      "glasova": 0,
      "posto": "0,00"
    },{
      "rbr": 11,
      "naziv": "NEVENKA LONČARIĆ JELAČIĆ",
      "glasova": 0,
      "posto": "0,00"
    },{
      "rbr": 12,
      "naziv": "MARIJA BIŠKUP",
      "glasova": 0,
      "posto": "0,00"
    },{
      "rbr": 13,
      "naziv": "EMICA POGLEDIĆ",
      "glasova": 0,
      "posto": "0,00"
    },{
      "rbr": 14,
      "naziv": "JOSIPA RODIĆ",
      "glasova": 0,
      "posto": "0,00"
    }]
  }]
}
