{
  "izbori": "Zastupnički izbori 2024",
  "datum": "15.04.2024.",
  "vrijeme": "15:15",
  "izboriOznaka": "02",
  "ijSifra": "007",
  "bmSifra": "000",
  "ijNaziv": "VII. IZBORNA JEDINICA",
  "gropNaziv": "",
  "bmNaziv": "",
  "bmZatvoreno": 707,
  "bmUkupno": 1122,
  "biraciUkupno": 200580,
  "biraciGlasovalo": 75096,
  "biraciGlasovaloPosto": "37,44",
  "listiciUkupno": 74970,
  "listiciVazeci": 73315,
  "listiciVazeciPosto": "97,79",
  "listiciNevazeci": 1655,
  "listiciNevazeciPosto": "2,21",
  "napomena": "* - objavljeni rezultati sadrže i podatke s posebnih biračkih mjesta te s biračkih mjesta u inozemstvu",
  "napomena2": "",
  "lista": [{
    "rbr": 1,
    "stranke": [
      {"naziv": "AKCIJA ZA PROMJENE"},
      {"naziv": "AGRARNA STRANKA - POKRET ZA HRVATSKU POLJOPRIVREDU"}
    ],
    "jedinstvenaSifra": "303305",
    "glasova": 26744,
    "naziv": "AKCIJA ZA PROMJENE, AGRARNA STRANKA - POKRET ZA HRVATSKU POLJOPRIVREDU",
    "posto": "36,47",
    "lista": [{
      "rbr": 1,
      "naziv": "NEBOJŠA ANDRIĆ",
      "glasova": 5418,
      "posto": "20,25"
    },{
      "rbr": 2,
      "naziv": "DAVOR SMUĐ",
      "glasova": 1808,
      "posto": "6,76"
    },{
      "rbr": 3,
      "naziv": "DANIJEL JURKAŠ",
      "glasova": 877,
      "posto": "3,27"
    },{
      "rbr": 4,
      "naziv": "ANDREA CULI",
      "glasova": 1509,
      "posto": "5,64"
    },{
      "rbr": 5,
      "naziv": "GORDANA LIPŠINIĆ",
      "glasova": 2117,
      "posto": "7,91"
    },{
      "rbr": 6,
      "naziv": "ŽELJKA VULETIĆ",
      "glasova": 2677,
      "posto": "10,00"
    },{
      "rbr": 7,
      "naziv": "DAMIR RADINOVIĆ",
      "glasova": 234,
      "posto": "0,87"
    },{
      "rbr": 8,
      "naziv": "ZLATKO MIHALJEVIĆ",
      "glasova": 597,
      "posto": "2,23"
    },{
      "rbr": 9,
      "naziv": "LAHORKA BOBETKO",
      "glasova": 5134,
      "posto": "19,19"
    },{
      "rbr": 10,
      "naziv": "GORDANA STJEPANOVIĆ",
      "glasova": 4846,
      "posto": "18,11"
    },{
      "rbr": 11,
      "naziv": "DAVID ANČIĆ",
      "glasova": 114,
      "posto": "0,42"
    },{
      "rbr": 12,
      "naziv": "IVANKA TURKALJ",
      "glasova": 204,
      "posto": "0,76"
    },{
      "rbr": 13,
      "naziv": "JOSIP TUMPAK",
      "glasova": 298,
      "posto": "1,11"
    },{
      "rbr": 14,
      "naziv": "GORAN ĐEKIĆ",
      "glasova": 531,
      "posto": "1,98"
    }]
  },{
    "rbr": 2,
    "stranke": [
      {"naziv": "AUTOHTONA - HRVATSKA STRANKA PRAVA - DRAŽEN KELEMINEC - A - HSP - Dražen Keleminec"}
    ],
    "jedinstvenaSifra": "049",
    "glasova": 11314,
    "naziv": "A - HSP - Dražen Keleminec",
    "posto": "15,43",
    "lista": [{
      "rbr": 1,
      "naziv": "DRAŽEN KELEMINEC",
      "glasova": 2483,
      "posto": "21,94"
    },{
      "rbr": 2,
      "naziv": "MATE DILBER",
      "glasova": 2186,
      "posto": "19,32"
    },{
      "rbr": 3,
      "naziv": "VANJA STERMOLE",
      "glasova": 2445,
      "posto": "21,61"
    },{
      "rbr": 4,
      "naziv": "TOMA ŠTEDUL",
      "glasova": 771,
      "posto": "6,81"
    },{
      "rbr": 5,
      "naziv": "HEIDI MILČIĆ",
      "glasova": 298,
      "posto": "2,63"
    },{
      "rbr": 6,
      "naziv": "VID ROŠČAK",
      "glasova": 571,
      "posto": "5,04"
    },{
      "rbr": 7,
      "naziv": "JASMINKA MAJIĆ",
      "glasova": 952,
      "posto": "8,41"
    },{
      "rbr": 8,
      "naziv": "ĐURO MARKUŠ",
      "glasova": 1202,
      "posto": "10,62"
    },{
      "rbr": 9,
      "naziv": "NENAD CEPAK",
      "glasova": 16,
      "posto": "0,14"
    },{
      "rbr": 10,
      "naziv": "MARIJAN GOLUBIĆ",
      "glasova": 127,
      "posto": "1,12"
    },{
      "rbr": 11,
      "naziv": "GORAN KUMPARE",
      "glasova": 218,
      "posto": "1,92"
    },{
      "rbr": 12,
      "naziv": "JASENKA STIPETIĆ FERENČABA",
      "glasova": 0,
      "posto": "0,00"
    },{
      "rbr": 13,
      "naziv": "ZDENKA RADIČIĆ",
      "glasova": 40,
      "posto": "0,35"
    },{
      "rbr": 14,
      "naziv": "ZVONKO MAJIĆ",
      "glasova": 5,
      "posto": "0,04"
    }]
  },{
    "rbr": 3,
    "stranke": [
      {"naziv": "UMIROVLJENICI ZAJEDNO - POLITIČKA PLATFORMA - UMIROVLJENICI ZAJEDNO"},
      {"naziv": "STRANKA UMIROVLJENIKA - SU"},
      {"naziv": "BLOK UMIROVLJENICI ZAJEDNO - BUZ"},
      {"naziv": "DEMOKRATSKA STRANKA UMIROVLJENIKA - DSU"}
    ],
    "jedinstvenaSifra": "039041102301",
    "glasova": 6614,
    "naziv": "UMIROVLJENICI ZAJEDNO, SU, BUZ, DSU",
    "posto": "9,02",
    "lista": [{
      "rbr": 1,
      "naziv": "VESNA HORVAT",
      "glasova": 1575,
      "posto": "23,81"
    },{
      "rbr": 2,
      "naziv": "MILIVOJ TIČARIĆ",
      "glasova": 1353,
      "posto": "20,45"
    },{
      "rbr": 3,
      "naziv": "BISERKA SCHMUCK",
      "glasova": 1517,
      "posto": "22,93"
    },{
      "rbr": 4,
      "naziv": "JOSIP MILINKOVIĆ",
      "glasova": 414,
      "posto": "6,25"
    },{
      "rbr": 5,
      "naziv": "VLADIMIR MARIJAN TUDJA",
      "glasova": 94,
      "posto": "1,42"
    },{
      "rbr": 6,
      "naziv": "MARIJA VRBANAC",
      "glasova": 281,
      "posto": "4,24"
    },{
      "rbr": 7,
      "naziv": "IVAN JELENČIĆ",
      "glasova": 560,
      "posto": "8,46"
    },{
      "rbr": 8,
      "naziv": "STJEPAN TOMEČAK",
      "glasova": 743,
      "posto": "11,23"
    },{
      "rbr": 9,
      "naziv": "KSENIJA DRAKULIĆ",
      "glasova": 1,
      "posto": "0,01"
    },{
      "rbr": 10,
      "naziv": "ILIJA KORDIĆ",
      "glasova": 19,
      "posto": "0,28"
    },{
      "rbr": 11,
      "naziv": "JELENA MANDIĆ",
      "glasova": 57,
      "posto": "0,86"
    },{
      "rbr": 12,
      "naziv": "ŽELJKO JEZDIĆ",
      "glasova": 0,
      "posto": "0,00"
    },{
      "rbr": 13,
      "naziv": "MARIJA ANDRIŠČAK",
      "glasova": 0,
      "posto": "0,00"
    },{
      "rbr": 14,
      "naziv": "SNJEŽANA DOZET",
      "glasova": 0,
      "posto": "0,00"
    }]
  },{
    "rbr": 4,
    "stranke": [
      {"naziv": "HRVATSKA STRANKA GRAĐANSKOG OTPORA - HSGO"}
    ],
    "jedinstvenaSifra": "247",
    "glasova": 6097,
    "naziv": "HSGO",
    "posto": "8,31",
    "lista": [{
      "rbr": 1,
      "naziv": "DRAŽEN KATIĆ",
      "glasova": 1471,
      "posto": "24,12"
    },{
      "rbr": 2,
      "naziv": "DEJAN VINČIĆ",
      "glasova": 1024,
      "posto": "16,79"
    },{
      "rbr": 3,
      "naziv": "MARIETTE DAMJANOVIĆ",
      "glasova": 718,
      "posto": "11,77"
    },{
      "rbr": 4,
      "naziv": "ANEL DŽAFEROVIĆ",
      "glasova": 547,
      "posto": "8,97"
    },{
      "rbr": 5,
      "naziv": "JADRANKO PODVRŠAN",
      "glasova": 886,
      "posto": "14,53"
    },{
      "rbr": 6,
      "naziv": "VERA POGELŠEK",
      "glasova": 411,
      "posto": "6,74"
    },{
      "rbr": 7,
      "naziv": "VALENTINA CVITKOVIĆ",
      "glasova": 295,
      "posto": "4,83"
    },{
      "rbr": 8,
      "naziv": "TOMISLAV VRBANIĆ",
      "glasova": 160,
      "posto": "2,62"
    },{
      "rbr": 9,
      "naziv": "ANITA KLADNIK",
      "glasova": 133,
      "posto": "2,18"
    },{
      "rbr": 10,
      "naziv": "KATARINA BEŠIĆ",
      "glasova": 169,
      "posto": "2,77"
    },{
      "rbr": 11,
      "naziv": "MARINA ŽLIČAR",
      "glasova": 56,
      "posto": "0,91"
    },{
      "rbr": 12,
      "naziv": "BISERKA HAAG",
      "glasova": 88,
      "posto": "1,44"
    },{
      "rbr": 13,
      "naziv": "MARIJAN URH",
      "glasova": 46,
      "posto": "0,75"
    },{
      "rbr": 14,
      "naziv": "SLAVKO MACENIĆ",
      "glasova": 37,
      "posto": "0,60"
    }]
  },{
    "rbr": 5,
    "stranke": [
      {"naziv": "STRANKA IVANA PERNARA"}
    ],
    "jedinstvenaSifra": "259",
    "glasova": 4001,
    "naziv": "STRANKA IVANA PERNARA",
    "posto": "5,45",
    "lista": [{
      "rbr": 1,
      "naziv": "GORDAN ŠEBALJ",
      "glasova": 1067,
      "posto": "26,66"
    },{
      "rbr": 2,
      "naziv": "FRANJO MIROSLAV PERKOVIĆ",
      "glasova": 864,
      "posto": "21,59"
    },{
      "rbr": 3,
      "naziv": "JOSIP ŽUČKO",
      "glasova": 987,
      "posto": "24,66"
    },{
      "rbr": 4,
      "naziv": "NATAŠA POGAČIĆ",
      "glasova": 198,
      "posto": "4,94"
    },{
      "rbr": 5,
      "naziv": "MIHAIL MARŠON",
      "glasova": 10,
      "posto": "0,24"
    },{
      "rbr": 6,
      "naziv": "TIHANA SVIBEN",
      "glasova": 114,
      "posto": "2,84"
    },{
      "rbr": 7,
      "naziv": "IVANA PERIĆ",
      "glasova": 299,
      "posto": "7,47"
    },{
      "rbr": 8,
      "naziv": "ANDREJ SAJKO",
      "glasova": 458,
      "posto": "11,44"
    },{
      "rbr": 9,
      "naziv": "SONJA PERKOVIĆ",
      "glasova": 0,
      "posto": "0,00"
    },{
      "rbr": 10,
      "naziv": "TOMISLAV MILINOVIĆ",
      "glasova": 1,
      "posto": "0,02"
    },{
      "rbr": 11,
      "naziv": "VIŠNJA ŠIMIĆ",
      "glasova": 3,
      "posto": "0,07"
    },{
      "rbr": 12,
      "naziv": "DALIBOR MEDVEDOVIĆ",
      "glasova": 0,
      "posto": "0,00"
    },{
      "rbr": 13,
      "naziv": "ZORAN RADMAN",
      "glasova": 0,
      "posto": "0,00"
    },{
      "rbr": 14,
      "naziv": "ANĐELA MARUSZKY",
      "glasova": 0,
      "posto": "0,00"
    }]
  },{
    "rbr": 6,
    "stranke": [
      {"naziv": "DOMOVINSKI POKRET - DP"},
      {"naziv": "PRAVO I PRAVDA"},
      {"naziv": "DEMOKRATSKI HSS - DHSS"},
      {"naziv": "ZELENA LISTA"}
    ],
    "jedinstvenaSifra": "231267283312",
    "glasova": 3201,
    "naziv": "DP, PRAVO I PRAVDA, DHSS, ZELENA LISTA",
    "posto": "4,36",
    "lista": [{
      "rbr": 1,
      "naziv": "JOSIP JURČEVIĆ",
      "glasova": 911,
      "posto": "28,45"
    },{
      "rbr": 2,
      "naziv": "DAMIR MARKUŠ",
      "glasova": 604,
      "posto": "18,86"
    },{
      "rbr": 3,
      "naziv": "ŽELJKO LENART",
      "glasova": 41,
      "posto": "1,28"
    },{
      "rbr": 4,
      "naziv": "ALENKO RIBIĆ",
      "glasova": 380,
      "posto": "11,87"
    },{
      "rbr": 5,
      "naziv": "VLATKO IVKA",
      "glasova": 310,
      "posto": "9,68"
    },{
      "rbr": 6,
      "naziv": "VIKTORIJA KALEB",
      "glasova": 213,
      "posto": "6,65"
    },{
      "rbr": 7,
      "naziv": "ROMANA MILAJČIĆ",
      "glasova": 496,
      "posto": "15,49"
    },{
      "rbr": 8,
      "naziv": "ZVONIMIR MRGAN",
      "glasova": 144,
      "posto": "4,49"
    },{
      "rbr": 9,
      "naziv": "SONJA BABIĆ",
      "glasova": 1,
      "posto": "0,03"
    },{
      "rbr": 10,
      "naziv": "ŠIME BUŠKULIĆ",
      "glasova": 88,
      "posto": "2,74"
    },{
      "rbr": 11,
      "naziv": "IVA KUČINIĆ RADOŠEVIĆ",
      "glasova": 13,
      "posto": "0,40"
    },{
      "rbr": 12,
      "naziv": "ANKICA ROSANDIĆ",
      "glasova": 0,
      "posto": "0,00"
    },{
      "rbr": 13,
      "naziv": "DUBRAVKA BIJELIĆ",
      "glasova": 0,
      "posto": "0,00"
    },{
      "rbr": 14,
      "naziv": "FILIP JARNEVIĆ",
      "glasova": 0,
      "posto": "0,00"
    }]
  },{
    "rbr": 7,
    "stranke": [
      {"naziv": "SOCIJALDEMOKRATSKA PARTIJA HRVATSKE - SDP"},
      {"naziv": "CENTAR"},
      {"naziv": "HRVATSKA SELJAČKA STRANKA - HSS"},
      {"naziv": "\"DALIJA OREŠKOVIĆ I LJUDI S IMENOM I PREZIMENOM\" - \"DO i SIP\""},
      {"naziv": "GRAĐANSKO-LIBERALNI SAVEZ - GLAS"}
    ],
    "jedinstvenaSifra": "004017179244306",
    "glasova": 3131,
    "naziv": "SDP, CENTAR, HSS, \"DO i SIP\", GLAS",
    "posto": "4,27",
    "lista": [{
      "rbr": 1,
      "naziv": "KRISTINA IKIĆ BANIČEK",
      "glasova": 881,
      "posto": "28,13"
    },{
      "rbr": 2,
      "naziv": "IVICA LUKANOVIĆ",
      "glasova": 649,
      "posto": "20,72"
    },{
      "rbr": 3,
      "naziv": "SANDRA KRPAN",
      "glasova": 380,
      "posto": "12,13"
    },{
      "rbr": 4,
      "naziv": "DALIBOR DOMITROVIĆ",
      "glasova": 244,
      "posto": "7,79"
    },{
      "rbr": 5,
      "naziv": "BRANKA BAKŠIĆ-MITIĆ",
      "glasova": 522,
      "posto": "16,67"
    },{
      "rbr": 6,
      "naziv": "MIRELA MIKIĆ MUHA",
      "glasova": 178,
      "posto": "5,68"
    },{
      "rbr": 7,
      "naziv": "ZDENKO MOČNIK",
      "glasova": 148,
      "posto": "4,72"
    },{
      "rbr": 8,
      "naziv": "MATEJ MOSTARAC",
      "glasova": 2,
      "posto": "0,06"
    },{
      "rbr": 9,
      "naziv": "DRAGICA MALOVIĆ",
      "glasova": 1,
      "posto": "0,03"
    },{
      "rbr": 10,
      "naziv": "TONI ŠTIMAC",
      "glasova": 51,
      "posto": "1,62"
    },{
      "rbr": 11,
      "naziv": "KREŠIMIR ČULINOVIĆ",
      "glasova": 0,
      "posto": "0,00"
    },{
      "rbr": 12,
      "naziv": "JASMINKA MOLNAR",
      "glasova": 30,
      "posto": "0,95"
    },{
      "rbr": 13,
      "naziv": "TONI HERENDA",
      "glasova": 45,
      "posto": "1,43"
    },{
      "rbr": 14,
      "naziv": "VOJKO OBERSNEL",
      "glasova": 0,
      "posto": "0,00"
    }]
  },{
    "rbr": 8,
    "stranke": [
      {"naziv": "MOŽEMO! - POLITIČKA PLATFORMA"},
      {"naziv": "HOĆEMO PRAVEDNO"}
    ],
    "jedinstvenaSifra": "255297",
    "glasova": 2604,
    "naziv": "MOŽEMO! - POLITIČKA PLATFORMA, HOĆEMO PRAVEDNO",
    "posto": "3,55",
    "lista": [{
      "rbr": 1,
      "naziv": "DRAŽENKA POLOVIĆ",
      "glasova": 764,
      "posto": "29,33"
    },{
      "rbr": 2,
      "naziv": "IVA IVŠIĆ",
      "glasova": 573,
      "posto": "22,00"
    },{
      "rbr": 3,
      "naziv": "DOBRIŠA ADAMEC",
      "glasova": 687,
      "posto": "26,38"
    },{
      "rbr": 4,
      "naziv": "ORJEN PETKOVIĆ",
      "glasova": 101,
      "posto": "3,87"
    },{
      "rbr": 5,
      "naziv": "ANA ALAPIĆ",
      "glasova": 1,
      "posto": "0,03"
    },{
      "rbr": 6,
      "naziv": "DIMITRIJE BIRAČ",
      "glasova": 37,
      "posto": "1,42"
    },{
      "rbr": 7,
      "naziv": "VLASTA LENDLER-ADAMEC",
      "glasova": 161,
      "posto": "6,18"
    },{
      "rbr": 8,
      "naziv": "DUBRAVKO GOLUBIĆ",
      "glasova": 280,
      "posto": "10,75"
    },{
      "rbr": 9,
      "naziv": "VLATKA KRIZMANIĆ",
      "glasova": 0,
      "posto": "0,00"
    },{
      "rbr": 10,
      "naziv": "SANDA ĆAKIĆ",
      "glasova": 0,
      "posto": "0,00"
    },{
      "rbr": 11,
      "naziv": "ZLATKO DOMLJAN",
      "glasova": 0,
      "posto": "0,00"
    },{
      "rbr": 12,
      "naziv": "NEVENKA SUDAC-VINSKI",
      "glasova": 0,
      "posto": "0,00"
    },{
      "rbr": 13,
      "naziv": "SNJEŽANA DRVODELIĆ",
      "glasova": 0,
      "posto": "0,00"
    },{
      "rbr": 14,
      "naziv": "ANA MATAN",
      "glasova": 0,
      "posto": "0,00"
    }]
  },{
    "rbr": 9,
    "stranke": [
      {"naziv": "HRVATSKA STRANKA PRAVA - HSP"},
      {"naziv": "HRVATSKO BILO"},
      {"naziv": "HRVATSKA DEMOKRATSKA SELJAČKA STRANKA - HDSS"}
    ],
    "jedinstvenaSifra": "007018308",
    "glasova": 2150,
    "naziv": "HSP, HRVATSKO BILO, HDSS",
    "posto": "2,93",
    "lista": [{
      "rbr": 1,
      "naziv": "ANTE PRKAČIN",
      "glasova": 693,
      "posto": "32,23"
    },{
      "rbr": 2,
      "naziv": "NIKICA AUGUSTINOVIĆ",
      "glasova": 445,
      "posto": "20,69"
    },{
      "rbr": 3,
      "naziv": "ŽELJKO BELANEK",
      "glasova": 240,
      "posto": "11,16"
    },{
      "rbr": 4,
      "naziv": "MARIA ĆAĆIĆ",
      "glasova": 181,
      "posto": "8,41"
    },{
      "rbr": 5,
      "naziv": "GORAN MARKOVAC",
      "glasova": 343,
      "posto": "15,95"
    },{
      "rbr": 6,
      "naziv": "MARIO VRSELJA",
      "glasova": 119,
      "posto": "5,53"
    },{
      "rbr": 7,
      "naziv": "DAMIR PUČAK",
      "glasova": 88,
      "posto": "4,09"
    },{
      "rbr": 8,
      "naziv": "RENATA ČAČIĆ",
      "glasova": 7,
      "posto": "0,32"
    },{
      "rbr": 9,
      "naziv": "ANTONIA LOVREKOVIĆ",
      "glasova": 0,
      "posto": "0,00"
    },{
      "rbr": 10,
      "naziv": "ĐURĐICA JURIĆ",
      "glasova": 21,
      "posto": "0,97"
    },{
      "rbr": 11,
      "naziv": "LEONI GLAD",
      "glasova": 0,
      "posto": "0,00"
    },{
      "rbr": 12,
      "naziv": "JOSIP ŽARAK",
      "glasova": 13,
      "posto": "0,60"
    },{
      "rbr": 13,
      "naziv": "DIJANA LIPOVAC",
      "glasova": 0,
      "posto": "0,00"
    },{
      "rbr": 14,
      "naziv": "IVAN PIŠKOR",
      "glasova": 0,
      "posto": "0,00"
    }]
  },{
    "rbr": 10,
    "stranke": [
      {"naziv": "MOST"},
      {"naziv": "HRVATSKI SUVERENISTI"},
      {"naziv": "HRVATSKA KONZERVATIVNA STRANKA - HKS"},
      {"naziv": "NEZAVISNA LISTA MLADIH - NLM"}
    ],
    "jedinstvenaSifra": "131165188263",
    "glasova": 2034,
    "naziv": "MOST, HRVATSKI SUVERENISTI, HKS, NLM",
    "posto": "2,77",
    "lista": [{
      "rbr": 1,
      "naziv": "ZVONIMIR TROSKOT",
      "glasova": 658,
      "posto": "32,35"
    },{
      "rbr": 2,
      "naziv": "LUCA GAŠPAR ŠAKO",
      "glasova": 444,
      "posto": "21,82"
    },{
      "rbr": 3,
      "naziv": "ŠIME GLIGORA",
      "glasova": 523,
      "posto": "25,71"
    },{
      "rbr": 4,
      "naziv": "ANAMARIJA JURKOVIĆ",
      "glasova": 58,
      "posto": "2,85"
    },{
      "rbr": 5,
      "naziv": "FRANO ČIRKO",
      "glasova": 0,
      "posto": "0,00"
    },{
      "rbr": 6,
      "naziv": "HRVOJE BEZJAK",
      "glasova": 20,
      "posto": "0,98"
    },{
      "rbr": 7,
      "naziv": "NEVIO KLARIĆ",
      "glasova": 124,
      "posto": "6,09"
    },{
      "rbr": 8,
      "naziv": "ROBERT GROZA",
      "glasova": 207,
      "posto": "10,17"
    },{
      "rbr": 9,
      "naziv": "LJILJANA LAMPERT",
      "glasova": 0,
      "posto": "0,00"
    },{
      "rbr": 10,
      "naziv": "TANJA ŠIMANIĆ",
      "glasova": 0,
      "posto": "0,00"
    },{
      "rbr": 11,
      "naziv": "RAFAELA SURINA",
      "glasova": 0,
      "posto": "0,00"
    },{
      "rbr": 12,
      "naziv": "GORDANA BREZINŠĆAK ĐOZO",
      "glasova": 0,
      "posto": "0,00"
    },{
      "rbr": 13,
      "naziv": "IVAN BULAJA",
      "glasova": 0,
      "posto": "0,00"
    },{
      "rbr": 14,
      "naziv": "FRANE VUČETIĆ",
      "glasova": 0,
      "posto": "0,00"
    }]
  },{
    "rbr": 11,
    "stranke": [
      {"naziv": "ODLUČNOST I PRAVEDNOST - OIP"}
    ],
    "jedinstvenaSifra": "300",
    "glasova": 1661,
    "naziv": "OIP",
    "posto": "2,26",
    "lista": [{
      "rbr": 1,
      "naziv": "ROBERT KRPES",
      "glasova": 440,
      "posto": "26,49"
    },{
      "rbr": 2,
      "naziv": "ANA KRIVAK",
      "glasova": 269,
      "posto": "16,19"
    },{
      "rbr": 3,
      "naziv": "ZVONKO TOMLJENOVIĆ",
      "glasova": 86,
      "posto": "5,17"
    },{
      "rbr": 4,
      "naziv": "DANIJEL OPRAUŠ",
      "glasova": 2,
      "posto": "0,12"
    },{
      "rbr": 5,
      "naziv": "TOMISLAV BOŽIČEVIĆ",
      "glasova": 169,
      "posto": "10,17"
    },{
      "rbr": 6,
      "naziv": "IVAN JAKUBEK",
      "glasova": 0,
      "posto": "0,00"
    },{
      "rbr": 7,
      "naziv": "KRISTIJAN ŠANDOR",
      "glasova": 0,
      "posto": "0,00"
    },{
      "rbr": 8,
      "naziv": "VEDRAN ČANIĆ",
      "glasova": 0,
      "posto": "0,00"
    },{
      "rbr": 9,
      "naziv": "DALIBOR DOKMANIĆ",
      "glasova": 0,
      "posto": "0,00"
    },{
      "rbr": 10,
      "naziv": "IVAN MATAK",
      "glasova": 0,
      "posto": "0,00"
    },{
      "rbr": 11,
      "naziv": "MARIO MARINCEL",
      "glasova": 0,
      "posto": "0,00"
    },{
      "rbr": 12,
      "naziv": "JOSO PERKOVIĆ",
      "glasova": 0,
      "posto": "0,00"
    },{
      "rbr": 13,
      "naziv": "BORIS MORO",
      "glasova": 0,
      "posto": "0,00"
    },{
      "rbr": 14,
      "naziv": "IVANA FRANUL",
      "glasova": 695,
      "posto": "41,84"
    }]
  },{
    "rbr": 12,
    "stranke": [
      {"naziv": "RADNIČKA FRONTA - RF"}
    ],
    "jedinstvenaSifra": "168",
    "glasova": 1174,
    "naziv": "RF",
    "posto": "1,60",
    "lista": [{
      "rbr": 1,
      "naziv": "ANTON GLASNOVIĆ",
      "glasova": 461,
      "posto": "39,26"
    },{
      "rbr": 2,
      "naziv": "SANDRA KASUNIĆ",
      "glasova": 265,
      "posto": "22,57"
    },{
      "rbr": 3,
      "naziv": "ANDREJ GEORGIEVSKI",
      "glasova": 130,
      "posto": "11,07"
    },{
      "rbr": 4,
      "naziv": "RUŽICA KARTELO",
      "glasova": 88,
      "posto": "7,49"
    },{
      "rbr": 5,
      "naziv": "VELIBOR VALENTA",
      "glasova": 173,
      "posto": "14,73"
    },{
      "rbr": 6,
      "naziv": "KSENIJA BATALO",
      "glasova": 37,
      "posto": "3,15"
    },{
      "rbr": 7,
      "naziv": "NIKOLA GVOJIĆ",
      "glasova": 20,
      "posto": "1,70"
    },{
      "rbr": 8,
      "naziv": "JASMINKA BUIĆ",
      "glasova": 0,
      "posto": "0,00"
    },{
      "rbr": 9,
      "naziv": "MLADEN BRAJAK",
      "glasova": 0,
      "posto": "0,00"
    },{
      "rbr": 10,
      "naziv": "ANITA BUHIN",
      "glasova": 0,
      "posto": "0,00"
    },{
      "rbr": 11,
      "naziv": "JOSIP IVANČIĆ",
      "glasova": 0,
      "posto": "0,00"
    },{
      "rbr": 12,
      "naziv": "MARIO ZAJIČEK",
      "glasova": 0,
      "posto": "0,00"
    },{
      "rbr": 13,
      "naziv": "IVICA ŠUSTIĆ",
      "glasova": 0,
      "posto": "0,00"
    },{
      "rbr": 14,
      "naziv": "MIRTA MATAIJA",
      "glasova": 0,
      "posto": "0,00"
    }]
  },{
    "rbr": 13,
    "stranke": [
      {"naziv": "NARODNA STRANKA - REFORMISTI - REFORMISTI"},
      {"naziv": "PRIMORSKO GORANSKI SAVEZ - PGS"},
      {"naziv": "ISTARSKI DEMOKRATSKI SABOR - IDS"},
      {"naziv": "UNIJA KVARNERA - UNIJA"},
      {"naziv": "STRANKA HRVATSKIH UMIROVLJENIKA - UMIROVLJENICI - UMIROVLJENICI"}
    ],
    "jedinstvenaSifra": "005006162178241",
    "glasova": 1060,
    "naziv": "REFORMISTI, PGS, IDS, UNIJA, UMIROVLJENICI",
    "posto": "1,44",
    "lista": [{
      "rbr": 1,
      "naziv": "ALENKA KOŠIŠA ČIČIN-ŠAIN",
      "glasova": 426,
      "posto": "40,18"
    },{
      "rbr": 2,
      "naziv": "SNJEŽANA PODOBNIK",
      "glasova": 212,
      "posto": "20,00"
    },{
      "rbr": 3,
      "naziv": "MIRELLA MLADIN",
      "glasova": 273,
      "posto": "25,75"
    },{
      "rbr": 4,
      "naziv": "MARKO SOBOTINČIĆ",
      "glasova": 6,
      "posto": "0,56"
    },{
      "rbr": 5,
      "naziv": "ZINKA BRATUŠA",
      "glasova": 2,
      "posto": "0,18"
    },{
      "rbr": 6,
      "naziv": "DUŠAN ŠTEMBERGER",
      "glasova": 5,
      "posto": "0,47"
    },{
      "rbr": 7,
      "naziv": "ŽELJKO BEDEKOVIĆ",
      "glasova": 40,
      "posto": "3,77"
    },{
      "rbr": 8,
      "naziv": "NATAŠA BLAŽEVIĆ STARČEVIĆ",
      "glasova": 95,
      "posto": "8,96"
    },{
      "rbr": 9,
      "naziv": "MARIJAN ŠTEFANKO",
      "glasova": 0,
      "posto": "0,00"
    },{
      "rbr": 10,
      "naziv": "DAVID MAROT",
      "glasova": 0,
      "posto": "0,00"
    },{
      "rbr": 11,
      "naziv": "INGRID KRŠULJA",
      "glasova": 1,
      "posto": "0,09"
    },{
      "rbr": 12,
      "naziv": "SANDRO VIZLER",
      "glasova": 0,
      "posto": "0,00"
    },{
      "rbr": 13,
      "naziv": "IVANA TRTANJ",
      "glasova": 0,
      "posto": "0,00"
    },{
      "rbr": 14,
      "naziv": "NEDJELJKO PINEZIĆ",
      "glasova": 0,
      "posto": "0,00"
    }]
  },{
    "rbr": 14,
    "stranke": [
      {"naziv": "FOKUS"},
      {"naziv": "REPUBLIKA"}
    ],
    "jedinstvenaSifra": "270310",
    "glasova": 601,
    "naziv": "FOKUS, REPUBLIKA",
    "posto": "0,81",
    "lista": [{
      "rbr": 1,
      "naziv": "IVAN JANKOVIĆ",
      "glasova": 291,
      "posto": "48,41"
    },{
      "rbr": 2,
      "naziv": "GORAN BUKOVAC",
      "glasova": 0,
      "posto": "0,00"
    },{
      "rbr": 3,
      "naziv": "HRVOJE JURKOVIĆ",
      "glasova": 0,
      "posto": "0,00"
    },{
      "rbr": 4,
      "naziv": "KREŠIMIR KUTEROVAC",
      "glasova": 0,
      "posto": "0,00"
    },{
      "rbr": 5,
      "naziv": "VIKTORIJA ROGIĆ",
      "glasova": 16,
      "posto": "2,66"
    },{
      "rbr": 6,
      "naziv": "SABRINA PEJIĆ",
      "glasova": 42,
      "posto": "6,98"
    },{
      "rbr": 7,
      "naziv": "MAJA LINIĆ",
      "glasova": 0,
      "posto": "0,00"
    },{
      "rbr": 8,
      "naziv": "ARIJANA MRZLJAK",
      "glasova": 0,
      "posto": "0,00"
    },{
      "rbr": 9,
      "naziv": "DAVORKA ŠUŠNJIĆ",
      "glasova": 162,
      "posto": "26,95"
    },{
      "rbr": 10,
      "naziv": "ZVONIMIR CRNOGORAC",
      "glasova": 90,
      "posto": "14,97"
    },{
      "rbr": 11,
      "naziv": "GRETA BURŠIĆ",
      "glasova": 0,
      "posto": "0,00"
    },{
      "rbr": 12,
      "naziv": "MARKO LESKOVAR",
      "glasova": 0,
      "posto": "0,00"
    },{
      "rbr": 13,
      "naziv": "IRENA PEJAKOVIĆ",
      "glasova": 0,
      "posto": "0,00"
    },{
      "rbr": 14,
      "naziv": "DANIJEL TUŠAK",
      "glasova": 0,
      "posto": "0,00"
    }]
  },{
    "rbr": 15,
    "stranke": [
      {"naziv": "SOCIJALDEMOKRATI"},
      {"naziv": "HRVATSKI LABURISTI - STRANKA RADA - LABURISTI"},
      {"naziv": "DEMOKRATI"}
    ],
    "jedinstvenaSifra": "100251299",
    "glasova": 472,
    "naziv": "SOCIJALDEMOKRATI, LABURISTI, DEMOKRATI",
    "posto": "0,64",
    "lista": [{
      "rbr": 1,
      "naziv": "NATAŠA NOVAKOVIĆ",
      "glasova": 255,
      "posto": "54,02"
    },{
      "rbr": 2,
      "naziv": "DAVID BREGOVAC",
      "glasova": 132,
      "posto": "27,96"
    },{
      "rbr": 3,
      "naziv": "TOMISLAV ZRINSKI",
      "glasova": 22,
      "posto": "4,66"
    },{
      "rbr": 4,
      "naziv": "KATARINA PLEŠA JAKOVLJEVIĆ",
      "glasova": 4,
      "posto": "0,84"
    },{
      "rbr": 5,
      "naziv": "DALIBOR ŽILJAK",
      "glasova": 56,
      "posto": "11,86"
    },{
      "rbr": 6,
      "naziv": "TIHANA POCHOBRADSKY",
      "glasova": 2,
      "posto": "0,42"
    },{
      "rbr": 7,
      "naziv": "MOMIR RAJŠIĆ",
      "glasova": 1,
      "posto": "0,21"
    },{
      "rbr": 8,
      "naziv": "TANJA JOVIĆ",
      "glasova": 0,
      "posto": "0,00"
    },{
      "rbr": 9,
      "naziv": "LUKA PAVLOVIĆ",
      "glasova": 0,
      "posto": "0,00"
    },{
      "rbr": 10,
      "naziv": "JURICA KLARIĆ",
      "glasova": 0,
      "posto": "0,00"
    },{
      "rbr": 11,
      "naziv": "KRISTINA KOSTADINOVSKA",
      "glasova": 0,
      "posto": "0,00"
    },{
      "rbr": 12,
      "naziv": "TAMARA VIDAČEK",
      "glasova": 0,
      "posto": "0,00"
    },{
      "rbr": 13,
      "naziv": "BOŽIDAR RAUCH",
      "glasova": 0,
      "posto": "0,00"
    },{
      "rbr": 14,
      "naziv": "BRANKO KUKURIN",
      "glasova": 0,
      "posto": "0,00"
    }]
  },{
    "rbr": 16,
    "stranke": [
      {"naziv": "HRVATSKA DEMOKRATSKA ZAJEDNICA - HDZ"},
      {"naziv": "HRVATSKA SOCIJALNO - LIBERALNA STRANKA - HSLS"},
      {"naziv": "HRVATSKA DEMOKRŠĆANSKA STRANKA - HDS"},
      {"naziv": "HRVATSKA NARODNA STRANKA - LIBERALNI DEMOKRATI - HNS"},
      {"naziv": "HRVATSKA STRANKA UMIROVLJENIKA - HSU"}
    ],
    "jedinstvenaSifra": "001002003011023",
    "glasova": 457,
    "naziv": "HDZ, HSLS, HDS, HNS, HSU",
    "posto": "0,62",
    "lista": [{
      "rbr": 1,
      "naziv": "TOMO MEDVED",
      "glasova": 253,
      "posto": "55,36"
    },{
      "rbr": 2,
      "naziv": "IVAN CELJAK",
      "glasova": 129,
      "posto": "28,22"
    },{
      "rbr": 3,
      "naziv": "MARTINA FURDEK-HAJDIN",
      "glasova": 20,
      "posto": "4,37"
    },{
      "rbr": 4,
      "naziv": "MARIJANA PETIR",
      "glasova": 2,
      "posto": "0,43"
    },{
      "rbr": 5,
      "naziv": "ERNEST PETRY",
      "glasova": 53,
      "posto": "11,59"
    },{
      "rbr": 6,
      "naziv": "VESELKO GABRIČEVIĆ",
      "glasova": 0,
      "posto": "0,00"
    },{
      "rbr": 7,
      "naziv": "NIKOLINA BRNJAC",
      "glasova": 0,
      "posto": "0,00"
    },{
      "rbr": 8,
      "naziv": "MAJDA BURIĆ",
      "glasova": 0,
      "posto": "0,00"
    },{
      "rbr": 9,
      "naziv": "RADE ŠIMIČEVIĆ",
      "glasova": 0,
      "posto": "0,00"
    },{
      "rbr": 10,
      "naziv": "MAGDALENA KOMES",
      "glasova": 0,
      "posto": "0,00"
    },{
      "rbr": 11,
      "naziv": "DAMIR MANDIĆ",
      "glasova": 0,
      "posto": "0,00"
    },{
      "rbr": 12,
      "naziv": "ANĐELKA SALOPEK",
      "glasova": 0,
      "posto": "0,00"
    },{
      "rbr": 13,
      "naziv": "SANJA MIOKOVIĆ",
      "glasova": 0,
      "posto": "0,00"
    },{
      "rbr": 14,
      "naziv": "IVAN DABO",
      "glasova": 0,
      "posto": "0,00"
    }]
  }]
}
