{
  "izbori": "Zastupnički izbori 2024",
  "datum": "15.04.2024.",
  "vrijeme": "15:15",
  "izboriOznaka": "02",
  "ijSifra": "009",
  "bmSifra": "000",
  "ijNaziv": "IX. IZBORNA JEDINICA",
  "gropNaziv": "TRILJ",
  "bmNaziv": "",
  "bmZatvoreno": 17,
  "bmUkupno": 22,
  "biraciUkupno": 6671,
  "biraciGlasovalo": 2609,
  "biraciGlasovaloPosto": "39,11",
  "listiciUkupno": 2606,
  "listiciVazeci": 2549,
  "listiciVazeciPosto": "97,81",
  "listiciNevazeci": 57,
  "listiciNevazeciPosto": "2,19",
  "napomena": "* - objavljeni rezultati sadrže podatke samo s redovnih biračkih mjesta",
  "napomena2": "",
  "lista": [{
    "rbr": 1,
    "stranke": [
      {"naziv": "RIČARD NEZAVISNI"}
    ],
    "jedinstvenaSifra": "313",
    "glasova": 902,
    "naziv": "RIČARD NEZAVISNI",
    "posto": "35,38",
    "lista": [{
      "rbr": 1,
      "naziv": "MARIN PIJACA",
      "glasova": 181,
      "posto": "20,06"
    },{
      "rbr": 2,
      "naziv": "DRITA DUNATOV",
      "glasova": 162,
      "posto": "17,96"
    },{
      "rbr": 3,
      "naziv": "RINO RADOS",
      "glasova": 181,
      "posto": "20,06"
    },{
      "rbr": 4,
      "naziv": "ANADIA KOŽUL",
      "glasova": 59,
      "posto": "6,54"
    },{
      "rbr": 5,
      "naziv": "ŽELJKO KRIZMAN",
      "glasova": 28,
      "posto": "3,10"
    },{
      "rbr": 6,
      "naziv": "ADELA FRANK",
      "glasova": 47,
      "posto": "5,21"
    },{
      "rbr": 7,
      "naziv": "VITO DOVRANIĆ",
      "glasova": 71,
      "posto": "7,87"
    },{
      "rbr": 8,
      "naziv": "LUCIA MATEŠIĆ",
      "glasova": 87,
      "posto": "9,64"
    },{
      "rbr": 9,
      "naziv": "MARKO ŽORŽ",
      "glasova": 6,
      "posto": "0,66"
    },{
      "rbr": 10,
      "naziv": "ANTONIA MEŠTROVIĆ",
      "glasova": 16,
      "posto": "1,77"
    },{
      "rbr": 11,
      "naziv": "IVAN JURKOVIĆ",
      "glasova": 26,
      "posto": "2,88"
    },{
      "rbr": 12,
      "naziv": "BRANKICA MATULJ",
      "glasova": 4,
      "posto": "0,44"
    },{
      "rbr": 13,
      "naziv": "SRĐAN ČUKLIN",
      "glasova": 11,
      "posto": "1,21"
    },{
      "rbr": 14,
      "naziv": "DAVOR OLIĆ",
      "glasova": 9,
      "posto": "0,99"
    }]
  },{
    "rbr": 2,
    "stranke": [
      {"naziv": "AKCIJA ZA PROMJENE"},
      {"naziv": "AGRARNA STRANKA - POKRET ZA HRVATSKU POLJOPRIVREDU"}
    ],
    "jedinstvenaSifra": "303305",
    "glasova": 606,
    "naziv": "AKCIJA ZA PROMJENE, AGRARNA STRANKA - POKRET ZA HRVATSKU POLJOPRIVREDU",
    "posto": "23,77",
    "lista": [{
      "rbr": 1,
      "naziv": "MARKO JELIĆ",
      "glasova": 125,
      "posto": "20,62"
    },{
      "rbr": 2,
      "naziv": "IVICA ŽUVELA",
      "glasova": 42,
      "posto": "6,93"
    },{
      "rbr": 3,
      "naziv": "MARKO GRUBELIĆ",
      "glasova": 20,
      "posto": "3,30"
    },{
      "rbr": 4,
      "naziv": "KRISTINA PERIĆ",
      "glasova": 35,
      "posto": "5,77"
    },{
      "rbr": 5,
      "naziv": "BRUNO MIŠLOV",
      "glasova": 47,
      "posto": "7,75"
    },{
      "rbr": 6,
      "naziv": "SNJEŽANA JOLIĆ",
      "glasova": 60,
      "posto": "9,90"
    },{
      "rbr": 7,
      "naziv": "SANJA RADIN-MAČUKAT",
      "glasova": 5,
      "posto": "0,82"
    },{
      "rbr": 8,
      "naziv": "JASMINKA TOMIĆ",
      "glasova": 15,
      "posto": "2,47"
    },{
      "rbr": 9,
      "naziv": "SANJA LULIĆ",
      "glasova": 117,
      "posto": "19,30"
    },{
      "rbr": 10,
      "naziv": "JELENA KAIĆ",
      "glasova": 112,
      "posto": "18,48"
    },{
      "rbr": 11,
      "naziv": "ANTE ŠEPAROVIĆ",
      "glasova": 1,
      "posto": "0,16"
    },{
      "rbr": 12,
      "naziv": "LIDIJA SLAVIĆ",
      "glasova": 4,
      "posto": "0,66"
    },{
      "rbr": 13,
      "naziv": "ZLATKO ĆESIĆ",
      "glasova": 6,
      "posto": "0,99"
    },{
      "rbr": 14,
      "naziv": "GORAN MLADENOVIĆ",
      "glasova": 12,
      "posto": "1,98"
    }]
  },{
    "rbr": 3,
    "stranke": [
      {"naziv": "JAVNO DOBRO"}
    ],
    "jedinstvenaSifra": "309",
    "glasova": 266,
    "naziv": "JAVNO DOBRO",
    "posto": "10,43",
    "lista": [{
      "rbr": 1,
      "naziv": "MARJANA BOTIĆ",
      "glasova": 58,
      "posto": "21,80"
    },{
      "rbr": 2,
      "naziv": "IVAN TEŠIJA",
      "glasova": 51,
      "posto": "19,17"
    },{
      "rbr": 3,
      "naziv": "ŽELJAN JURLIN",
      "glasova": 58,
      "posto": "21,80"
    },{
      "rbr": 4,
      "naziv": "MIRTA TOMAS",
      "glasova": 18,
      "posto": "6,76"
    },{
      "rbr": 5,
      "naziv": "ZRINKA MATKOVIĆ VICULIN",
      "glasova": 7,
      "posto": "2,63"
    },{
      "rbr": 6,
      "naziv": "VJERAN DUVNJAK",
      "glasova": 13,
      "posto": "4,88"
    },{
      "rbr": 7,
      "naziv": "ROBERTO JENJIĆ",
      "glasova": 23,
      "posto": "8,64"
    },{
      "rbr": 8,
      "naziv": "TATJANA PAUN",
      "glasova": 30,
      "posto": "11,27"
    },{
      "rbr": 9,
      "naziv": "NINA VELČIĆ BUSANIĆ",
      "glasova": 0,
      "posto": "0,00"
    },{
      "rbr": 10,
      "naziv": "MARIO ŽIVKOVIĆ",
      "glasova": 2,
      "posto": "0,75"
    },{
      "rbr": 11,
      "naziv": "TEA KURTIĆ",
      "glasova": 4,
      "posto": "1,50"
    },{
      "rbr": 12,
      "naziv": "SLAVEN ŠIMIĆ",
      "glasova": 0,
      "posto": "0,00"
    },{
      "rbr": 13,
      "naziv": "LADISLAV RADOSLOVIĆ",
      "glasova": 1,
      "posto": "0,37"
    },{
      "rbr": 14,
      "naziv": "ARSEN MUJAGIĆ",
      "glasova": 1,
      "posto": "0,37"
    }]
  },{
    "rbr": 4,
    "stranke": [
      {"naziv": "HRVATSKA STRANKA PRAVA - HSP"},
      {"naziv": "HRVATSKO BILO"},
      {"naziv": "HRVATSKA DEMOKRATSKA SELJAČKA STRANKA - HDSS"}
    ],
    "jedinstvenaSifra": "007018308",
    "glasova": 106,
    "naziv": "HSP, HRVATSKO BILO, HDSS",
    "posto": "4,15",
    "lista": [{
      "rbr": 1,
      "naziv": "ŽELJKO GLASNOVIĆ",
      "glasova": 30,
      "posto": "28,30"
    },{
      "rbr": 2,
      "naziv": "ANGELO ŽILIĆ",
      "glasova": 20,
      "posto": "18,86"
    },{
      "rbr": 3,
      "naziv": "MARKO SKEJO",
      "glasova": 12,
      "posto": "11,32"
    },{
      "rbr": 4,
      "naziv": "LUKA PODRUG",
      "glasova": 10,
      "posto": "9,43"
    },{
      "rbr": 5,
      "naziv": "ANA NIMAC",
      "glasova": 16,
      "posto": "15,09"
    },{
      "rbr": 6,
      "naziv": "IVANKA ŠPRALJA",
      "glasova": 7,
      "posto": "6,60"
    },{
      "rbr": 7,
      "naziv": "LUCIJA SKORUP",
      "glasova": 5,
      "posto": "4,71"
    },{
      "rbr": 8,
      "naziv": "GORDANA PUTNIK",
      "glasova": 2,
      "posto": "1,88"
    },{
      "rbr": 9,
      "naziv": "HELENA MIŠKOVIĆ DUŽEVIĆ",
      "glasova": 1,
      "posto": "0,94"
    },{
      "rbr": 10,
      "naziv": "IVONA ŠPRALJA",
      "glasova": 2,
      "posto": "1,88"
    },{
      "rbr": 11,
      "naziv": "MLADEN BOBIĆ",
      "glasova": 0,
      "posto": "0,00"
    },{
      "rbr": 12,
      "naziv": "ALBERT BOŽULIĆ",
      "glasova": 1,
      "posto": "0,94"
    },{
      "rbr": 13,
      "naziv": "ANTO KOMLJEN",
      "glasova": 0,
      "posto": "0,00"
    },{
      "rbr": 14,
      "naziv": "MATE LUKIĆ",
      "glasova": 0,
      "posto": "0,00"
    }]
  },{
    "rbr": 5,
    "stranke": [
      {"naziv": "AUTOHTONA - HRVATSKA STRANKA PRAVA - DRAŽEN KELEMINEC - A - HSP - Dražen Keleminec"}
    ],
    "jedinstvenaSifra": "049",
    "glasova": 86,
    "naziv": "A - HSP - Dražen Keleminec",
    "posto": "3,37",
    "lista": [{
      "rbr": 1,
      "naziv": "ELVIS MEIĆ-SIDIĆ",
      "glasova": 26,
      "posto": "30,23"
    },{
      "rbr": 2,
      "naziv": "PAŠKO UJAKOVIĆ",
      "glasova": 18,
      "posto": "20,93"
    },{
      "rbr": 3,
      "naziv": "MATE GOTOVAC",
      "glasova": 22,
      "posto": "25,58"
    },{
      "rbr": 4,
      "naziv": "TANJA MESAROŠ",
      "glasova": 4,
      "posto": "4,65"
    },{
      "rbr": 5,
      "naziv": "IVICA BAŠIĆ",
      "glasova": 0,
      "posto": "0,00"
    },{
      "rbr": 6,
      "naziv": "MARIJA MIOČ",
      "glasova": 0,
      "posto": "0,00"
    },{
      "rbr": 7,
      "naziv": "ANTO VUKADIN",
      "glasova": 7,
      "posto": "8,13"
    },{
      "rbr": 8,
      "naziv": "PETAR MILAVIĆ",
      "glasova": 9,
      "posto": "10,46"
    },{
      "rbr": 9,
      "naziv": "SNJEŽANA PLETIKOSA",
      "glasova": 0,
      "posto": "0,00"
    },{
      "rbr": 10,
      "naziv": "KREŠIMIR BAKOVIĆ",
      "glasova": 0,
      "posto": "0,00"
    },{
      "rbr": 11,
      "naziv": "KRISTINA VUKADIN",
      "glasova": 0,
      "posto": "0,00"
    },{
      "rbr": 12,
      "naziv": "JOSIP MESAROŠ",
      "glasova": 0,
      "posto": "0,00"
    },{
      "rbr": 13,
      "naziv": "KRISTINA UJAKOVIĆ",
      "glasova": 0,
      "posto": "0,00"
    },{
      "rbr": 14,
      "naziv": "LJILJA VUKADIN",
      "glasova": 0,
      "posto": "0,00"
    }]
  },{
    "rbr": 6,
    "stranke": [
      {"naziv": "HRVATSKA STRANKA PRAVA DR. ANTE STARČEVIĆ"}
    ],
    "jedinstvenaSifra": "096",
    "glasova": 85,
    "naziv": "HRVATSKA STRANKA PRAVA DR. ANTE STARČEVIĆ",
    "posto": "3,33",
    "lista": [{
      "rbr": 1,
      "naziv": "SLOBODAN DEVIĆ",
      "glasova": 26,
      "posto": "30,58"
    },{
      "rbr": 2,
      "naziv": "IVICA MIKULIĆ",
      "glasova": 17,
      "posto": "20,00"
    },{
      "rbr": 3,
      "naziv": "MIRANDA JAMNICKI DOIMI DI DELUPIS",
      "glasova": 9,
      "posto": "10,58"
    },{
      "rbr": 4,
      "naziv": "NENAD KLARIĆ",
      "glasova": 8,
      "posto": "9,41"
    },{
      "rbr": 5,
      "naziv": "IVE MILETIĆ",
      "glasova": 12,
      "posto": "14,11"
    },{
      "rbr": 6,
      "naziv": "VESNA PALEKA",
      "glasova": 5,
      "posto": "5,88"
    },{
      "rbr": 7,
      "naziv": "NATHALIE DIJOUX BRALIĆ",
      "glasova": 5,
      "posto": "5,88"
    },{
      "rbr": 8,
      "naziv": "ANTE KATALINIĆ",
      "glasova": 0,
      "posto": "0,00"
    },{
      "rbr": 9,
      "naziv": "ŽELJKA BARIČEVIĆ",
      "glasova": 0,
      "posto": "0,00"
    },{
      "rbr": 10,
      "naziv": "ENA BLAGOJEVIĆ",
      "glasova": 2,
      "posto": "2,35"
    },{
      "rbr": 11,
      "naziv": "MARIO ZRILIĆ",
      "glasova": 0,
      "posto": "0,00"
    },{
      "rbr": 12,
      "naziv": "JASMINKA KEKIĆ ŽEPINA",
      "glasova": 1,
      "posto": "1,17"
    },{
      "rbr": 13,
      "naziv": "SILVIJA HLUBNI BARABA",
      "glasova": 0,
      "posto": "0,00"
    },{
      "rbr": 14,
      "naziv": "BOŽIDAR LOKIN",
      "glasova": 0,
      "posto": "0,00"
    }]
  },{
    "rbr": 7,
    "stranke": [
      {"naziv": "SOCIJALDEMOKRATI"},
      {"naziv": "ISTARSKI DEMOKRATSKI SABOR - IDS"},
      {"naziv": "PRIMORSKO GORANSKI SAVEZ - PGS"},
      {"naziv": "HRVATSKI LABURISTI - STRANKA RADA - LABURISTI"},
      {"naziv": "DEMOKRATI"}
    ],
    "jedinstvenaSifra": "005006100251299",
    "glasova": 83,
    "naziv": "SOCIJALDEMOKRATI, IDS, PGS, LABURISTI, DEMOKRATI",
    "posto": "3,25",
    "lista": [{
      "rbr": 1,
      "naziv": "FRANKO VIDOVIĆ",
      "glasova": 24,
      "posto": "28,91"
    },{
      "rbr": 2,
      "naziv": "RENATA SABLJAR-DRAČEVAC",
      "glasova": 18,
      "posto": "21,68"
    },{
      "rbr": 3,
      "naziv": "MARIJAN STAREŠINIĆ",
      "glasova": 22,
      "posto": "26,50"
    },{
      "rbr": 4,
      "naziv": "RADOSLAVA GREGOV",
      "glasova": 4,
      "posto": "4,81"
    },{
      "rbr": 5,
      "naziv": "MARIO DRAUŠNIK",
      "glasova": 0,
      "posto": "0,00"
    },{
      "rbr": 6,
      "naziv": "ANKICA KOSOVEC-KRŽELJ",
      "glasova": 0,
      "posto": "0,00"
    },{
      "rbr": 7,
      "naziv": "MLADEN MATIJAŠEC",
      "glasova": 7,
      "posto": "8,43"
    },{
      "rbr": 8,
      "naziv": "ZLATKO VUIĆ",
      "glasova": 8,
      "posto": "9,63"
    },{
      "rbr": 9,
      "naziv": "DIANA MARTINOVIĆ",
      "glasova": 0,
      "posto": "0,00"
    },{
      "rbr": 10,
      "naziv": "ANA-MARIJA ČULE IVKIĆ",
      "glasova": 0,
      "posto": "0,00"
    },{
      "rbr": 11,
      "naziv": "FABIANA VIDOVIĆ",
      "glasova": 0,
      "posto": "0,00"
    },{
      "rbr": 12,
      "naziv": "IVAN KOZOLIĆ",
      "glasova": 0,
      "posto": "0,00"
    },{
      "rbr": 13,
      "naziv": "ANTONIJA ŠMISL MATKIĆ",
      "glasova": 0,
      "posto": "0,00"
    },{
      "rbr": 14,
      "naziv": "JOSIP MANDIĆ",
      "glasova": 0,
      "posto": "0,00"
    }]
  },{
    "rbr": 8,
    "stranke": [
      {"naziv": "HRVATSKA DEMOKRATSKA ZAJEDNICA - HDZ"},
      {"naziv": "HRVATSKA SOCIJALNO - LIBERALNA STRANKA - HSLS"},
      {"naziv": "HRVATSKA DEMOKRŠĆANSKA STRANKA - HDS"},
      {"naziv": "HRVATSKA NARODNA STRANKA - LIBERALNI DEMOKRATI - HNS"},
      {"naziv": "HRVATSKA STRANKA UMIROVLJENIKA - HSU"}
    ],
    "jedinstvenaSifra": "001002003011023",
    "glasova": 79,
    "naziv": "HDZ, HSLS, HDS, HNS, HSU",
    "posto": "3,09",
    "lista": [{
      "rbr": 1,
      "naziv": "IVAN MALENICA",
      "glasova": 23,
      "posto": "29,11"
    },{
      "rbr": 2,
      "naziv": "ŠIME ERLIĆ",
      "glasova": 15,
      "posto": "18,98"
    },{
      "rbr": 3,
      "naziv": "ANTE SANADER",
      "glasova": 9,
      "posto": "11,39"
    },{
      "rbr": 4,
      "naziv": "BRANKA JURIČEV-MARTINČEV",
      "glasova": 8,
      "posto": "10,12"
    },{
      "rbr": 5,
      "naziv": "JOSIP BILAVER",
      "glasova": 12,
      "posto": "15,18"
    },{
      "rbr": 6,
      "naziv": "IVAN BUGARIN",
      "glasova": 5,
      "posto": "6,32"
    },{
      "rbr": 7,
      "naziv": "HRVOJE ZEKANOVIĆ",
      "glasova": 4,
      "posto": "5,06"
    },{
      "rbr": 8,
      "naziv": "ANTE BABIĆ",
      "glasova": 0,
      "posto": "0,00"
    },{
      "rbr": 9,
      "naziv": "JAKOV VETMA",
      "glasova": 0,
      "posto": "0,00"
    },{
      "rbr": 10,
      "naziv": "NIKOLINA BARADIĆ",
      "glasova": 2,
      "posto": "2,53"
    },{
      "rbr": 11,
      "naziv": "PERICA BOSANČIĆ",
      "glasova": 0,
      "posto": "0,00"
    },{
      "rbr": 12,
      "naziv": "JURE BRIŽIĆ",
      "glasova": 1,
      "posto": "1,26"
    },{
      "rbr": 13,
      "naziv": "TONČI GLAVINA",
      "glasova": 0,
      "posto": "0,00"
    },{
      "rbr": 14,
      "naziv": "ŽELJKO BURIĆ",
      "glasova": 0,
      "posto": "0,00"
    }]
  },{
    "rbr": 9,
    "stranke": [
      {"naziv": "DOMOVINSKI POKRET - DP"},
      {"naziv": "PRAVO I PRAVDA"}
    ],
    "jedinstvenaSifra": "267312",
    "glasova": 70,
    "naziv": "DP, PRAVO I PRAVDA",
    "posto": "2,74",
    "lista": [{
      "rbr": 1,
      "naziv": "DAMIR BILOGLAV",
      "glasova": 22,
      "posto": "31,42"
    },{
      "rbr": 2,
      "naziv": "IVAN ŠIPIĆ",
      "glasova": 13,
      "posto": "18,57"
    },{
      "rbr": 3,
      "naziv": "PREDRAG MIŠIĆ",
      "glasova": 0,
      "posto": "0,00"
    },{
      "rbr": 4,
      "naziv": "IVE ĆALETA-CAR",
      "glasova": 9,
      "posto": "12,85"
    },{
      "rbr": 5,
      "naziv": "FRANE TOKIĆ",
      "glasova": 7,
      "posto": "10,00"
    },{
      "rbr": 6,
      "naziv": "DANIJEL KOTLAR",
      "glasova": 5,
      "posto": "7,14"
    },{
      "rbr": 7,
      "naziv": "MIRO MORO",
      "glasova": 11,
      "posto": "15,71"
    },{
      "rbr": 8,
      "naziv": "ANAMARIJA FRANKIĆ",
      "glasova": 0,
      "posto": "0,00"
    },{
      "rbr": 9,
      "naziv": "SNJEŽANA KULIŠ",
      "glasova": 0,
      "posto": "0,00"
    },{
      "rbr": 10,
      "naziv": "JELENA GRGIĆ",
      "glasova": 2,
      "posto": "2,85"
    },{
      "rbr": 11,
      "naziv": "MARIJA ŠARAC",
      "glasova": 1,
      "posto": "1,42"
    },{
      "rbr": 12,
      "naziv": "DANICA ŽARKO",
      "glasova": 0,
      "posto": "0,00"
    },{
      "rbr": 13,
      "naziv": "SNEŽANA ŽAJA",
      "glasova": 0,
      "posto": "0,00"
    },{
      "rbr": 14,
      "naziv": "DAMJAN VUCELIĆ",
      "glasova": 0,
      "posto": "0,00"
    }]
  },{
    "rbr": 10,
    "stranke": [
      {"naziv": "FOKUS"},
      {"naziv": "REPUBLIKA"}
    ],
    "jedinstvenaSifra": "270310",
    "glasova": 50,
    "naziv": "FOKUS, REPUBLIKA",
    "posto": "1,96",
    "lista": [{
      "rbr": 1,
      "naziv": "GORAN ŠIMIĆ",
      "glasova": 13,
      "posto": "26,00"
    },{
      "rbr": 2,
      "naziv": "NIKŠA KULUŠIĆ",
      "glasova": 2,
      "posto": "4,00"
    },{
      "rbr": 3,
      "naziv": "MIRJANA PLEČKO",
      "glasova": 0,
      "posto": "0,00"
    },{
      "rbr": 4,
      "naziv": "FILIP JAGARINEC",
      "glasova": 1,
      "posto": "2,00"
    },{
      "rbr": 5,
      "naziv": "LORENZO UJEVIĆ",
      "glasova": 5,
      "posto": "10,00"
    },{
      "rbr": 6,
      "naziv": "ŠIME MARTINOVIĆ",
      "glasova": 6,
      "posto": "12,00"
    },{
      "rbr": 7,
      "naziv": "SANDA POLIČAK KOKIĆ",
      "glasova": 0,
      "posto": "0,00"
    },{
      "rbr": 8,
      "naziv": "MARTINA KRPETIĆ",
      "glasova": 0,
      "posto": "0,00"
    },{
      "rbr": 9,
      "naziv": "MIRA LUČEV",
      "glasova": 12,
      "posto": "24,00"
    },{
      "rbr": 10,
      "naziv": "ANTE ČUBRIĆ",
      "glasova": 11,
      "posto": "22,00"
    },{
      "rbr": 11,
      "naziv": "ANTONELA GAROFULIĆ",
      "glasova": 0,
      "posto": "0,00"
    },{
      "rbr": 12,
      "naziv": "SLAĐANA PAVLOVIĆ",
      "glasova": 0,
      "posto": "0,00"
    },{
      "rbr": 13,
      "naziv": "SLAVIŠA PAVLOVIĆ",
      "glasova": 0,
      "posto": "0,00"
    },{
      "rbr": 14,
      "naziv": "IVAN GULAM",
      "glasova": 0,
      "posto": "0,00"
    }]
  },{
    "rbr": 11,
    "stranke": [
      {"naziv": "RADNIČKA FRONTA - RF"}
    ],
    "jedinstvenaSifra": "168",
    "glasova": 45,
    "naziv": "RF",
    "posto": "1,76",
    "lista": [{
      "rbr": 1,
      "naziv": "BORIS MIJAKOVAC",
      "glasova": 13,
      "posto": "28,88"
    },{
      "rbr": 2,
      "naziv": "LUJANA PARAMAN",
      "glasova": 10,
      "posto": "22,22"
    },{
      "rbr": 3,
      "naziv": "TONI BEDALOV",
      "glasova": 5,
      "posto": "11,11"
    },{
      "rbr": 4,
      "naziv": "ANĐELKA ANTULOV",
      "glasova": 5,
      "posto": "11,11"
    },{
      "rbr": 5,
      "naziv": "IVAN BARIĆ",
      "glasova": 8,
      "posto": "17,77"
    },{
      "rbr": 6,
      "naziv": "KATARINA NEMET",
      "glasova": 2,
      "posto": "4,44"
    },{
      "rbr": 7,
      "naziv": "IVO MATULIĆ",
      "glasova": 2,
      "posto": "4,44"
    },{
      "rbr": 8,
      "naziv": "GORAN KAUZLARIĆ",
      "glasova": 0,
      "posto": "0,00"
    },{
      "rbr": 9,
      "naziv": "BORISLAVA VULIĆ",
      "glasova": 0,
      "posto": "0,00"
    },{
      "rbr": 10,
      "naziv": "GORDANA ŽIC",
      "glasova": 0,
      "posto": "0,00"
    },{
      "rbr": 11,
      "naziv": "SLAVEN KUPINA",
      "glasova": 0,
      "posto": "0,00"
    },{
      "rbr": 12,
      "naziv": "MARGARITA ZIKOLLAJ BARBARIĆ",
      "glasova": 0,
      "posto": "0,00"
    },{
      "rbr": 13,
      "naziv": "BELA NADJ",
      "glasova": 0,
      "posto": "0,00"
    },{
      "rbr": 14,
      "naziv": "MARIO MARKOVINA",
      "glasova": 0,
      "posto": "0,00"
    }]
  },{
    "rbr": 12,
    "stranke": [
      {"naziv": "STRANKA IVANA PERNARA"}
    ],
    "jedinstvenaSifra": "259",
    "glasova": 42,
    "naziv": "STRANKA IVANA PERNARA",
    "posto": "1,64",
    "lista": [{
      "rbr": 1,
      "naziv": "DANIEL MIJATOVIĆ",
      "glasova": 13,
      "posto": "30,95"
    },{
      "rbr": 2,
      "naziv": "SAMANTA KNEŽEVIĆ",
      "glasova": 9,
      "posto": "21,42"
    },{
      "rbr": 3,
      "naziv": "DANIJEL BALTIĆ",
      "glasova": 11,
      "posto": "26,19"
    },{
      "rbr": 4,
      "naziv": "ANDREA NOVAKOVIĆ",
      "glasova": 1,
      "posto": "2,38"
    },{
      "rbr": 5,
      "naziv": "KRISTIAN ŠULJAK",
      "glasova": 0,
      "posto": "0,00"
    },{
      "rbr": 6,
      "naziv": "TINA ALMIĆ",
      "glasova": 0,
      "posto": "0,00"
    },{
      "rbr": 7,
      "naziv": "DOLORES MILOVAC",
      "glasova": 3,
      "posto": "7,14"
    },{
      "rbr": 8,
      "naziv": "GRGO PLAZINA",
      "glasova": 5,
      "posto": "11,90"
    },{
      "rbr": 9,
      "naziv": "NIKOLINA UJAKOVIĆ",
      "glasova": 0,
      "posto": "0,00"
    },{
      "rbr": 10,
      "naziv": "IVAN ĐURIĆ",
      "glasova": 0,
      "posto": "0,00"
    },{
      "rbr": 11,
      "naziv": "LUKA MOHENSKI",
      "glasova": 0,
      "posto": "0,00"
    },{
      "rbr": 12,
      "naziv": "ROBERT BUZOV",
      "glasova": 0,
      "posto": "0,00"
    },{
      "rbr": 13,
      "naziv": "HANA BEKINA",
      "glasova": 0,
      "posto": "0,00"
    },{
      "rbr": 14,
      "naziv": "BRANKO BUZOV",
      "glasova": 0,
      "posto": "0,00"
    }]
  },{
    "rbr": 13,
    "stranke": [
      {"naziv": "SOCIJALDEMOKRATSKA PARTIJA HRVATSKE - SDP"},
      {"naziv": "CENTAR"},
      {"naziv": "HRVATSKA SELJAČKA STRANKA - HSS"},
      {"naziv": "\"DALIJA OREŠKOVIĆ I LJUDI S IMENOM I PREZIMENOM\" - \"DO i SIP\""},
      {"naziv": "NARODNA STRANKA - REFORMISTI - REFORMISTI"},
      {"naziv": "GRAĐANSKO-LIBERALNI SAVEZ - GLAS"}
    ],
    "jedinstvenaSifra": "004017162179244306",
    "glasova": 42,
    "naziv": "SDP, CENTAR, HSS, \"DO i SIP\", REFORMISTI, GLAS",
    "posto": "1,64",
    "lista": [{
      "rbr": 1,
      "naziv": "SABINA GLASOVAC",
      "glasova": 13,
      "posto": "30,95"
    },{
      "rbr": 2,
      "naziv": "TONČI RESTOVIĆ",
      "glasova": 9,
      "posto": "21,42"
    },{
      "rbr": 3,
      "naziv": "IRENA DRAGIĆ",
      "glasova": 11,
      "posto": "26,19"
    },{
      "rbr": 4,
      "naziv": "IGOR SKOKO",
      "glasova": 1,
      "posto": "2,38"
    },{
      "rbr": 5,
      "naziv": "BRANKO GRČIĆ",
      "glasova": 0,
      "posto": "0,00"
    },{
      "rbr": 6,
      "naziv": "NATAŠA DELONGA POPARIĆ",
      "glasova": 0,
      "posto": "0,00"
    },{
      "rbr": 7,
      "naziv": "DANIEL RADETA",
      "glasova": 3,
      "posto": "7,14"
    },{
      "rbr": 8,
      "naziv": "RUŽICA JAKŠIĆ",
      "glasova": 5,
      "posto": "11,90"
    },{
      "rbr": 9,
      "naziv": "KARLO KLARIN",
      "glasova": 0,
      "posto": "0,00"
    },{
      "rbr": 10,
      "naziv": "IVANA VUČENOVIĆ",
      "glasova": 0,
      "posto": "0,00"
    },{
      "rbr": 11,
      "naziv": "IVANA PERIŠIN",
      "glasova": 0,
      "posto": "0,00"
    },{
      "rbr": 12,
      "naziv": "ZDENKO JUKIĆ",
      "glasova": 0,
      "posto": "0,00"
    },{
      "rbr": 13,
      "naziv": "ANJA RAMADŽA",
      "glasova": 0,
      "posto": "0,00"
    },{
      "rbr": 14,
      "naziv": "PETAR VRVILO",
      "glasova": 0,
      "posto": "0,00"
    }]
  },{
    "rbr": 14,
    "stranke": [
      {"naziv": "ODLUČNOST I PRAVEDNOST - OIP"}
    ],
    "jedinstvenaSifra": "300",
    "glasova": 38,
    "naziv": "OIP",
    "posto": "1,49",
    "lista": [{
      "rbr": 1,
      "naziv": "DENIS MARIĆ",
      "glasova": 12,
      "posto": "31,57"
    },{
      "rbr": 2,
      "naziv": "DINO ERCEG",
      "glasova": 9,
      "posto": "23,68"
    },{
      "rbr": 3,
      "naziv": "MARKO GRBIĆ",
      "glasova": 5,
      "posto": "13,15"
    },{
      "rbr": 4,
      "naziv": "MILJENKA PRENĐA SARIĆ",
      "glasova": 2,
      "posto": "5,26"
    },{
      "rbr": 5,
      "naziv": "RONALD GALIĆ",
      "glasova": 7,
      "posto": "18,42"
    },{
      "rbr": 6,
      "naziv": "DRAGAN OSTOJIĆ",
      "glasova": 2,
      "posto": "5,26"
    },{
      "rbr": 7,
      "naziv": "FRANE NEKIĆ",
      "glasova": 1,
      "posto": "2,63"
    },{
      "rbr": 8,
      "naziv": "JULIA BRAJIČIĆ",
      "glasova": 0,
      "posto": "0,00"
    },{
      "rbr": 9,
      "naziv": "ANDRIJA SAMARDŽIJA",
      "glasova": 0,
      "posto": "0,00"
    },{
      "rbr": 10,
      "naziv": "AUGUSTIN BENIĆ",
      "glasova": 0,
      "posto": "0,00"
    },{
      "rbr": 11,
      "naziv": "RADMILA PERIĆ",
      "glasova": 0,
      "posto": "0,00"
    },{
      "rbr": 12,
      "naziv": "IVA ZADELJ",
      "glasova": 0,
      "posto": "0,00"
    },{
      "rbr": 13,
      "naziv": "ZORAN GAŠPEROV",
      "glasova": 0,
      "posto": "0,00"
    },{
      "rbr": 14,
      "naziv": "IVICA SVAGUŠA",
      "glasova": 0,
      "posto": "0,00"
    }]
  },{
    "rbr": 15,
    "stranke": [
      {"naziv": "MOŽEMO! - POLITIČKA PLATFORMA"}
    ],
    "jedinstvenaSifra": "255",
    "glasova": 18,
    "naziv": "MOŽEMO! - POLITIČKA PLATFORMA",
    "posto": "0,70",
    "lista": [{
      "rbr": 1,
      "naziv": "MAJA ŠINTIĆ",
      "glasova": 8,
      "posto": "44,44"
    },{
      "rbr": 2,
      "naziv": "IVAN SLAVICA",
      "glasova": 2,
      "posto": "11,11"
    },{
      "rbr": 3,
      "naziv": "ANA ŠIMIĆ",
      "glasova": 5,
      "posto": "27,77"
    },{
      "rbr": 4,
      "naziv": "MARKO LUKAVAC",
      "glasova": 0,
      "posto": "0,00"
    },{
      "rbr": 5,
      "naziv": "NINA MILIČEVIĆ",
      "glasova": 0,
      "posto": "0,00"
    },{
      "rbr": 6,
      "naziv": "IVICA SMOLJAN",
      "glasova": 0,
      "posto": "0,00"
    },{
      "rbr": 7,
      "naziv": "SILVANA ČEKO JURIŠIĆ",
      "glasova": 1,
      "posto": "5,55"
    },{
      "rbr": 8,
      "naziv": "ZDRAVKO BELUŠIĆ",
      "glasova": 2,
      "posto": "11,11"
    },{
      "rbr": 9,
      "naziv": "IVA IVAS",
      "glasova": 0,
      "posto": "0,00"
    },{
      "rbr": 10,
      "naziv": "DUŠAN MILOŠ",
      "glasova": 0,
      "posto": "0,00"
    },{
      "rbr": 11,
      "naziv": "ANTONIJA LETINIĆ",
      "glasova": 0,
      "posto": "0,00"
    },{
      "rbr": 12,
      "naziv": "JERE MEIĆ",
      "glasova": 0,
      "posto": "0,00"
    },{
      "rbr": 13,
      "naziv": "PETRA HRAŠĆANEC",
      "glasova": 0,
      "posto": "0,00"
    },{
      "rbr": 14,
      "naziv": "DUNJA GUSIĆ",
      "glasova": 0,
      "posto": "0,00"
    }]
  },{
    "rbr": 16,
    "stranke": [
      {"naziv": "MOST"},
      {"naziv": "HRVATSKI SUVERENISTI"},
      {"naziv": "HRVATSKA KONZERVATIVNA STRANKA - HKS"},
      {"naziv": "NEZAVISNA LISTA MLADIH - NLM"}
    ],
    "jedinstvenaSifra": "131165188263",
    "glasova": 17,
    "naziv": "MOST, HRVATSKI SUVERENISTI, HKS, NLM",
    "posto": "0,66",
    "lista": [{
      "rbr": 1,
      "naziv": "MIRO BULJ",
      "glasova": 8,
      "posto": "47,05"
    },{
      "rbr": 2,
      "naziv": "IVAN MATIĆ",
      "glasova": 2,
      "posto": "11,76"
    },{
      "rbr": 3,
      "naziv": "IVICA LEDENKO",
      "glasova": 5,
      "posto": "29,41"
    },{
      "rbr": 4,
      "naziv": "MILIJA BALDIĆ-LUKŠIĆ",
      "glasova": 0,
      "posto": "0,00"
    },{
      "rbr": 5,
      "naziv": "IVAN ANDABAK",
      "glasova": 0,
      "posto": "0,00"
    },{
      "rbr": 6,
      "naziv": "ŽELJANA POPIĆ",
      "glasova": 0,
      "posto": "0,00"
    },{
      "rbr": 7,
      "naziv": "MIHOVIL KLARIĆ",
      "glasova": 1,
      "posto": "5,88"
    },{
      "rbr": 8,
      "naziv": "MARINA PAŠKALIN",
      "glasova": 1,
      "posto": "5,88"
    },{
      "rbr": 9,
      "naziv": "KLARA BUŠIĆ",
      "glasova": 0,
      "posto": "0,00"
    },{
      "rbr": 10,
      "naziv": "MARIJAN JURIĆ",
      "glasova": 0,
      "posto": "0,00"
    },{
      "rbr": 11,
      "naziv": "IVANA ŠEVO",
      "glasova": 0,
      "posto": "0,00"
    },{
      "rbr": 12,
      "naziv": "BISERKA GRGIN",
      "glasova": 0,
      "posto": "0,00"
    },{
      "rbr": 13,
      "naziv": "IVAN ŠUSTIĆ",
      "glasova": 0,
      "posto": "0,00"
    },{
      "rbr": 14,
      "naziv": "PETAR MARETIĆ",
      "glasova": 0,
      "posto": "0,00"
    }]
  },{
    "rbr": 17,
    "stranke": [
      {"naziv": "STRANKA HRVATSKOG ZAJEDNIŠTVA - SHZ"}
    ],
    "jedinstvenaSifra": "099",
    "glasova": 7,
    "naziv": "SHZ",
    "posto": "0,27",
    "lista": [{
      "rbr": 1,
      "naziv": "MILJENKO MARIĆ",
      "glasova": 5,
      "posto": "71,42"
    },{
      "rbr": 2,
      "naziv": "NIKOLA ŠIMIĆ",
      "glasova": 2,
      "posto": "28,57"
    },{
      "rbr": 3,
      "naziv": "AUGUSTINA RIMANIĆ",
      "glasova": 0,
      "posto": "0,00"
    },{
      "rbr": 4,
      "naziv": "ANAMARIJA ĆURKOVIĆ",
      "glasova": 0,
      "posto": "0,00"
    },{
      "rbr": 5,
      "naziv": "ZLATKO DUNDOVIĆ",
      "glasova": 0,
      "posto": "0,00"
    },{
      "rbr": 6,
      "naziv": "DRAGAN GOVORČIN",
      "glasova": 0,
      "posto": "0,00"
    },{
      "rbr": 7,
      "naziv": "DANIJELA BUDANOVIĆ",
      "glasova": 0,
      "posto": "0,00"
    },{
      "rbr": 8,
      "naziv": "NIVES KAURLOTO-VUČINOVIĆ",
      "glasova": 0,
      "posto": "0,00"
    },{
      "rbr": 9,
      "naziv": "VINKO KLARIĆ",
      "glasova": 0,
      "posto": "0,00"
    },{
      "rbr": 10,
      "naziv": "GORDANA MILIN",
      "glasova": 0,
      "posto": "0,00"
    },{
      "rbr": 11,
      "naziv": "SLAVKO BURČUL",
      "glasova": 0,
      "posto": "0,00"
    },{
      "rbr": 12,
      "naziv": "ANĐELKA KRNETA",
      "glasova": 0,
      "posto": "0,00"
    },{
      "rbr": 13,
      "naziv": "JULIJE JELASKA",
      "glasova": 0,
      "posto": "0,00"
    },{
      "rbr": 14,
      "naziv": "GAŠPAR BILIĆ",
      "glasova": 0,
      "posto": "0,00"
    }]
  },{
    "rbr": 18,
    "stranke": [
      {"naziv": "UMIROVLJENICI ZAJEDNO - POLITIČKA PLATFORMA - UMIROVLJENICI ZAJEDNO"},
      {"naziv": "STRANKA UMIROVLJENIKA - SU"},
      {"naziv": "BLOK UMIROVLJENICI ZAJEDNO - BUZ"},
      {"naziv": "DEMOKRATSKA STRANKA UMIROVLJENIKA - DSU"}
    ],
    "jedinstvenaSifra": "039041102301",
    "glasova": 7,
    "naziv": "UMIROVLJENICI ZAJEDNO, SU, BUZ, DSU",
    "posto": "0,27",
    "lista": [{
      "rbr": 1,
      "naziv": "DUŠKO VUKOVIĆ",
      "glasova": 5,
      "posto": "71,42"
    },{
      "rbr": 2,
      "naziv": "ANĐELKO DUVANČIĆ",
      "glasova": 2,
      "posto": "28,57"
    },{
      "rbr": 3,
      "naziv": "MARKO MIJIĆ",
      "glasova": 0,
      "posto": "0,00"
    },{
      "rbr": 4,
      "naziv": "ROBERT PELICARIĆ",
      "glasova": 0,
      "posto": "0,00"
    },{
      "rbr": 5,
      "naziv": "ZVJEZDANA RONČEVIĆ HRS",
      "glasova": 0,
      "posto": "0,00"
    },{
      "rbr": 6,
      "naziv": "MARTINA MATACIN",
      "glasova": 0,
      "posto": "0,00"
    },{
      "rbr": 7,
      "naziv": "KATARINA NEKIĆ",
      "glasova": 0,
      "posto": "0,00"
    },{
      "rbr": 8,
      "naziv": "VLADIMIR HRS",
      "glasova": 0,
      "posto": "0,00"
    },{
      "rbr": 9,
      "naziv": "CARLA SANTIN",
      "glasova": 0,
      "posto": "0,00"
    },{
      "rbr": 10,
      "naziv": "ANITA MERLE",
      "glasova": 0,
      "posto": "0,00"
    },{
      "rbr": 11,
      "naziv": "BORIS FRAKIN",
      "glasova": 0,
      "posto": "0,00"
    },{
      "rbr": 12,
      "naziv": "PAOLA BABAJKO",
      "glasova": 0,
      "posto": "0,00"
    },{
      "rbr": 13,
      "naziv": "BOŽO NEKIĆ",
      "glasova": 0,
      "posto": "0,00"
    },{
      "rbr": 14,
      "naziv": "JELENA VUKOVIĆ",
      "glasova": 0,
      "posto": "0,00"
    }]
  }]
}
