{
  "izbori": "Zastupnički izbori 2024",
  "datum": "15.04.2024.",
  "vrijeme": "15:15",
  "izboriOznaka": "02",
  "ijSifra": "007",
  "bmSifra": "000",
  "ijNaziv": "VII. IZBORNA JEDINICA",
  "gropNaziv": "SISAK",
  "bmNaziv": "",
  "bmZatvoreno": 64,
  "bmUkupno": 69,
  "biraciUkupno": 30102,
  "biraciGlasovalo": 11179,
  "biraciGlasovaloPosto": "37,14",
  "listiciUkupno": 11167,
  "listiciVazeci": 10943,
  "listiciVazeciPosto": "97,99",
  "listiciNevazeci": 224,
  "listiciNevazeciPosto": "2,01",
  "napomena": "* - objavljeni rezultati sadrže podatke samo s redovnih biračkih mjesta",
  "napomena2": "",
  "lista": [{
    "rbr": 1,
    "stranke": [
      {"naziv": "AKCIJA ZA PROMJENE"},
      {"naziv": "AGRARNA STRANKA - POKRET ZA HRVATSKU POLJOPRIVREDU"}
    ],
    "jedinstvenaSifra": "303305",
    "glasova": 3971,
    "naziv": "AKCIJA ZA PROMJENE, AGRARNA STRANKA - POKRET ZA HRVATSKU POLJOPRIVREDU",
    "posto": "36,28",
    "lista": [{
      "rbr": 1,
      "naziv": "NEBOJŠA ANDRIĆ",
      "glasova": 786,
      "posto": "19,79"
    },{
      "rbr": 2,
      "naziv": "DAVOR SMUĐ",
      "glasova": 267,
      "posto": "6,72"
    },{
      "rbr": 3,
      "naziv": "DANIJEL JURKAŠ",
      "glasova": 135,
      "posto": "3,39"
    },{
      "rbr": 4,
      "naziv": "ANDREA CULI",
      "glasova": 224,
      "posto": "5,64"
    },{
      "rbr": 5,
      "naziv": "GORDANA LIPŠINIĆ",
      "glasova": 305,
      "posto": "7,68"
    },{
      "rbr": 6,
      "naziv": "ŽELJKA VULETIĆ",
      "glasova": 388,
      "posto": "9,77"
    },{
      "rbr": 7,
      "naziv": "DAMIR RADINOVIĆ",
      "glasova": 44,
      "posto": "1,10"
    },{
      "rbr": 8,
      "naziv": "ZLATKO MIHALJEVIĆ",
      "glasova": 93,
      "posto": "2,34"
    },{
      "rbr": 9,
      "naziv": "LAHORKA BOBETKO",
      "glasova": 749,
      "posto": "18,86"
    },{
      "rbr": 10,
      "naziv": "GORDANA STJEPANOVIĆ",
      "glasova": 707,
      "posto": "17,80"
    },{
      "rbr": 11,
      "naziv": "DAVID ANČIĆ",
      "glasova": 24,
      "posto": "0,60"
    },{
      "rbr": 12,
      "naziv": "IVANKA TURKALJ",
      "glasova": 39,
      "posto": "0,98"
    },{
      "rbr": 13,
      "naziv": "JOSIP TUMPAK",
      "glasova": 52,
      "posto": "1,30"
    },{
      "rbr": 14,
      "naziv": "GORAN ĐEKIĆ",
      "glasova": 88,
      "posto": "2,21"
    }]
  },{
    "rbr": 2,
    "stranke": [
      {"naziv": "AUTOHTONA - HRVATSKA STRANKA PRAVA - DRAŽEN KELEMINEC - A - HSP - Dražen Keleminec"}
    ],
    "jedinstvenaSifra": "049",
    "glasova": 1680,
    "naziv": "A - HSP - Dražen Keleminec",
    "posto": "15,35",
    "lista": [{
      "rbr": 1,
      "naziv": "DRAŽEN KELEMINEC",
      "glasova": 348,
      "posto": "20,71"
    },{
      "rbr": 2,
      "naziv": "MATE DILBER",
      "glasova": 314,
      "posto": "18,69"
    },{
      "rbr": 3,
      "naziv": "VANJA STERMOLE",
      "glasova": 348,
      "posto": "20,71"
    },{
      "rbr": 4,
      "naziv": "TOMA ŠTEDUL",
      "glasova": 123,
      "posto": "7,32"
    },{
      "rbr": 5,
      "naziv": "HEIDI MILČIĆ",
      "glasova": 59,
      "posto": "3,51"
    },{
      "rbr": 6,
      "naziv": "VID ROŠČAK",
      "glasova": 100,
      "posto": "5,95"
    },{
      "rbr": 7,
      "naziv": "JASMINKA MAJIĆ",
      "glasova": 141,
      "posto": "8,39"
    },{
      "rbr": 8,
      "naziv": "ĐURO MARKUŠ",
      "glasova": 173,
      "posto": "10,29"
    },{
      "rbr": 9,
      "naziv": "NENAD CEPAK",
      "glasova": 2,
      "posto": "0,11"
    },{
      "rbr": 10,
      "naziv": "MARIJAN GOLUBIĆ",
      "glasova": 27,
      "posto": "1,60"
    },{
      "rbr": 11,
      "naziv": "GORAN KUMPARE",
      "glasova": 39,
      "posto": "2,32"
    },{
      "rbr": 12,
      "naziv": "JASENKA STIPETIĆ FERENČABA",
      "glasova": 0,
      "posto": "0,00"
    },{
      "rbr": 13,
      "naziv": "ZDENKA RADIČIĆ",
      "glasova": 5,
      "posto": "0,29"
    },{
      "rbr": 14,
      "naziv": "ZVONKO MAJIĆ",
      "glasova": 1,
      "posto": "0,05"
    }]
  },{
    "rbr": 3,
    "stranke": [
      {"naziv": "UMIROVLJENICI ZAJEDNO - POLITIČKA PLATFORMA - UMIROVLJENICI ZAJEDNO"},
      {"naziv": "STRANKA UMIROVLJENIKA - SU"},
      {"naziv": "BLOK UMIROVLJENICI ZAJEDNO - BUZ"},
      {"naziv": "DEMOKRATSKA STRANKA UMIROVLJENIKA - DSU"}
    ],
    "jedinstvenaSifra": "039041102301",
    "glasova": 971,
    "naziv": "UMIROVLJENICI ZAJEDNO, SU, BUZ, DSU",
    "posto": "8,87",
    "lista": [{
      "rbr": 1,
      "naziv": "VESNA HORVAT",
      "glasova": 216,
      "posto": "22,24"
    },{
      "rbr": 2,
      "naziv": "MILIVOJ TIČARIĆ",
      "glasova": 196,
      "posto": "20,18"
    },{
      "rbr": 3,
      "naziv": "BISERKA SCHMUCK",
      "glasova": 215,
      "posto": "22,14"
    },{
      "rbr": 4,
      "naziv": "JOSIP MILINKOVIĆ",
      "glasova": 73,
      "posto": "7,51"
    },{
      "rbr": 5,
      "naziv": "VLADIMIR MARIJAN TUDJA",
      "glasova": 16,
      "posto": "1,64"
    },{
      "rbr": 6,
      "naziv": "MARIJA VRBANAC",
      "glasova": 51,
      "posto": "5,25"
    },{
      "rbr": 7,
      "naziv": "IVAN JELENČIĆ",
      "glasova": 86,
      "posto": "8,85"
    },{
      "rbr": 8,
      "naziv": "STJEPAN TOMEČAK",
      "glasova": 106,
      "posto": "10,91"
    },{
      "rbr": 9,
      "naziv": "KSENIJA DRAKULIĆ",
      "glasova": 0,
      "posto": "0,00"
    },{
      "rbr": 10,
      "naziv": "ILIJA KORDIĆ",
      "glasova": 3,
      "posto": "0,30"
    },{
      "rbr": 11,
      "naziv": "JELENA MANDIĆ",
      "glasova": 9,
      "posto": "0,92"
    },{
      "rbr": 12,
      "naziv": "ŽELJKO JEZDIĆ",
      "glasova": 0,
      "posto": "0,00"
    },{
      "rbr": 13,
      "naziv": "MARIJA ANDRIŠČAK",
      "glasova": 0,
      "posto": "0,00"
    },{
      "rbr": 14,
      "naziv": "SNJEŽANA DOZET",
      "glasova": 0,
      "posto": "0,00"
    }]
  },{
    "rbr": 4,
    "stranke": [
      {"naziv": "HRVATSKA STRANKA GRAĐANSKOG OTPORA - HSGO"}
    ],
    "jedinstvenaSifra": "247",
    "glasova": 897,
    "naziv": "HSGO",
    "posto": "8,19",
    "lista": [{
      "rbr": 1,
      "naziv": "DRAŽEN KATIĆ",
      "glasova": 203,
      "posto": "22,63"
    },{
      "rbr": 2,
      "naziv": "DEJAN VINČIĆ",
      "glasova": 140,
      "posto": "15,60"
    },{
      "rbr": 3,
      "naziv": "MARIETTE DAMJANOVIĆ",
      "glasova": 101,
      "posto": "11,25"
    },{
      "rbr": 4,
      "naziv": "ANEL DŽAFEROVIĆ",
      "glasova": 80,
      "posto": "8,91"
    },{
      "rbr": 5,
      "naziv": "JADRANKO PODVRŠAN",
      "glasova": 126,
      "posto": "14,04"
    },{
      "rbr": 6,
      "naziv": "VERA POGELŠEK",
      "glasova": 61,
      "posto": "6,80"
    },{
      "rbr": 7,
      "naziv": "VALENTINA CVITKOVIĆ",
      "glasova": 45,
      "posto": "5,01"
    },{
      "rbr": 8,
      "naziv": "TOMISLAV VRBANIĆ",
      "glasova": 32,
      "posto": "3,56"
    },{
      "rbr": 9,
      "naziv": "ANITA KLADNIK",
      "glasova": 28,
      "posto": "3,12"
    },{
      "rbr": 10,
      "naziv": "KATARINA BEŠIĆ",
      "glasova": 33,
      "posto": "3,67"
    },{
      "rbr": 11,
      "naziv": "MARINA ŽLIČAR",
      "glasova": 8,
      "posto": "0,89"
    },{
      "rbr": 12,
      "naziv": "BISERKA HAAG",
      "glasova": 15,
      "posto": "1,67"
    },{
      "rbr": 13,
      "naziv": "MARIJAN URH",
      "glasova": 8,
      "posto": "0,89"
    },{
      "rbr": 14,
      "naziv": "SLAVKO MACENIĆ",
      "glasova": 7,
      "posto": "0,78"
    }]
  },{
    "rbr": 5,
    "stranke": [
      {"naziv": "STRANKA IVANA PERNARA"}
    ],
    "jedinstvenaSifra": "259",
    "glasova": 591,
    "naziv": "STRANKA IVANA PERNARA",
    "posto": "5,40",
    "lista": [{
      "rbr": 1,
      "naziv": "GORDAN ŠEBALJ",
      "glasova": 143,
      "posto": "24,19"
    },{
      "rbr": 2,
      "naziv": "FRANJO MIROSLAV PERKOVIĆ",
      "glasova": 128,
      "posto": "21,65"
    },{
      "rbr": 3,
      "naziv": "JOSIP ŽUČKO",
      "glasova": 139,
      "posto": "23,51"
    },{
      "rbr": 4,
      "naziv": "NATAŠA POGAČIĆ",
      "glasova": 35,
      "posto": "5,92"
    },{
      "rbr": 5,
      "naziv": "MIHAIL MARŠON",
      "glasova": 2,
      "posto": "0,33"
    },{
      "rbr": 6,
      "naziv": "TIHANA SVIBEN",
      "glasova": 21,
      "posto": "3,55"
    },{
      "rbr": 7,
      "naziv": "IVANA PERIĆ",
      "glasova": 49,
      "posto": "8,29"
    },{
      "rbr": 8,
      "naziv": "ANDREJ SAJKO",
      "glasova": 74,
      "posto": "12,52"
    },{
      "rbr": 9,
      "naziv": "SONJA PERKOVIĆ",
      "glasova": 0,
      "posto": "0,00"
    },{
      "rbr": 10,
      "naziv": "TOMISLAV MILINOVIĆ",
      "glasova": 0,
      "posto": "0,00"
    },{
      "rbr": 11,
      "naziv": "VIŠNJA ŠIMIĆ",
      "glasova": 0,
      "posto": "0,00"
    },{
      "rbr": 12,
      "naziv": "DALIBOR MEDVEDOVIĆ",
      "glasova": 0,
      "posto": "0,00"
    },{
      "rbr": 13,
      "naziv": "ZORAN RADMAN",
      "glasova": 0,
      "posto": "0,00"
    },{
      "rbr": 14,
      "naziv": "ANĐELA MARUSZKY",
      "glasova": 0,
      "posto": "0,00"
    }]
  },{
    "rbr": 6,
    "stranke": [
      {"naziv": "DOMOVINSKI POKRET - DP"},
      {"naziv": "PRAVO I PRAVDA"},
      {"naziv": "DEMOKRATSKI HSS - DHSS"},
      {"naziv": "ZELENA LISTA"}
    ],
    "jedinstvenaSifra": "231267283312",
    "glasova": 463,
    "naziv": "DP, PRAVO I PRAVDA, DHSS, ZELENA LISTA",
    "posto": "4,23",
    "lista": [{
      "rbr": 1,
      "naziv": "JOSIP JURČEVIĆ",
      "glasova": 121,
      "posto": "26,13"
    },{
      "rbr": 2,
      "naziv": "DAMIR MARKUŠ",
      "glasova": 72,
      "posto": "15,55"
    },{
      "rbr": 3,
      "naziv": "ŽELJKO LENART",
      "glasova": 10,
      "posto": "2,15"
    },{
      "rbr": 4,
      "naziv": "ALENKO RIBIĆ",
      "glasova": 53,
      "posto": "11,44"
    },{
      "rbr": 5,
      "naziv": "VLATKO IVKA",
      "glasova": 50,
      "posto": "10,79"
    },{
      "rbr": 6,
      "naziv": "VIKTORIJA KALEB",
      "glasova": 39,
      "posto": "8,42"
    },{
      "rbr": 7,
      "naziv": "ROMANA MILAJČIĆ",
      "glasova": 67,
      "posto": "14,47"
    },{
      "rbr": 8,
      "naziv": "ZVONIMIR MRGAN",
      "glasova": 30,
      "posto": "6,47"
    },{
      "rbr": 9,
      "naziv": "SONJA BABIĆ",
      "glasova": 0,
      "posto": "0,00"
    },{
      "rbr": 10,
      "naziv": "ŠIME BUŠKULIĆ",
      "glasova": 19,
      "posto": "4,10"
    },{
      "rbr": 11,
      "naziv": "IVA KUČINIĆ RADOŠEVIĆ",
      "glasova": 2,
      "posto": "0,43"
    },{
      "rbr": 12,
      "naziv": "ANKICA ROSANDIĆ",
      "glasova": 0,
      "posto": "0,00"
    },{
      "rbr": 13,
      "naziv": "DUBRAVKA BIJELIĆ",
      "glasova": 0,
      "posto": "0,00"
    },{
      "rbr": 14,
      "naziv": "FILIP JARNEVIĆ",
      "glasova": 0,
      "posto": "0,00"
    }]
  },{
    "rbr": 7,
    "stranke": [
      {"naziv": "SOCIJALDEMOKRATSKA PARTIJA HRVATSKE - SDP"},
      {"naziv": "CENTAR"},
      {"naziv": "HRVATSKA SELJAČKA STRANKA - HSS"},
      {"naziv": "\"DALIJA OREŠKOVIĆ I LJUDI S IMENOM I PREZIMENOM\" - \"DO i SIP\""},
      {"naziv": "GRAĐANSKO-LIBERALNI SAVEZ - GLAS"}
    ],
    "jedinstvenaSifra": "004017179244306",
    "glasova": 459,
    "naziv": "SDP, CENTAR, HSS, \"DO i SIP\", GLAS",
    "posto": "4,19",
    "lista": [{
      "rbr": 1,
      "naziv": "KRISTINA IKIĆ BANIČEK",
      "glasova": 120,
      "posto": "26,14"
    },{
      "rbr": 2,
      "naziv": "IVICA LUKANOVIĆ",
      "glasova": 83,
      "posto": "18,08"
    },{
      "rbr": 3,
      "naziv": "SANDRA KRPAN",
      "glasova": 53,
      "posto": "11,54"
    },{
      "rbr": 4,
      "naziv": "DALIBOR DOMITROVIĆ",
      "glasova": 43,
      "posto": "9,36"
    },{
      "rbr": 5,
      "naziv": "BRANKA BAKŠIĆ-MITIĆ",
      "glasova": 75,
      "posto": "16,33"
    },{
      "rbr": 6,
      "naziv": "MIRELA MIKIĆ MUHA",
      "glasova": 34,
      "posto": "7,40"
    },{
      "rbr": 7,
      "naziv": "ZDENKO MOČNIK",
      "glasova": 30,
      "posto": "6,53"
    },{
      "rbr": 8,
      "naziv": "MATEJ MOSTARAC",
      "glasova": 0,
      "posto": "0,00"
    },{
      "rbr": 9,
      "naziv": "DRAGICA MALOVIĆ",
      "glasova": 0,
      "posto": "0,00"
    },{
      "rbr": 10,
      "naziv": "TONI ŠTIMAC",
      "glasova": 8,
      "posto": "1,74"
    },{
      "rbr": 11,
      "naziv": "KREŠIMIR ČULINOVIĆ",
      "glasova": 0,
      "posto": "0,00"
    },{
      "rbr": 12,
      "naziv": "JASMINKA MOLNAR",
      "glasova": 5,
      "posto": "1,08"
    },{
      "rbr": 13,
      "naziv": "TONI HERENDA",
      "glasova": 8,
      "posto": "1,74"
    },{
      "rbr": 14,
      "naziv": "VOJKO OBERSNEL",
      "glasova": 0,
      "posto": "0,00"
    }]
  },{
    "rbr": 8,
    "stranke": [
      {"naziv": "MOŽEMO! - POLITIČKA PLATFORMA"},
      {"naziv": "HOĆEMO PRAVEDNO"}
    ],
    "jedinstvenaSifra": "255297",
    "glasova": 389,
    "naziv": "MOŽEMO! - POLITIČKA PLATFORMA, HOĆEMO PRAVEDNO",
    "posto": "3,55",
    "lista": [{
      "rbr": 1,
      "naziv": "DRAŽENKA POLOVIĆ",
      "glasova": 104,
      "posto": "26,73"
    },{
      "rbr": 2,
      "naziv": "IVA IVŠIĆ",
      "glasova": 93,
      "posto": "23,90"
    },{
      "rbr": 3,
      "naziv": "DOBRIŠA ADAMEC",
      "glasova": 99,
      "posto": "25,44"
    },{
      "rbr": 4,
      "naziv": "ORJEN PETKOVIĆ",
      "glasova": 16,
      "posto": "4,11"
    },{
      "rbr": 5,
      "naziv": "ANA ALAPIĆ",
      "glasova": 0,
      "posto": "0,00"
    },{
      "rbr": 6,
      "naziv": "DIMITRIJE BIRAČ",
      "glasova": 7,
      "posto": "1,79"
    },{
      "rbr": 7,
      "naziv": "VLASTA LENDLER-ADAMEC",
      "glasova": 27,
      "posto": "6,94"
    },{
      "rbr": 8,
      "naziv": "DUBRAVKO GOLUBIĆ",
      "glasova": 43,
      "posto": "11,05"
    },{
      "rbr": 9,
      "naziv": "VLATKA KRIZMANIĆ",
      "glasova": 0,
      "posto": "0,00"
    },{
      "rbr": 10,
      "naziv": "SANDA ĆAKIĆ",
      "glasova": 0,
      "posto": "0,00"
    },{
      "rbr": 11,
      "naziv": "ZLATKO DOMLJAN",
      "glasova": 0,
      "posto": "0,00"
    },{
      "rbr": 12,
      "naziv": "NEVENKA SUDAC-VINSKI",
      "glasova": 0,
      "posto": "0,00"
    },{
      "rbr": 13,
      "naziv": "SNJEŽANA DRVODELIĆ",
      "glasova": 0,
      "posto": "0,00"
    },{
      "rbr": 14,
      "naziv": "ANA MATAN",
      "glasova": 0,
      "posto": "0,00"
    }]
  },{
    "rbr": 9,
    "stranke": [
      {"naziv": "HRVATSKA STRANKA PRAVA - HSP"},
      {"naziv": "HRVATSKO BILO"},
      {"naziv": "HRVATSKA DEMOKRATSKA SELJAČKA STRANKA - HDSS"}
    ],
    "jedinstvenaSifra": "007018308",
    "glasova": 331,
    "naziv": "HSP, HRVATSKO BILO, HDSS",
    "posto": "3,02",
    "lista": [{
      "rbr": 1,
      "naziv": "ANTE PRKAČIN",
      "glasova": 96,
      "posto": "29,00"
    },{
      "rbr": 2,
      "naziv": "NIKICA AUGUSTINOVIĆ",
      "glasova": 57,
      "posto": "17,22"
    },{
      "rbr": 3,
      "naziv": "ŽELJKO BELANEK",
      "glasova": 47,
      "posto": "14,19"
    },{
      "rbr": 4,
      "naziv": "MARIA ĆAĆIĆ",
      "glasova": 38,
      "posto": "11,48"
    },{
      "rbr": 5,
      "naziv": "GORAN MARKOVAC",
      "glasova": 51,
      "posto": "15,40"
    },{
      "rbr": 6,
      "naziv": "MARIO VRSELJA",
      "glasova": 23,
      "posto": "6,94"
    },{
      "rbr": 7,
      "naziv": "DAMIR PUČAK",
      "glasova": 13,
      "posto": "3,92"
    },{
      "rbr": 8,
      "naziv": "RENATA ČAČIĆ",
      "glasova": 1,
      "posto": "0,30"
    },{
      "rbr": 9,
      "naziv": "ANTONIA LOVREKOVIĆ",
      "glasova": 0,
      "posto": "0,00"
    },{
      "rbr": 10,
      "naziv": "ĐURĐICA JURIĆ",
      "glasova": 3,
      "posto": "0,90"
    },{
      "rbr": 11,
      "naziv": "LEONI GLAD",
      "glasova": 0,
      "posto": "0,00"
    },{
      "rbr": 12,
      "naziv": "JOSIP ŽARAK",
      "glasova": 2,
      "posto": "0,60"
    },{
      "rbr": 13,
      "naziv": "DIJANA LIPOVAC",
      "glasova": 0,
      "posto": "0,00"
    },{
      "rbr": 14,
      "naziv": "IVAN PIŠKOR",
      "glasova": 0,
      "posto": "0,00"
    }]
  },{
    "rbr": 10,
    "stranke": [
      {"naziv": "MOST"},
      {"naziv": "HRVATSKI SUVERENISTI"},
      {"naziv": "HRVATSKA KONZERVATIVNA STRANKA - HKS"},
      {"naziv": "NEZAVISNA LISTA MLADIH - NLM"}
    ],
    "jedinstvenaSifra": "131165188263",
    "glasova": 317,
    "naziv": "MOST, HRVATSKI SUVERENISTI, HKS, NLM",
    "posto": "2,89",
    "lista": [{
      "rbr": 1,
      "naziv": "ZVONIMIR TROSKOT",
      "glasova": 91,
      "posto": "28,70"
    },{
      "rbr": 2,
      "naziv": "LUCA GAŠPAR ŠAKO",
      "glasova": 76,
      "posto": "23,97"
    },{
      "rbr": 3,
      "naziv": "ŠIME GLIGORA",
      "glasova": 81,
      "posto": "25,55"
    },{
      "rbr": 4,
      "naziv": "ANAMARIJA JURKOVIĆ",
      "glasova": 9,
      "posto": "2,83"
    },{
      "rbr": 5,
      "naziv": "FRANO ČIRKO",
      "glasova": 0,
      "posto": "0,00"
    },{
      "rbr": 6,
      "naziv": "HRVOJE BEZJAK",
      "glasova": 3,
      "posto": "0,94"
    },{
      "rbr": 7,
      "naziv": "NEVIO KLARIĆ",
      "glasova": 19,
      "posto": "5,99"
    },{
      "rbr": 8,
      "naziv": "ROBERT GROZA",
      "glasova": 38,
      "posto": "11,98"
    },{
      "rbr": 9,
      "naziv": "LJILJANA LAMPERT",
      "glasova": 0,
      "posto": "0,00"
    },{
      "rbr": 10,
      "naziv": "TANJA ŠIMANIĆ",
      "glasova": 0,
      "posto": "0,00"
    },{
      "rbr": 11,
      "naziv": "RAFAELA SURINA",
      "glasova": 0,
      "posto": "0,00"
    },{
      "rbr": 12,
      "naziv": "GORDANA BREZINŠĆAK ĐOZO",
      "glasova": 0,
      "posto": "0,00"
    },{
      "rbr": 13,
      "naziv": "IVAN BULAJA",
      "glasova": 0,
      "posto": "0,00"
    },{
      "rbr": 14,
      "naziv": "FRANE VUČETIĆ",
      "glasova": 0,
      "posto": "0,00"
    }]
  },{
    "rbr": 11,
    "stranke": [
      {"naziv": "ODLUČNOST I PRAVEDNOST - OIP"}
    ],
    "jedinstvenaSifra": "300",
    "glasova": 258,
    "naziv": "OIP",
    "posto": "2,35",
    "lista": [{
      "rbr": 1,
      "naziv": "ROBERT KRPES",
      "glasova": 67,
      "posto": "25,96"
    },{
      "rbr": 2,
      "naziv": "ANA KRIVAK",
      "glasova": 48,
      "posto": "18,60"
    },{
      "rbr": 3,
      "naziv": "ZVONKO TOMLJENOVIĆ",
      "glasova": 13,
      "posto": "5,03"
    },{
      "rbr": 4,
      "naziv": "DANIJEL OPRAUŠ",
      "glasova": 0,
      "posto": "0,00"
    },{
      "rbr": 5,
      "naziv": "TOMISLAV BOŽIČEVIĆ",
      "glasova": 34,
      "posto": "13,17"
    },{
      "rbr": 6,
      "naziv": "IVAN JAKUBEK",
      "glasova": 0,
      "posto": "0,00"
    },{
      "rbr": 7,
      "naziv": "KRISTIJAN ŠANDOR",
      "glasova": 0,
      "posto": "0,00"
    },{
      "rbr": 8,
      "naziv": "VEDRAN ČANIĆ",
      "glasova": 0,
      "posto": "0,00"
    },{
      "rbr": 9,
      "naziv": "DALIBOR DOKMANIĆ",
      "glasova": 0,
      "posto": "0,00"
    },{
      "rbr": 10,
      "naziv": "IVAN MATAK",
      "glasova": 0,
      "posto": "0,00"
    },{
      "rbr": 11,
      "naziv": "MARIO MARINCEL",
      "glasova": 0,
      "posto": "0,00"
    },{
      "rbr": 12,
      "naziv": "JOSO PERKOVIĆ",
      "glasova": 0,
      "posto": "0,00"
    },{
      "rbr": 13,
      "naziv": "BORIS MORO",
      "glasova": 0,
      "posto": "0,00"
    },{
      "rbr": 14,
      "naziv": "IVANA FRANUL",
      "glasova": 96,
      "posto": "37,20"
    }]
  },{
    "rbr": 12,
    "stranke": [
      {"naziv": "RADNIČKA FRONTA - RF"}
    ],
    "jedinstvenaSifra": "168",
    "glasova": 189,
    "naziv": "RF",
    "posto": "1,72",
    "lista": [{
      "rbr": 1,
      "naziv": "ANTON GLASNOVIĆ",
      "glasova": 60,
      "posto": "31,74"
    },{
      "rbr": 2,
      "naziv": "SANDRA KASUNIĆ",
      "glasova": 44,
      "posto": "23,28"
    },{
      "rbr": 3,
      "naziv": "ANDREJ GEORGIEVSKI",
      "glasova": 27,
      "posto": "14,28"
    },{
      "rbr": 4,
      "naziv": "RUŽICA KARTELO",
      "glasova": 15,
      "posto": "7,93"
    },{
      "rbr": 5,
      "naziv": "VELIBOR VALENTA",
      "glasova": 33,
      "posto": "17,46"
    },{
      "rbr": 6,
      "naziv": "KSENIJA BATALO",
      "glasova": 7,
      "posto": "3,70"
    },{
      "rbr": 7,
      "naziv": "NIKOLA GVOJIĆ",
      "glasova": 3,
      "posto": "1,58"
    },{
      "rbr": 8,
      "naziv": "JASMINKA BUIĆ",
      "glasova": 0,
      "posto": "0,00"
    },{
      "rbr": 9,
      "naziv": "MLADEN BRAJAK",
      "glasova": 0,
      "posto": "0,00"
    },{
      "rbr": 10,
      "naziv": "ANITA BUHIN",
      "glasova": 0,
      "posto": "0,00"
    },{
      "rbr": 11,
      "naziv": "JOSIP IVANČIĆ",
      "glasova": 0,
      "posto": "0,00"
    },{
      "rbr": 12,
      "naziv": "MARIO ZAJIČEK",
      "glasova": 0,
      "posto": "0,00"
    },{
      "rbr": 13,
      "naziv": "IVICA ŠUSTIĆ",
      "glasova": 0,
      "posto": "0,00"
    },{
      "rbr": 14,
      "naziv": "MIRTA MATAIJA",
      "glasova": 0,
      "posto": "0,00"
    }]
  },{
    "rbr": 13,
    "stranke": [
      {"naziv": "NARODNA STRANKA - REFORMISTI - REFORMISTI"},
      {"naziv": "PRIMORSKO GORANSKI SAVEZ - PGS"},
      {"naziv": "ISTARSKI DEMOKRATSKI SABOR - IDS"},
      {"naziv": "UNIJA KVARNERA - UNIJA"},
      {"naziv": "STRANKA HRVATSKIH UMIROVLJENIKA - UMIROVLJENICI - UMIROVLJENICI"}
    ],
    "jedinstvenaSifra": "005006162178241",
    "glasova": 167,
    "naziv": "REFORMISTI, PGS, IDS, UNIJA, UMIROVLJENICI",
    "posto": "1,52",
    "lista": [{
      "rbr": 1,
      "naziv": "ALENKA KOŠIŠA ČIČIN-ŠAIN",
      "glasova": 58,
      "posto": "34,73"
    },{
      "rbr": 2,
      "naziv": "SNJEŽANA PODOBNIK",
      "glasova": 40,
      "posto": "23,95"
    },{
      "rbr": 3,
      "naziv": "MIRELLA MLADIN",
      "glasova": 48,
      "posto": "28,74"
    },{
      "rbr": 4,
      "naziv": "MARKO SOBOTINČIĆ",
      "glasova": 0,
      "posto": "0,00"
    },{
      "rbr": 5,
      "naziv": "ZINKA BRATUŠA",
      "glasova": 0,
      "posto": "0,00"
    },{
      "rbr": 6,
      "naziv": "DUŠAN ŠTEMBERGER",
      "glasova": 0,
      "posto": "0,00"
    },{
      "rbr": 7,
      "naziv": "ŽELJKO BEDEKOVIĆ",
      "glasova": 3,
      "posto": "1,79"
    },{
      "rbr": 8,
      "naziv": "NATAŠA BLAŽEVIĆ STARČEVIĆ",
      "glasova": 18,
      "posto": "10,77"
    },{
      "rbr": 9,
      "naziv": "MARIJAN ŠTEFANKO",
      "glasova": 0,
      "posto": "0,00"
    },{
      "rbr": 10,
      "naziv": "DAVID MAROT",
      "glasova": 0,
      "posto": "0,00"
    },{
      "rbr": 11,
      "naziv": "INGRID KRŠULJA",
      "glasova": 0,
      "posto": "0,00"
    },{
      "rbr": 12,
      "naziv": "SANDRO VIZLER",
      "glasova": 0,
      "posto": "0,00"
    },{
      "rbr": 13,
      "naziv": "IVANA TRTANJ",
      "glasova": 0,
      "posto": "0,00"
    },{
      "rbr": 14,
      "naziv": "NEDJELJKO PINEZIĆ",
      "glasova": 0,
      "posto": "0,00"
    }]
  },{
    "rbr": 14,
    "stranke": [
      {"naziv": "FOKUS"},
      {"naziv": "REPUBLIKA"}
    ],
    "jedinstvenaSifra": "270310",
    "glasova": 100,
    "naziv": "FOKUS, REPUBLIKA",
    "posto": "0,91",
    "lista": [{
      "rbr": 1,
      "naziv": "IVAN JANKOVIĆ",
      "glasova": 43,
      "posto": "43,00"
    },{
      "rbr": 2,
      "naziv": "GORAN BUKOVAC",
      "glasova": 0,
      "posto": "0,00"
    },{
      "rbr": 3,
      "naziv": "HRVOJE JURKOVIĆ",
      "glasova": 0,
      "posto": "0,00"
    },{
      "rbr": 4,
      "naziv": "KREŠIMIR KUTEROVAC",
      "glasova": 0,
      "posto": "0,00"
    },{
      "rbr": 5,
      "naziv": "VIKTORIJA ROGIĆ",
      "glasova": 2,
      "posto": "2,00"
    },{
      "rbr": 6,
      "naziv": "SABRINA PEJIĆ",
      "glasova": 8,
      "posto": "8,00"
    },{
      "rbr": 7,
      "naziv": "MAJA LINIĆ",
      "glasova": 0,
      "posto": "0,00"
    },{
      "rbr": 8,
      "naziv": "ARIJANA MRZLJAK",
      "glasova": 0,
      "posto": "0,00"
    },{
      "rbr": 9,
      "naziv": "DAVORKA ŠUŠNJIĆ",
      "glasova": 32,
      "posto": "32,00"
    },{
      "rbr": 10,
      "naziv": "ZVONIMIR CRNOGORAC",
      "glasova": 15,
      "posto": "15,00"
    },{
      "rbr": 11,
      "naziv": "GRETA BURŠIĆ",
      "glasova": 0,
      "posto": "0,00"
    },{
      "rbr": 12,
      "naziv": "MARKO LESKOVAR",
      "glasova": 0,
      "posto": "0,00"
    },{
      "rbr": 13,
      "naziv": "IRENA PEJAKOVIĆ",
      "glasova": 0,
      "posto": "0,00"
    },{
      "rbr": 14,
      "naziv": "DANIJEL TUŠAK",
      "glasova": 0,
      "posto": "0,00"
    }]
  },{
    "rbr": 15,
    "stranke": [
      {"naziv": "HRVATSKA DEMOKRATSKA ZAJEDNICA - HDZ"},
      {"naziv": "HRVATSKA SOCIJALNO - LIBERALNA STRANKA - HSLS"},
      {"naziv": "HRVATSKA DEMOKRŠĆANSKA STRANKA - HDS"},
      {"naziv": "HRVATSKA NARODNA STRANKA - LIBERALNI DEMOKRATI - HNS"},
      {"naziv": "HRVATSKA STRANKA UMIROVLJENIKA - HSU"}
    ],
    "jedinstvenaSifra": "001002003011023",
    "glasova": 80,
    "naziv": "HDZ, HSLS, HDS, HNS, HSU",
    "posto": "0,73",
    "lista": [{
      "rbr": 1,
      "naziv": "TOMO MEDVED",
      "glasova": 42,
      "posto": "52,50"
    },{
      "rbr": 2,
      "naziv": "IVAN CELJAK",
      "glasova": 27,
      "posto": "33,75"
    },{
      "rbr": 3,
      "naziv": "MARTINA FURDEK-HAJDIN",
      "glasova": 3,
      "posto": "3,75"
    },{
      "rbr": 4,
      "naziv": "MARIJANA PETIR",
      "glasova": 0,
      "posto": "0,00"
    },{
      "rbr": 5,
      "naziv": "ERNEST PETRY",
      "glasova": 8,
      "posto": "10,00"
    },{
      "rbr": 6,
      "naziv": "VESELKO GABRIČEVIĆ",
      "glasova": 0,
      "posto": "0,00"
    },{
      "rbr": 7,
      "naziv": "NIKOLINA BRNJAC",
      "glasova": 0,
      "posto": "0,00"
    },{
      "rbr": 8,
      "naziv": "MAJDA BURIĆ",
      "glasova": 0,
      "posto": "0,00"
    },{
      "rbr": 9,
      "naziv": "RADE ŠIMIČEVIĆ",
      "glasova": 0,
      "posto": "0,00"
    },{
      "rbr": 10,
      "naziv": "MAGDALENA KOMES",
      "glasova": 0,
      "posto": "0,00"
    },{
      "rbr": 11,
      "naziv": "DAMIR MANDIĆ",
      "glasova": 0,
      "posto": "0,00"
    },{
      "rbr": 12,
      "naziv": "ANĐELKA SALOPEK",
      "glasova": 0,
      "posto": "0,00"
    },{
      "rbr": 13,
      "naziv": "SANJA MIOKOVIĆ",
      "glasova": 0,
      "posto": "0,00"
    },{
      "rbr": 14,
      "naziv": "IVAN DABO",
      "glasova": 0,
      "posto": "0,00"
    }]
  },{
    "rbr": 16,
    "stranke": [
      {"naziv": "SOCIJALDEMOKRATI"},
      {"naziv": "HRVATSKI LABURISTI - STRANKA RADA - LABURISTI"},
      {"naziv": "DEMOKRATI"}
    ],
    "jedinstvenaSifra": "100251299",
    "glasova": 80,
    "naziv": "SOCIJALDEMOKRATI, LABURISTI, DEMOKRATI",
    "posto": "0,73",
    "lista": [{
      "rbr": 1,
      "naziv": "NATAŠA NOVAKOVIĆ",
      "glasova": 42,
      "posto": "52,50"
    },{
      "rbr": 2,
      "naziv": "DAVID BREGOVAC",
      "glasova": 27,
      "posto": "33,75"
    },{
      "rbr": 3,
      "naziv": "TOMISLAV ZRINSKI",
      "glasova": 3,
      "posto": "3,75"
    },{
      "rbr": 4,
      "naziv": "KATARINA PLEŠA JAKOVLJEVIĆ",
      "glasova": 0,
      "posto": "0,00"
    },{
      "rbr": 5,
      "naziv": "DALIBOR ŽILJAK",
      "glasova": 8,
      "posto": "10,00"
    },{
      "rbr": 6,
      "naziv": "TIHANA POCHOBRADSKY",
      "glasova": 0,
      "posto": "0,00"
    },{
      "rbr": 7,
      "naziv": "MOMIR RAJŠIĆ",
      "glasova": 0,
      "posto": "0,00"
    },{
      "rbr": 8,
      "naziv": "TANJA JOVIĆ",
      "glasova": 0,
      "posto": "0,00"
    },{
      "rbr": 9,
      "naziv": "LUKA PAVLOVIĆ",
      "glasova": 0,
      "posto": "0,00"
    },{
      "rbr": 10,
      "naziv": "JURICA KLARIĆ",
      "glasova": 0,
      "posto": "0,00"
    },{
      "rbr": 11,
      "naziv": "KRISTINA KOSTADINOVSKA",
      "glasova": 0,
      "posto": "0,00"
    },{
      "rbr": 12,
      "naziv": "TAMARA VIDAČEK",
      "glasova": 0,
      "posto": "0,00"
    },{
      "rbr": 13,
      "naziv": "BOŽIDAR RAUCH",
      "glasova": 0,
      "posto": "0,00"
    },{
      "rbr": 14,
      "naziv": "BRANKO KUKURIN",
      "glasova": 0,
      "posto": "0,00"
    }]
  }]
}
