{
  "izbori": "Zastupnički izbori 2024",
  "datum": "15.04.2024.",
  "vrijeme": "15:15",
  "izboriOznaka": "02",
  "ijSifra": "009",
  "bmSifra": "000",
  "ijNaziv": "IX. IZBORNA JEDINICA",
  "gropNaziv": "KAŠTELA",
  "bmNaziv": "",
  "bmZatvoreno": 16,
  "bmUkupno": 21,
  "biraciUkupno": 26976,
  "biraciGlasovalo": 10528,
  "biraciGlasovaloPosto": "39,03",
  "listiciUkupno": 10525,
  "listiciVazeci": 10316,
  "listiciVazeciPosto": "98,01",
  "listiciNevazeci": 209,
  "listiciNevazeciPosto": "1,99",
  "napomena": "* - objavljeni rezultati sadrže podatke samo s redovnih biračkih mjesta",
  "napomena2": "",
  "lista": [{
    "rbr": 1,
    "stranke": [
      {"naziv": "RIČARD NEZAVISNI"}
    ],
    "jedinstvenaSifra": "313",
    "glasova": 3618,
    "naziv": "RIČARD NEZAVISNI",
    "posto": "35,07",
    "lista": [{
      "rbr": 1,
      "naziv": "MARIN PIJACA",
      "glasova": 695,
      "posto": "19,20"
    },{
      "rbr": 2,
      "naziv": "DRITA DUNATOV",
      "glasova": 623,
      "posto": "17,21"
    },{
      "rbr": 3,
      "naziv": "RINO RADOS",
      "glasova": 695,
      "posto": "19,20"
    },{
      "rbr": 4,
      "naziv": "ANADIA KOŽUL",
      "glasova": 224,
      "posto": "6,19"
    },{
      "rbr": 5,
      "naziv": "ŽELJKO KRIZMAN",
      "glasova": 115,
      "posto": "3,17"
    },{
      "rbr": 6,
      "naziv": "ADELA FRANK",
      "glasova": 191,
      "posto": "5,27"
    },{
      "rbr": 7,
      "naziv": "VITO DOVRANIĆ",
      "glasova": 262,
      "posto": "7,24"
    },{
      "rbr": 8,
      "naziv": "LUCIA MATEŠIĆ",
      "glasova": 333,
      "posto": "9,20"
    },{
      "rbr": 9,
      "naziv": "MARKO ŽORŽ",
      "glasova": 42,
      "posto": "1,16"
    },{
      "rbr": 10,
      "naziv": "ANTONIA MEŠTROVIĆ",
      "glasova": 80,
      "posto": "2,21"
    },{
      "rbr": 11,
      "naziv": "IVAN JURKOVIĆ",
      "glasova": 99,
      "posto": "2,73"
    },{
      "rbr": 12,
      "naziv": "BRANKICA MATULJ",
      "glasova": 22,
      "posto": "0,60"
    },{
      "rbr": 13,
      "naziv": "SRĐAN ČUKLIN",
      "glasova": 53,
      "posto": "1,46"
    },{
      "rbr": 14,
      "naziv": "DAVOR OLIĆ",
      "glasova": 51,
      "posto": "1,40"
    }]
  },{
    "rbr": 2,
    "stranke": [
      {"naziv": "AKCIJA ZA PROMJENE"},
      {"naziv": "AGRARNA STRANKA - POKRET ZA HRVATSKU POLJOPRIVREDU"}
    ],
    "jedinstvenaSifra": "303305",
    "glasova": 2420,
    "naziv": "AKCIJA ZA PROMJENE, AGRARNA STRANKA - POKRET ZA HRVATSKU POLJOPRIVREDU",
    "posto": "23,45",
    "lista": [{
      "rbr": 1,
      "naziv": "MARKO JELIĆ",
      "glasova": 467,
      "posto": "19,29"
    },{
      "rbr": 2,
      "naziv": "IVICA ŽUVELA",
      "glasova": 155,
      "posto": "6,40"
    },{
      "rbr": 3,
      "naziv": "MARKO GRUBELIĆ",
      "glasova": 81,
      "posto": "3,34"
    },{
      "rbr": 4,
      "naziv": "KRISTINA PERIĆ",
      "glasova": 131,
      "posto": "5,41"
    },{
      "rbr": 5,
      "naziv": "BRUNO MIŠLOV",
      "glasova": 178,
      "posto": "7,35"
    },{
      "rbr": 6,
      "naziv": "SNJEŽANA JOLIĆ",
      "glasova": 225,
      "posto": "9,29"
    },{
      "rbr": 7,
      "naziv": "SANJA RADIN-MAČUKAT",
      "glasova": 34,
      "posto": "1,40"
    },{
      "rbr": 8,
      "naziv": "JASMINKA TOMIĆ",
      "glasova": 56,
      "posto": "2,31"
    },{
      "rbr": 9,
      "naziv": "SANJA LULIĆ",
      "glasova": 443,
      "posto": "18,30"
    },{
      "rbr": 10,
      "naziv": "JELENA KAIĆ",
      "glasova": 419,
      "posto": "17,31"
    },{
      "rbr": 11,
      "naziv": "ANTE ŠEPAROVIĆ",
      "glasova": 18,
      "posto": "0,74"
    },{
      "rbr": 12,
      "naziv": "LIDIJA SLAVIĆ",
      "glasova": 34,
      "posto": "1,40"
    },{
      "rbr": 13,
      "naziv": "ZLATKO ĆESIĆ",
      "glasova": 36,
      "posto": "1,48"
    },{
      "rbr": 14,
      "naziv": "GORAN MLADENOVIĆ",
      "glasova": 56,
      "posto": "2,31"
    }]
  },{
    "rbr": 3,
    "stranke": [
      {"naziv": "JAVNO DOBRO"}
    ],
    "jedinstvenaSifra": "309",
    "glasova": 1040,
    "naziv": "JAVNO DOBRO",
    "posto": "10,08",
    "lista": [{
      "rbr": 1,
      "naziv": "MARJANA BOTIĆ",
      "glasova": 208,
      "posto": "20,00"
    },{
      "rbr": 2,
      "naziv": "IVAN TEŠIJA",
      "glasova": 184,
      "posto": "17,69"
    },{
      "rbr": 3,
      "naziv": "ŽELJAN JURLIN",
      "glasova": 208,
      "posto": "20,00"
    },{
      "rbr": 4,
      "naziv": "MIRTA TOMAS",
      "glasova": 71,
      "posto": "6,82"
    },{
      "rbr": 5,
      "naziv": "ZRINKA MATKOVIĆ VICULIN",
      "glasova": 38,
      "posto": "3,65"
    },{
      "rbr": 6,
      "naziv": "VJERAN DUVNJAK",
      "glasova": 59,
      "posto": "5,67"
    },{
      "rbr": 7,
      "naziv": "ROBERTO JENJIĆ",
      "glasova": 81,
      "posto": "7,78"
    },{
      "rbr": 8,
      "naziv": "TATJANA PAUN",
      "glasova": 101,
      "posto": "9,71"
    },{
      "rbr": 9,
      "naziv": "NINA VELČIĆ BUSANIĆ",
      "glasova": 4,
      "posto": "0,38"
    },{
      "rbr": 10,
      "naziv": "MARIO ŽIVKOVIĆ",
      "glasova": 29,
      "posto": "2,78"
    },{
      "rbr": 11,
      "naziv": "TEA KURTIĆ",
      "glasova": 36,
      "posto": "3,46"
    },{
      "rbr": 12,
      "naziv": "SLAVEN ŠIMIĆ",
      "glasova": 2,
      "posto": "0,19"
    },{
      "rbr": 13,
      "naziv": "LADISLAV RADOSLOVIĆ",
      "glasova": 12,
      "posto": "1,15"
    },{
      "rbr": 14,
      "naziv": "ARSEN MUJAGIĆ",
      "glasova": 7,
      "posto": "0,67"
    }]
  },{
    "rbr": 4,
    "stranke": [
      {"naziv": "HRVATSKA STRANKA PRAVA - HSP"},
      {"naziv": "HRVATSKO BILO"},
      {"naziv": "HRVATSKA DEMOKRATSKA SELJAČKA STRANKA - HDSS"}
    ],
    "jedinstvenaSifra": "007018308",
    "glasova": 410,
    "naziv": "HSP, HRVATSKO BILO, HDSS",
    "posto": "3,97",
    "lista": [{
      "rbr": 1,
      "naziv": "ŽELJKO GLASNOVIĆ",
      "glasova": 84,
      "posto": "20,48"
    },{
      "rbr": 2,
      "naziv": "ANGELO ŽILIĆ",
      "glasova": 56,
      "posto": "13,65"
    },{
      "rbr": 3,
      "naziv": "MARKO SKEJO",
      "glasova": 43,
      "posto": "10,48"
    },{
      "rbr": 4,
      "naziv": "LUKA PODRUG",
      "glasova": 34,
      "posto": "8,29"
    },{
      "rbr": 5,
      "naziv": "ANA NIMAC",
      "glasova": 55,
      "posto": "13,41"
    },{
      "rbr": 6,
      "naziv": "IVANKA ŠPRALJA",
      "glasova": 31,
      "posto": "7,56"
    },{
      "rbr": 7,
      "naziv": "LUCIJA SKORUP",
      "glasova": 18,
      "posto": "4,39"
    },{
      "rbr": 8,
      "naziv": "GORDANA PUTNIK",
      "glasova": 16,
      "posto": "3,90"
    },{
      "rbr": 9,
      "naziv": "HELENA MIŠKOVIĆ DUŽEVIĆ",
      "glasova": 16,
      "posto": "3,90"
    },{
      "rbr": 10,
      "naziv": "IVONA ŠPRALJA",
      "glasova": 16,
      "posto": "3,90"
    },{
      "rbr": 11,
      "naziv": "MLADEN BOBIĆ",
      "glasova": 7,
      "posto": "1,70"
    },{
      "rbr": 12,
      "naziv": "ALBERT BOŽULIĆ",
      "glasova": 15,
      "posto": "3,65"
    },{
      "rbr": 13,
      "naziv": "ANTO KOMLJEN",
      "glasova": 6,
      "posto": "1,46"
    },{
      "rbr": 14,
      "naziv": "MATE LUKIĆ",
      "glasova": 6,
      "posto": "1,46"
    }]
  },{
    "rbr": 5,
    "stranke": [
      {"naziv": "AUTOHTONA - HRVATSKA STRANKA PRAVA - DRAŽEN KELEMINEC - A - HSP - Dražen Keleminec"}
    ],
    "jedinstvenaSifra": "049",
    "glasova": 318,
    "naziv": "A - HSP - Dražen Keleminec",
    "posto": "3,08",
    "lista": [{
      "rbr": 1,
      "naziv": "ELVIS MEIĆ-SIDIĆ",
      "glasova": 70,
      "posto": "22,01"
    },{
      "rbr": 2,
      "naziv": "PAŠKO UJAKOVIĆ",
      "glasova": 61,
      "posto": "19,18"
    },{
      "rbr": 3,
      "naziv": "MATE GOTOVAC",
      "glasova": 70,
      "posto": "22,01"
    },{
      "rbr": 4,
      "naziv": "TANJA MESAROŠ",
      "glasova": 28,
      "posto": "8,80"
    },{
      "rbr": 5,
      "naziv": "IVICA BAŠIĆ",
      "glasova": 3,
      "posto": "0,94"
    },{
      "rbr": 6,
      "naziv": "MARIJA MIOČ",
      "glasova": 14,
      "posto": "4,40"
    },{
      "rbr": 7,
      "naziv": "ANTO VUKADIN",
      "glasova": 32,
      "posto": "10,06"
    },{
      "rbr": 8,
      "naziv": "PETAR MILAVIĆ",
      "glasova": 38,
      "posto": "11,94"
    },{
      "rbr": 9,
      "naziv": "SNJEŽANA PLETIKOSA",
      "glasova": 0,
      "posto": "0,00"
    },{
      "rbr": 10,
      "naziv": "KREŠIMIR BAKOVIĆ",
      "glasova": 0,
      "posto": "0,00"
    },{
      "rbr": 11,
      "naziv": "KRISTINA VUKADIN",
      "glasova": 2,
      "posto": "0,62"
    },{
      "rbr": 12,
      "naziv": "JOSIP MESAROŠ",
      "glasova": 0,
      "posto": "0,00"
    },{
      "rbr": 13,
      "naziv": "KRISTINA UJAKOVIĆ",
      "glasova": 0,
      "posto": "0,00"
    },{
      "rbr": 14,
      "naziv": "LJILJA VUKADIN",
      "glasova": 0,
      "posto": "0,00"
    }]
  },{
    "rbr": 6,
    "stranke": [
      {"naziv": "HRVATSKA STRANKA PRAVA DR. ANTE STARČEVIĆ"}
    ],
    "jedinstvenaSifra": "096",
    "glasova": 318,
    "naziv": "HRVATSKA STRANKA PRAVA DR. ANTE STARČEVIĆ",
    "posto": "3,08",
    "lista": [{
      "rbr": 1,
      "naziv": "SLOBODAN DEVIĆ",
      "glasova": 70,
      "posto": "22,01"
    },{
      "rbr": 2,
      "naziv": "IVICA MIKULIĆ",
      "glasova": 47,
      "posto": "14,77"
    },{
      "rbr": 3,
      "naziv": "MIRANDA JAMNICKI DOIMI DI DELUPIS",
      "glasova": 38,
      "posto": "11,94"
    },{
      "rbr": 4,
      "naziv": "NENAD KLARIĆ",
      "glasova": 28,
      "posto": "8,80"
    },{
      "rbr": 5,
      "naziv": "IVE MILETIĆ",
      "glasova": 40,
      "posto": "12,57"
    },{
      "rbr": 6,
      "naziv": "VESNA PALEKA",
      "glasova": 22,
      "posto": "6,91"
    },{
      "rbr": 7,
      "naziv": "NATHALIE DIJOUX BRALIĆ",
      "glasova": 16,
      "posto": "5,03"
    },{
      "rbr": 8,
      "naziv": "ANTE KATALINIĆ",
      "glasova": 12,
      "posto": "3,77"
    },{
      "rbr": 9,
      "naziv": "ŽELJKA BARIČEVIĆ",
      "glasova": 6,
      "posto": "1,88"
    },{
      "rbr": 10,
      "naziv": "ENA BLAGOJEVIĆ",
      "glasova": 16,
      "posto": "5,03"
    },{
      "rbr": 11,
      "naziv": "MARIO ZRILIĆ",
      "glasova": 2,
      "posto": "0,62"
    },{
      "rbr": 12,
      "naziv": "JASMINKA KEKIĆ ŽEPINA",
      "glasova": 16,
      "posto": "5,03"
    },{
      "rbr": 13,
      "naziv": "SILVIJA HLUBNI BARABA",
      "glasova": 4,
      "posto": "1,25"
    },{
      "rbr": 14,
      "naziv": "BOŽIDAR LOKIN",
      "glasova": 1,
      "posto": "0,31"
    }]
  },{
    "rbr": 7,
    "stranke": [
      {"naziv": "SOCIJALDEMOKRATI"},
      {"naziv": "ISTARSKI DEMOKRATSKI SABOR - IDS"},
      {"naziv": "PRIMORSKO GORANSKI SAVEZ - PGS"},
      {"naziv": "HRVATSKI LABURISTI - STRANKA RADA - LABURISTI"},
      {"naziv": "DEMOKRATI"}
    ],
    "jedinstvenaSifra": "005006100251299",
    "glasova": 317,
    "naziv": "SOCIJALDEMOKRATI, IDS, PGS, LABURISTI, DEMOKRATI",
    "posto": "3,07",
    "lista": [{
      "rbr": 1,
      "naziv": "FRANKO VIDOVIĆ",
      "glasova": 70,
      "posto": "22,08"
    },{
      "rbr": 2,
      "naziv": "RENATA SABLJAR-DRAČEVAC",
      "glasova": 61,
      "posto": "19,24"
    },{
      "rbr": 3,
      "naziv": "MARIJAN STAREŠINIĆ",
      "glasova": 70,
      "posto": "22,08"
    },{
      "rbr": 4,
      "naziv": "RADOSLAVA GREGOV",
      "glasova": 28,
      "posto": "8,83"
    },{
      "rbr": 5,
      "naziv": "MARIO DRAUŠNIK",
      "glasova": 3,
      "posto": "0,94"
    },{
      "rbr": 6,
      "naziv": "ANKICA KOSOVEC-KRŽELJ",
      "glasova": 13,
      "posto": "4,10"
    },{
      "rbr": 7,
      "naziv": "MLADEN MATIJAŠEC",
      "glasova": 32,
      "posto": "10,09"
    },{
      "rbr": 8,
      "naziv": "ZLATKO VUIĆ",
      "glasova": 38,
      "posto": "11,98"
    },{
      "rbr": 9,
      "naziv": "DIANA MARTINOVIĆ",
      "glasova": 0,
      "posto": "0,00"
    },{
      "rbr": 10,
      "naziv": "ANA-MARIJA ČULE IVKIĆ",
      "glasova": 0,
      "posto": "0,00"
    },{
      "rbr": 11,
      "naziv": "FABIANA VIDOVIĆ",
      "glasova": 2,
      "posto": "0,63"
    },{
      "rbr": 12,
      "naziv": "IVAN KOZOLIĆ",
      "glasova": 0,
      "posto": "0,00"
    },{
      "rbr": 13,
      "naziv": "ANTONIJA ŠMISL MATKIĆ",
      "glasova": 0,
      "posto": "0,00"
    },{
      "rbr": 14,
      "naziv": "JOSIP MANDIĆ",
      "glasova": 0,
      "posto": "0,00"
    }]
  },{
    "rbr": 8,
    "stranke": [
      {"naziv": "HRVATSKA DEMOKRATSKA ZAJEDNICA - HDZ"},
      {"naziv": "HRVATSKA SOCIJALNO - LIBERALNA STRANKA - HSLS"},
      {"naziv": "HRVATSKA DEMOKRŠĆANSKA STRANKA - HDS"},
      {"naziv": "HRVATSKA NARODNA STRANKA - LIBERALNI DEMOKRATI - HNS"},
      {"naziv": "HRVATSKA STRANKA UMIROVLJENIKA - HSU"}
    ],
    "jedinstvenaSifra": "001002003011023",
    "glasova": 307,
    "naziv": "HDZ, HSLS, HDS, HNS, HSU",
    "posto": "2,97",
    "lista": [{
      "rbr": 1,
      "naziv": "IVAN MALENICA",
      "glasova": 70,
      "posto": "22,80"
    },{
      "rbr": 2,
      "naziv": "ŠIME ERLIĆ",
      "glasova": 44,
      "posto": "14,33"
    },{
      "rbr": 3,
      "naziv": "ANTE SANADER",
      "glasova": 36,
      "posto": "11,72"
    },{
      "rbr": 4,
      "naziv": "BRANKA JURIČEV-MARTINČEV",
      "glasova": 26,
      "posto": "8,46"
    },{
      "rbr": 5,
      "naziv": "JOSIP BILAVER",
      "glasova": 39,
      "posto": "12,70"
    },{
      "rbr": 6,
      "naziv": "IVAN BUGARIN",
      "glasova": 22,
      "posto": "7,16"
    },{
      "rbr": 7,
      "naziv": "HRVOJE ZEKANOVIĆ",
      "glasova": 16,
      "posto": "5,21"
    },{
      "rbr": 8,
      "naziv": "ANTE BABIĆ",
      "glasova": 6,
      "posto": "1,95"
    },{
      "rbr": 9,
      "naziv": "JAKOV VETMA",
      "glasova": 4,
      "posto": "1,30"
    },{
      "rbr": 10,
      "naziv": "NIKOLINA BARADIĆ",
      "glasova": 16,
      "posto": "5,21"
    },{
      "rbr": 11,
      "naziv": "PERICA BOSANČIĆ",
      "glasova": 0,
      "posto": "0,00"
    },{
      "rbr": 12,
      "naziv": "JURE BRIŽIĆ",
      "glasova": 16,
      "posto": "5,21"
    },{
      "rbr": 13,
      "naziv": "TONČI GLAVINA",
      "glasova": 11,
      "posto": "3,58"
    },{
      "rbr": 14,
      "naziv": "ŽELJKO BURIĆ",
      "glasova": 1,
      "posto": "0,32"
    }]
  },{
    "rbr": 9,
    "stranke": [
      {"naziv": "DOMOVINSKI POKRET - DP"},
      {"naziv": "PRAVO I PRAVDA"}
    ],
    "jedinstvenaSifra": "267312",
    "glasova": 290,
    "naziv": "DP, PRAVO I PRAVDA",
    "posto": "2,81",
    "lista": [{
      "rbr": 1,
      "naziv": "DAMIR BILOGLAV",
      "glasova": 65,
      "posto": "22,41"
    },{
      "rbr": 2,
      "naziv": "IVAN ŠIPIĆ",
      "glasova": 38,
      "posto": "13,10"
    },{
      "rbr": 3,
      "naziv": "PREDRAG MIŠIĆ",
      "glasova": 6,
      "posto": "2,06"
    },{
      "rbr": 4,
      "naziv": "IVE ĆALETA-CAR",
      "glasova": 35,
      "posto": "12,06"
    },{
      "rbr": 5,
      "naziv": "FRANE TOKIĆ",
      "glasova": 34,
      "posto": "11,72"
    },{
      "rbr": 6,
      "naziv": "DANIJEL KOTLAR",
      "glasova": 32,
      "posto": "11,03"
    },{
      "rbr": 7,
      "naziv": "MIRO MORO",
      "glasova": 37,
      "posto": "12,75"
    },{
      "rbr": 8,
      "naziv": "ANAMARIJA FRANKIĆ",
      "glasova": 6,
      "posto": "2,06"
    },{
      "rbr": 9,
      "naziv": "SNJEŽANA KULIŠ",
      "glasova": 3,
      "posto": "1,03"
    },{
      "rbr": 10,
      "naziv": "JELENA GRGIĆ",
      "glasova": 22,
      "posto": "7,58"
    },{
      "rbr": 11,
      "naziv": "MARIJA ŠARAC",
      "glasova": 12,
      "posto": "4,13"
    },{
      "rbr": 12,
      "naziv": "DANICA ŽARKO",
      "glasova": 0,
      "posto": "0,00"
    },{
      "rbr": 13,
      "naziv": "SNEŽANA ŽAJA",
      "glasova": 0,
      "posto": "0,00"
    },{
      "rbr": 14,
      "naziv": "DAMJAN VUCELIĆ",
      "glasova": 0,
      "posto": "0,00"
    }]
  },{
    "rbr": 10,
    "stranke": [
      {"naziv": "FOKUS"},
      {"naziv": "REPUBLIKA"}
    ],
    "jedinstvenaSifra": "270310",
    "glasova": 226,
    "naziv": "FOKUS, REPUBLIKA",
    "posto": "2,19",
    "lista": [{
      "rbr": 1,
      "naziv": "GORAN ŠIMIĆ",
      "glasova": 53,
      "posto": "23,45"
    },{
      "rbr": 2,
      "naziv": "NIKŠA KULUŠIĆ",
      "glasova": 16,
      "posto": "7,07"
    },{
      "rbr": 3,
      "naziv": "MIRJANA PLEČKO",
      "glasova": 1,
      "posto": "0,44"
    },{
      "rbr": 4,
      "naziv": "FILIP JAGARINEC",
      "glasova": 6,
      "posto": "2,65"
    },{
      "rbr": 5,
      "naziv": "LORENZO UJEVIĆ",
      "glasova": 22,
      "posto": "9,73"
    },{
      "rbr": 6,
      "naziv": "ŠIME MARTINOVIĆ",
      "glasova": 29,
      "posto": "12,83"
    },{
      "rbr": 7,
      "naziv": "SANDA POLIČAK KOKIĆ",
      "glasova": 0,
      "posto": "0,00"
    },{
      "rbr": 8,
      "naziv": "MARTINA KRPETIĆ",
      "glasova": 0,
      "posto": "0,00"
    },{
      "rbr": 9,
      "naziv": "MIRA LUČEV",
      "glasova": 51,
      "posto": "22,56"
    },{
      "rbr": 10,
      "naziv": "ANTE ČUBRIĆ",
      "glasova": 48,
      "posto": "21,23"
    },{
      "rbr": 11,
      "naziv": "ANTONELA GAROFULIĆ",
      "glasova": 0,
      "posto": "0,00"
    },{
      "rbr": 12,
      "naziv": "SLAĐANA PAVLOVIĆ",
      "glasova": 0,
      "posto": "0,00"
    },{
      "rbr": 13,
      "naziv": "SLAVIŠA PAVLOVIĆ",
      "glasova": 0,
      "posto": "0,00"
    },{
      "rbr": 14,
      "naziv": "IVAN GULAM",
      "glasova": 0,
      "posto": "0,00"
    }]
  },{
    "rbr": 11,
    "stranke": [
      {"naziv": "RADNIČKA FRONTA - RF"}
    ],
    "jedinstvenaSifra": "168",
    "glasova": 210,
    "naziv": "RF",
    "posto": "2,03",
    "lista": [{
      "rbr": 1,
      "naziv": "BORIS MIJAKOVAC",
      "glasova": 50,
      "posto": "23,80"
    },{
      "rbr": 2,
      "naziv": "LUJANA PARAMAN",
      "glasova": 36,
      "posto": "17,14"
    },{
      "rbr": 3,
      "naziv": "TONI BEDALOV",
      "glasova": 24,
      "posto": "11,42"
    },{
      "rbr": 4,
      "naziv": "ANĐELKA ANTULOV",
      "glasova": 20,
      "posto": "9,52"
    },{
      "rbr": 5,
      "naziv": "IVAN BARIĆ",
      "glasova": 32,
      "posto": "15,23"
    },{
      "rbr": 6,
      "naziv": "KATARINA NEMET",
      "glasova": 17,
      "posto": "8,09"
    },{
      "rbr": 7,
      "naziv": "IVO MATULIĆ",
      "glasova": 16,
      "posto": "7,61"
    },{
      "rbr": 8,
      "naziv": "GORAN KAUZLARIĆ",
      "glasova": 3,
      "posto": "1,42"
    },{
      "rbr": 9,
      "naziv": "BORISLAVA VULIĆ",
      "glasova": 0,
      "posto": "0,00"
    },{
      "rbr": 10,
      "naziv": "GORDANA ŽIC",
      "glasova": 6,
      "posto": "2,85"
    },{
      "rbr": 11,
      "naziv": "SLAVEN KUPINA",
      "glasova": 0,
      "posto": "0,00"
    },{
      "rbr": 12,
      "naziv": "MARGARITA ZIKOLLAJ BARBARIĆ",
      "glasova": 6,
      "posto": "2,85"
    },{
      "rbr": 13,
      "naziv": "BELA NADJ",
      "glasova": 0,
      "posto": "0,00"
    },{
      "rbr": 14,
      "naziv": "MARIO MARKOVINA",
      "glasova": 0,
      "posto": "0,00"
    }]
  },{
    "rbr": 12,
    "stranke": [
      {"naziv": "STRANKA IVANA PERNARA"}
    ],
    "jedinstvenaSifra": "259",
    "glasova": 200,
    "naziv": "STRANKA IVANA PERNARA",
    "posto": "1,93",
    "lista": [{
      "rbr": 1,
      "naziv": "DANIEL MIJATOVIĆ",
      "glasova": 46,
      "posto": "23,00"
    },{
      "rbr": 2,
      "naziv": "SAMANTA KNEŽEVIĆ",
      "glasova": 40,
      "posto": "20,00"
    },{
      "rbr": 3,
      "naziv": "DANIJEL BALTIĆ",
      "glasova": 46,
      "posto": "23,00"
    },{
      "rbr": 4,
      "naziv": "ANDREA NOVAKOVIĆ",
      "glasova": 17,
      "posto": "8,50"
    },{
      "rbr": 5,
      "naziv": "KRISTIAN ŠULJAK",
      "glasova": 0,
      "posto": "0,00"
    },{
      "rbr": 6,
      "naziv": "TINA ALMIĆ",
      "glasova": 7,
      "posto": "3,50"
    },{
      "rbr": 7,
      "naziv": "DOLORES MILOVAC",
      "glasova": 21,
      "posto": "10,50"
    },{
      "rbr": 8,
      "naziv": "GRGO PLAZINA",
      "glasova": 23,
      "posto": "11,50"
    },{
      "rbr": 9,
      "naziv": "NIKOLINA UJAKOVIĆ",
      "glasova": 0,
      "posto": "0,00"
    },{
      "rbr": 10,
      "naziv": "IVAN ĐURIĆ",
      "glasova": 0,
      "posto": "0,00"
    },{
      "rbr": 11,
      "naziv": "LUKA MOHENSKI",
      "glasova": 0,
      "posto": "0,00"
    },{
      "rbr": 12,
      "naziv": "ROBERT BUZOV",
      "glasova": 0,
      "posto": "0,00"
    },{
      "rbr": 13,
      "naziv": "HANA BEKINA",
      "glasova": 0,
      "posto": "0,00"
    },{
      "rbr": 14,
      "naziv": "BRANKO BUZOV",
      "glasova": 0,
      "posto": "0,00"
    }]
  },{
    "rbr": 13,
    "stranke": [
      {"naziv": "SOCIJALDEMOKRATSKA PARTIJA HRVATSKE - SDP"},
      {"naziv": "CENTAR"},
      {"naziv": "HRVATSKA SELJAČKA STRANKA - HSS"},
      {"naziv": "\"DALIJA OREŠKOVIĆ I LJUDI S IMENOM I PREZIMENOM\" - \"DO i SIP\""},
      {"naziv": "NARODNA STRANKA - REFORMISTI - REFORMISTI"},
      {"naziv": "GRAĐANSKO-LIBERALNI SAVEZ - GLAS"}
    ],
    "jedinstvenaSifra": "004017162179244306",
    "glasova": 199,
    "naziv": "SDP, CENTAR, HSS, \"DO i SIP\", REFORMISTI, GLAS",
    "posto": "1,92",
    "lista": [{
      "rbr": 1,
      "naziv": "SABINA GLASOVAC",
      "glasova": 45,
      "posto": "22,61"
    },{
      "rbr": 2,
      "naziv": "TONČI RESTOVIĆ",
      "glasova": 40,
      "posto": "20,10"
    },{
      "rbr": 3,
      "naziv": "IRENA DRAGIĆ",
      "glasova": 45,
      "posto": "22,61"
    },{
      "rbr": 4,
      "naziv": "IGOR SKOKO",
      "glasova": 17,
      "posto": "8,54"
    },{
      "rbr": 5,
      "naziv": "BRANKO GRČIĆ",
      "glasova": 0,
      "posto": "0,00"
    },{
      "rbr": 6,
      "naziv": "NATAŠA DELONGA POPARIĆ",
      "glasova": 8,
      "posto": "4,02"
    },{
      "rbr": 7,
      "naziv": "DANIEL RADETA",
      "glasova": 21,
      "posto": "10,55"
    },{
      "rbr": 8,
      "naziv": "RUŽICA JAKŠIĆ",
      "glasova": 23,
      "posto": "11,55"
    },{
      "rbr": 9,
      "naziv": "KARLO KLARIN",
      "glasova": 0,
      "posto": "0,00"
    },{
      "rbr": 10,
      "naziv": "IVANA VUČENOVIĆ",
      "glasova": 0,
      "posto": "0,00"
    },{
      "rbr": 11,
      "naziv": "IVANA PERIŠIN",
      "glasova": 0,
      "posto": "0,00"
    },{
      "rbr": 12,
      "naziv": "ZDENKO JUKIĆ",
      "glasova": 0,
      "posto": "0,00"
    },{
      "rbr": 13,
      "naziv": "ANJA RAMADŽA",
      "glasova": 0,
      "posto": "0,00"
    },{
      "rbr": 14,
      "naziv": "PETAR VRVILO",
      "glasova": 0,
      "posto": "0,00"
    }]
  },{
    "rbr": 14,
    "stranke": [
      {"naziv": "ODLUČNOST I PRAVEDNOST - OIP"}
    ],
    "jedinstvenaSifra": "300",
    "glasova": 178,
    "naziv": "OIP",
    "posto": "1,72",
    "lista": [{
      "rbr": 1,
      "naziv": "DENIS MARIĆ",
      "glasova": 39,
      "posto": "21,91"
    },{
      "rbr": 2,
      "naziv": "DINO ERCEG",
      "glasova": 31,
      "posto": "17,41"
    },{
      "rbr": 3,
      "naziv": "MARKO GRBIĆ",
      "glasova": 22,
      "posto": "12,35"
    },{
      "rbr": 4,
      "naziv": "MILJENKA PRENĐA SARIĆ",
      "glasova": 16,
      "posto": "8,98"
    },{
      "rbr": 5,
      "naziv": "RONALD GALIĆ",
      "glasova": 26,
      "posto": "14,60"
    },{
      "rbr": 6,
      "naziv": "DRAGAN OSTOJIĆ",
      "glasova": 16,
      "posto": "8,98"
    },{
      "rbr": 7,
      "naziv": "FRANE NEKIĆ",
      "glasova": 16,
      "posto": "8,98"
    },{
      "rbr": 8,
      "naziv": "JULIA BRAJIČIĆ",
      "glasova": 2,
      "posto": "1,12"
    },{
      "rbr": 9,
      "naziv": "ANDRIJA SAMARDŽIJA",
      "glasova": 0,
      "posto": "0,00"
    },{
      "rbr": 10,
      "naziv": "AUGUSTIN BENIĆ",
      "glasova": 6,
      "posto": "3,37"
    },{
      "rbr": 11,
      "naziv": "RADMILA PERIĆ",
      "glasova": 0,
      "posto": "0,00"
    },{
      "rbr": 12,
      "naziv": "IVA ZADELJ",
      "glasova": 4,
      "posto": "2,24"
    },{
      "rbr": 13,
      "naziv": "ZORAN GAŠPEROV",
      "glasova": 0,
      "posto": "0,00"
    },{
      "rbr": 14,
      "naziv": "IVICA SVAGUŠA",
      "glasova": 0,
      "posto": "0,00"
    }]
  },{
    "rbr": 15,
    "stranke": [
      {"naziv": "MOŽEMO! - POLITIČKA PLATFORMA"}
    ],
    "jedinstvenaSifra": "255",
    "glasova": 96,
    "naziv": "MOŽEMO! - POLITIČKA PLATFORMA",
    "posto": "0,93",
    "lista": [{
      "rbr": 1,
      "naziv": "MAJA ŠINTIĆ",
      "glasova": 23,
      "posto": "23,95"
    },{
      "rbr": 2,
      "naziv": "IVAN SLAVICA",
      "glasova": 23,
      "posto": "23,95"
    },{
      "rbr": 3,
      "naziv": "ANA ŠIMIĆ",
      "glasova": 23,
      "posto": "23,95"
    },{
      "rbr": 4,
      "naziv": "MARKO LUKAVAC",
      "glasova": 1,
      "posto": "1,04"
    },{
      "rbr": 5,
      "naziv": "NINA MILIČEVIĆ",
      "glasova": 0,
      "posto": "0,00"
    },{
      "rbr": 6,
      "naziv": "IVICA SMOLJAN",
      "glasova": 0,
      "posto": "0,00"
    },{
      "rbr": 7,
      "naziv": "SILVANA ČEKO JURIŠIĆ",
      "glasova": 11,
      "posto": "11,45"
    },{
      "rbr": 8,
      "naziv": "ZDRAVKO BELUŠIĆ",
      "glasova": 15,
      "posto": "15,62"
    },{
      "rbr": 9,
      "naziv": "IVA IVAS",
      "glasova": 0,
      "posto": "0,00"
    },{
      "rbr": 10,
      "naziv": "DUŠAN MILOŠ",
      "glasova": 0,
      "posto": "0,00"
    },{
      "rbr": 11,
      "naziv": "ANTONIJA LETINIĆ",
      "glasova": 0,
      "posto": "0,00"
    },{
      "rbr": 12,
      "naziv": "JERE MEIĆ",
      "glasova": 0,
      "posto": "0,00"
    },{
      "rbr": 13,
      "naziv": "PETRA HRAŠĆANEC",
      "glasova": 0,
      "posto": "0,00"
    },{
      "rbr": 14,
      "naziv": "DUNJA GUSIĆ",
      "glasova": 0,
      "posto": "0,00"
    }]
  },{
    "rbr": 16,
    "stranke": [
      {"naziv": "MOST"},
      {"naziv": "HRVATSKI SUVERENISTI"},
      {"naziv": "HRVATSKA KONZERVATIVNA STRANKA - HKS"},
      {"naziv": "NEZAVISNA LISTA MLADIH - NLM"}
    ],
    "jedinstvenaSifra": "131165188263",
    "glasova": 85,
    "naziv": "MOST, HRVATSKI SUVERENISTI, HKS, NLM",
    "posto": "0,82",
    "lista": [{
      "rbr": 1,
      "naziv": "MIRO BULJ",
      "glasova": 22,
      "posto": "25,88"
    },{
      "rbr": 2,
      "naziv": "IVAN MATIĆ",
      "glasova": 22,
      "posto": "25,88"
    },{
      "rbr": 3,
      "naziv": "IVICA LEDENKO",
      "glasova": 22,
      "posto": "25,88"
    },{
      "rbr": 4,
      "naziv": "MILIJA BALDIĆ-LUKŠIĆ",
      "glasova": 0,
      "posto": "0,00"
    },{
      "rbr": 5,
      "naziv": "IVAN ANDABAK",
      "glasova": 0,
      "posto": "0,00"
    },{
      "rbr": 6,
      "naziv": "ŽELJANA POPIĆ",
      "glasova": 0,
      "posto": "0,00"
    },{
      "rbr": 7,
      "naziv": "MIHOVIL KLARIĆ",
      "glasova": 5,
      "posto": "5,88"
    },{
      "rbr": 8,
      "naziv": "MARINA PAŠKALIN",
      "glasova": 14,
      "posto": "16,47"
    },{
      "rbr": 9,
      "naziv": "KLARA BUŠIĆ",
      "glasova": 0,
      "posto": "0,00"
    },{
      "rbr": 10,
      "naziv": "MARIJAN JURIĆ",
      "glasova": 0,
      "posto": "0,00"
    },{
      "rbr": 11,
      "naziv": "IVANA ŠEVO",
      "glasova": 0,
      "posto": "0,00"
    },{
      "rbr": 12,
      "naziv": "BISERKA GRGIN",
      "glasova": 0,
      "posto": "0,00"
    },{
      "rbr": 13,
      "naziv": "IVAN ŠUSTIĆ",
      "glasova": 0,
      "posto": "0,00"
    },{
      "rbr": 14,
      "naziv": "PETAR MARETIĆ",
      "glasova": 0,
      "posto": "0,00"
    }]
  },{
    "rbr": 17,
    "stranke": [
      {"naziv": "STRANKA HRVATSKOG ZAJEDNIŠTVA - SHZ"}
    ],
    "jedinstvenaSifra": "099",
    "glasova": 42,
    "naziv": "SHZ",
    "posto": "0,40",
    "lista": [{
      "rbr": 1,
      "naziv": "MILJENKO MARIĆ",
      "glasova": 16,
      "posto": "38,09"
    },{
      "rbr": 2,
      "naziv": "NIKOLA ŠIMIĆ",
      "glasova": 16,
      "posto": "38,09"
    },{
      "rbr": 3,
      "naziv": "AUGUSTINA RIMANIĆ",
      "glasova": 3,
      "posto": "7,14"
    },{
      "rbr": 4,
      "naziv": "ANAMARIJA ĆURKOVIĆ",
      "glasova": 0,
      "posto": "0,00"
    },{
      "rbr": 5,
      "naziv": "ZLATKO DUNDOVIĆ",
      "glasova": 7,
      "posto": "16,66"
    },{
      "rbr": 6,
      "naziv": "DRAGAN GOVORČIN",
      "glasova": 0,
      "posto": "0,00"
    },{
      "rbr": 7,
      "naziv": "DANIJELA BUDANOVIĆ",
      "glasova": 0,
      "posto": "0,00"
    },{
      "rbr": 8,
      "naziv": "NIVES KAURLOTO-VUČINOVIĆ",
      "glasova": 0,
      "posto": "0,00"
    },{
      "rbr": 9,
      "naziv": "VINKO KLARIĆ",
      "glasova": 0,
      "posto": "0,00"
    },{
      "rbr": 10,
      "naziv": "GORDANA MILIN",
      "glasova": 0,
      "posto": "0,00"
    },{
      "rbr": 11,
      "naziv": "SLAVKO BURČUL",
      "glasova": 0,
      "posto": "0,00"
    },{
      "rbr": 12,
      "naziv": "ANĐELKA KRNETA",
      "glasova": 0,
      "posto": "0,00"
    },{
      "rbr": 13,
      "naziv": "JULIJE JELASKA",
      "glasova": 0,
      "posto": "0,00"
    },{
      "rbr": 14,
      "naziv": "GAŠPAR BILIĆ",
      "glasova": 0,
      "posto": "0,00"
    }]
  },{
    "rbr": 18,
    "stranke": [
      {"naziv": "UMIROVLJENICI ZAJEDNO - POLITIČKA PLATFORMA - UMIROVLJENICI ZAJEDNO"},
      {"naziv": "STRANKA UMIROVLJENIKA - SU"},
      {"naziv": "BLOK UMIROVLJENICI ZAJEDNO - BUZ"},
      {"naziv": "DEMOKRATSKA STRANKA UMIROVLJENIKA - DSU"}
    ],
    "jedinstvenaSifra": "039041102301",
    "glasova": 42,
    "naziv": "UMIROVLJENICI ZAJEDNO, SU, BUZ, DSU",
    "posto": "0,40",
    "lista": [{
      "rbr": 1,
      "naziv": "DUŠKO VUKOVIĆ",
      "glasova": 16,
      "posto": "38,09"
    },{
      "rbr": 2,
      "naziv": "ANĐELKO DUVANČIĆ",
      "glasova": 16,
      "posto": "38,09"
    },{
      "rbr": 3,
      "naziv": "MARKO MIJIĆ",
      "glasova": 3,
      "posto": "7,14"
    },{
      "rbr": 4,
      "naziv": "ROBERT PELICARIĆ",
      "glasova": 0,
      "posto": "0,00"
    },{
      "rbr": 5,
      "naziv": "ZVJEZDANA RONČEVIĆ HRS",
      "glasova": 7,
      "posto": "16,66"
    },{
      "rbr": 6,
      "naziv": "MARTINA MATACIN",
      "glasova": 0,
      "posto": "0,00"
    },{
      "rbr": 7,
      "naziv": "KATARINA NEKIĆ",
      "glasova": 0,
      "posto": "0,00"
    },{
      "rbr": 8,
      "naziv": "VLADIMIR HRS",
      "glasova": 0,
      "posto": "0,00"
    },{
      "rbr": 9,
      "naziv": "CARLA SANTIN",
      "glasova": 0,
      "posto": "0,00"
    },{
      "rbr": 10,
      "naziv": "ANITA MERLE",
      "glasova": 0,
      "posto": "0,00"
    },{
      "rbr": 11,
      "naziv": "BORIS FRAKIN",
      "glasova": 0,
      "posto": "0,00"
    },{
      "rbr": 12,
      "naziv": "PAOLA BABAJKO",
      "glasova": 0,
      "posto": "0,00"
    },{
      "rbr": 13,
      "naziv": "BOŽO NEKIĆ",
      "glasova": 0,
      "posto": "0,00"
    },{
      "rbr": 14,
      "naziv": "JELENA VUKOVIĆ",
      "glasova": 0,
      "posto": "0,00"
    }]
  }]
}
