{
  "izbori": "Zastupnički izbori 2024",
  "datum": "15.04.2024.",
  "vrijeme": "15:30",
  "izboriOznaka": "02",
  "ijSifra": "010",
  "bmSifra": "000",
  "ijNaziv": "X. IZBORNA JEDINICA",
  "gropNaziv": "KONAVLE",
  "bmNaziv": "",
  "bmZatvoreno": 28,
  "bmUkupno": 28,
  "biraciUkupno": 6853,
  "biraciGlasovalo": 2752,
  "biraciGlasovaloPosto": "40,16",
  "listiciUkupno": 2747,
  "listiciVazeci": 2678,
  "listiciVazeciPosto": "97,49",
  "listiciNevazeci": 69,
  "listiciNevazeciPosto": "2,51",
  "napomena": "* - objavljeni rezultati sadrže podatke samo s redovnih biračkih mjesta",
  "napomena2": "",
  "lista": [{
    "rbr": 1,
    "stranke": [
      {"naziv": "STRANKA IVANA PERNARA"}
    ],
    "jedinstvenaSifra": "259",
    "glasova": 872,
    "naziv": "STRANKA IVANA PERNARA",
    "posto": "32,56",
    "lista": [{
      "rbr": 1,
      "naziv": "PETAR VUJAKLIJA",
      "glasova": 179,
      "posto": "20,52"
    },{
      "rbr": 2,
      "naziv": "AVA KARABATIĆ",
      "glasova": 167,
      "posto": "19,15"
    },{
      "rbr": 3,
      "naziv": "LILJANA PERNAR",
      "glasova": 179,
      "posto": "20,52"
    },{
      "rbr": 4,
      "naziv": "STIPE TOMAŠEVIĆ",
      "glasova": 59,
      "posto": "6,76"
    },{
      "rbr": 5,
      "naziv": "MARKO VUČKOVIĆ",
      "glasova": 24,
      "posto": "2,75"
    },{
      "rbr": 6,
      "naziv": "MAJA ANDRIĆ",
      "glasova": 50,
      "posto": "5,73"
    },{
      "rbr": 7,
      "naziv": "JOSIP ŠIMAC",
      "glasova": 70,
      "posto": "8,02"
    },{
      "rbr": 8,
      "naziv": "IVICA KELAVA",
      "glasova": 88,
      "posto": "10,09"
    },{
      "rbr": 9,
      "naziv": "TONI RAKIĆ",
      "glasova": 5,
      "posto": "0,57"
    },{
      "rbr": 10,
      "naziv": "KATICA VUJAKLIJA",
      "glasova": 13,
      "posto": "1,49"
    },{
      "rbr": 11,
      "naziv": "JULIJAN PRANJIĆ",
      "glasova": 21,
      "posto": "2,40"
    },{
      "rbr": 12,
      "naziv": "MARIO MAREVIĆ",
      "glasova": 3,
      "posto": "0,34"
    },{
      "rbr": 13,
      "naziv": "MARIJANA KATALENIĆ",
      "glasova": 4,
      "posto": "0,45"
    },{
      "rbr": 14,
      "naziv": "SVJETLANA STRAGA",
      "glasova": 9,
      "posto": "1,03"
    }]
  },{
    "rbr": 2,
    "stranke": [
      {"naziv": "RIČARD NEZAVISNI"}
    ],
    "jedinstvenaSifra": "313",
    "glasova": 705,
    "naziv": "RIČARD NEZAVISNI",
    "posto": "26,32",
    "lista": [{
      "rbr": 1,
      "naziv": "ENIO MEŠTROVIĆ",
      "glasova": 146,
      "posto": "20,70"
    },{
      "rbr": 2,
      "naziv": "SERGEJ KOZMI",
      "glasova": 99,
      "posto": "14,04"
    },{
      "rbr": 3,
      "naziv": "MARIO PRIŽMIĆ",
      "glasova": 76,
      "posto": "10,78"
    },{
      "rbr": 4,
      "naziv": "IVANA ČALJKUŠIĆ",
      "glasova": 58,
      "posto": "8,22"
    },{
      "rbr": 5,
      "naziv": "GORANA JURJEVIĆ",
      "glasova": 89,
      "posto": "12,62"
    },{
      "rbr": 6,
      "naziv": "JOSIP RADOJA",
      "glasova": 43,
      "posto": "6,09"
    },{
      "rbr": 7,
      "naziv": "MIA MIHANOVIĆ",
      "glasova": 31,
      "posto": "4,39"
    },{
      "rbr": 8,
      "naziv": "IVAN KNEZOVIĆ",
      "glasova": 17,
      "posto": "2,41"
    },{
      "rbr": 9,
      "naziv": "ŽELJKA BILANDŽIĆ",
      "glasova": 10,
      "posto": "1,41"
    },{
      "rbr": 10,
      "naziv": "IVANA BUZOV",
      "glasova": 24,
      "posto": "3,40"
    },{
      "rbr": 11,
      "naziv": "JOSIP ŠAKIĆ",
      "glasova": 8,
      "posto": "1,13"
    },{
      "rbr": 12,
      "naziv": "ANTE ČALJKUŠIĆ",
      "glasova": 21,
      "posto": "2,97"
    },{
      "rbr": 13,
      "naziv": "MARIJANA KANJER",
      "glasova": 8,
      "posto": "1,13"
    },{
      "rbr": 14,
      "naziv": "DRAGAN VESELIĆ",
      "glasova": 9,
      "posto": "1,27"
    }]
  },{
    "rbr": 3,
    "stranke": [
      {"naziv": "UMIROVLJENICI ZAJEDNO - POLITIČKA PLATFORMA - UMIROVLJENICI ZAJEDNO"},
      {"naziv": "STRANKA UMIROVLJENIKA - SU"},
      {"naziv": "BLOK UMIROVLJENICI ZAJEDNO - BUZ"},
      {"naziv": "DEMOKRATSKA STRANKA UMIROVLJENIKA - DSU"}
    ],
    "jedinstvenaSifra": "039041102301",
    "glasova": 309,
    "naziv": "UMIROVLJENICI ZAJEDNO, SU, BUZ, DSU",
    "posto": "11,53",
    "lista": [{
      "rbr": 1,
      "naziv": "IVANKA LUETIĆ BOBAN",
      "glasova": 74,
      "posto": "23,94"
    },{
      "rbr": 2,
      "naziv": "BORIS NIKOLIĆ-MALORA",
      "glasova": 49,
      "posto": "15,85"
    },{
      "rbr": 3,
      "naziv": "IVAN BUBALO",
      "glasova": 33,
      "posto": "10,67"
    },{
      "rbr": 4,
      "naziv": "FRANKO BARČOT",
      "glasova": 25,
      "posto": "8,09"
    },{
      "rbr": 5,
      "naziv": "MARKO KOVAČEVIĆ",
      "glasova": 42,
      "posto": "13,59"
    },{
      "rbr": 6,
      "naziv": "ANITA KOVAČ",
      "glasova": 23,
      "posto": "7,44"
    },{
      "rbr": 7,
      "naziv": "JASMINKA BUBIĆ",
      "glasova": 15,
      "posto": "4,85"
    },{
      "rbr": 8,
      "naziv": "IVAN IVAKIĆ",
      "glasova": 8,
      "posto": "2,58"
    },{
      "rbr": 9,
      "naziv": "DIJANA VIŠIĆ-VULJAN",
      "glasova": 8,
      "posto": "2,58"
    },{
      "rbr": 10,
      "naziv": "NEVENKA LISICA",
      "glasova": 8,
      "posto": "2,58"
    },{
      "rbr": 11,
      "naziv": "NINA BILANDŽIĆ",
      "glasova": 3,
      "posto": "0,97"
    },{
      "rbr": 12,
      "naziv": "VOJKO IVICA",
      "glasova": 4,
      "posto": "1,29"
    },{
      "rbr": 13,
      "naziv": "TONĆI MARINOVIĆ",
      "glasova": 5,
      "posto": "1,61"
    },{
      "rbr": 14,
      "naziv": "MIRKO KOZINA",
      "glasova": 4,
      "posto": "1,29"
    }]
  },{
    "rbr": 4,
    "stranke": [
      {"naziv": "AUTOHTONA - HRVATSKA STRANKA PRAVA - DRAŽEN KELEMINEC - A - HSP - Dražen Keleminec"}
    ],
    "jedinstvenaSifra": "049",
    "glasova": 174,
    "naziv": "A - HSP - Dražen Keleminec",
    "posto": "6,49",
    "lista": [{
      "rbr": 1,
      "naziv": "NENO DOŽDOR",
      "glasova": 45,
      "posto": "25,86"
    },{
      "rbr": 2,
      "naziv": "DAVOR MAJIĆ",
      "glasova": 37,
      "posto": "21,26"
    },{
      "rbr": 3,
      "naziv": "DOBRILA KUDUZ",
      "glasova": 43,
      "posto": "24,71"
    },{
      "rbr": 4,
      "naziv": "DAMIR KULIŠIĆ",
      "glasova": 10,
      "posto": "5,74"
    },{
      "rbr": 5,
      "naziv": "MARIO VELA",
      "glasova": 0,
      "posto": "0,00"
    },{
      "rbr": 6,
      "naziv": "ANDREA PAVLETIĆ",
      "glasova": 1,
      "posto": "0,57"
    },{
      "rbr": 7,
      "naziv": "MIRO MATEŠAN",
      "glasova": 16,
      "posto": "9,19"
    },{
      "rbr": 8,
      "naziv": "ANTONIA DURDOV",
      "glasova": 22,
      "posto": "12,64"
    },{
      "rbr": 9,
      "naziv": "EMILIANO ŠTIMAC",
      "glasova": 0,
      "posto": "0,00"
    },{
      "rbr": 10,
      "naziv": "MIRJANA KULIŠIĆ",
      "glasova": 0,
      "posto": "0,00"
    },{
      "rbr": 11,
      "naziv": "IVICA RAMLJAK",
      "glasova": 0,
      "posto": "0,00"
    },{
      "rbr": 12,
      "naziv": "MARTA MAJIĆ",
      "glasova": 0,
      "posto": "0,00"
    },{
      "rbr": 13,
      "naziv": "GROZDANA MATEŠAN",
      "glasova": 0,
      "posto": "0,00"
    },{
      "rbr": 14,
      "naziv": "DRAGAN NIZIĆ",
      "glasova": 0,
      "posto": "0,00"
    }]
  },{
    "rbr": 5,
    "stranke": [
      {"naziv": "ODLUČNOST I PRAVEDNOST - OIP"}
    ],
    "jedinstvenaSifra": "300",
    "glasova": 147,
    "naziv": "OIP",
    "posto": "5,48",
    "lista": [{
      "rbr": 1,
      "naziv": "JAKOV ČIČMIR",
      "glasova": 39,
      "posto": "26,53"
    },{
      "rbr": 2,
      "naziv": "MATE ČOBRNIĆ",
      "glasova": 29,
      "posto": "19,72"
    },{
      "rbr": 3,
      "naziv": "MINJA KARL",
      "glasova": 20,
      "posto": "13,60"
    },{
      "rbr": 4,
      "naziv": "MATE PLETIKOSIĆ",
      "glasova": 10,
      "posto": "6,80"
    },{
      "rbr": 5,
      "naziv": "ANĐELA IVANČIĆ",
      "glasova": 25,
      "posto": "17,00"
    },{
      "rbr": 6,
      "naziv": "MIRKO PETRUŠIĆ",
      "glasova": 8,
      "posto": "5,44"
    },{
      "rbr": 7,
      "naziv": "MARIJA SAMARDŽIĆ",
      "glasova": 6,
      "posto": "4,08"
    },{
      "rbr": 8,
      "naziv": "TONI ĆALETA",
      "glasova": 3,
      "posto": "2,04"
    },{
      "rbr": 9,
      "naziv": "DANIJELA MUCIĆ",
      "glasova": 0,
      "posto": "0,00"
    },{
      "rbr": 10,
      "naziv": "SLOBODAN VUKOTIĆ",
      "glasova": 4,
      "posto": "2,72"
    },{
      "rbr": 11,
      "naziv": "MILJENKO VARNICA",
      "glasova": 0,
      "posto": "0,00"
    },{
      "rbr": 12,
      "naziv": "MARTA ZONJIĆ",
      "glasova": 3,
      "posto": "2,04"
    },{
      "rbr": 13,
      "naziv": "LORENZA MILETIĆ",
      "glasova": 0,
      "posto": "0,00"
    },{
      "rbr": 14,
      "naziv": "DAVOR KARNINČIĆ",
      "glasova": 0,
      "posto": "0,00"
    }]
  },{
    "rbr": 6,
    "stranke": [
      {"naziv": "FOKUS"},
      {"naziv": "REPUBLIKA"}
    ],
    "jedinstvenaSifra": "270310",
    "glasova": 117,
    "naziv": "FOKUS, REPUBLIKA",
    "posto": "4,36",
    "lista": [{
      "rbr": 1,
      "naziv": "MATO PAVLIČEVIĆ",
      "glasova": 38,
      "posto": "32,47"
    },{
      "rbr": 2,
      "naziv": "ANTE MLADINIĆ",
      "glasova": 1,
      "posto": "0,85"
    },{
      "rbr": 3,
      "naziv": "MIROSLAV PAVLOVIĆ",
      "glasova": 0,
      "posto": "0,00"
    },{
      "rbr": 4,
      "naziv": "NIKOLINA BILIĆ POLJANIĆ",
      "glasova": 1,
      "posto": "0,85"
    },{
      "rbr": 5,
      "naziv": "RANKA CVITANOVIĆ",
      "glasova": 5,
      "posto": "4,27"
    },{
      "rbr": 6,
      "naziv": "MAJA BOSNIĆ TABAIN",
      "glasova": 11,
      "posto": "9,40"
    },{
      "rbr": 7,
      "naziv": "SANDRA TABAIN",
      "glasova": 0,
      "posto": "0,00"
    },{
      "rbr": 8,
      "naziv": "JAKOV JURČEVIĆ",
      "glasova": 0,
      "posto": "0,00"
    },{
      "rbr": 9,
      "naziv": "SANDA SMOLČIĆ ODAK",
      "glasova": 32,
      "posto": "27,35"
    },{
      "rbr": 10,
      "naziv": "JORDAN ATANASOSKI",
      "glasova": 29,
      "posto": "24,78"
    },{
      "rbr": 11,
      "naziv": "IVANA HREN",
      "glasova": 0,
      "posto": "0,00"
    },{
      "rbr": 12,
      "naziv": "IVANA JERKOVIĆ",
      "glasova": 0,
      "posto": "0,00"
    },{
      "rbr": 13,
      "naziv": "SNJEŽANA JURKOVIĆ",
      "glasova": 0,
      "posto": "0,00"
    },{
      "rbr": 14,
      "naziv": "MARIJO VOLAREVIĆ",
      "glasova": 0,
      "posto": "0,00"
    }]
  },{
    "rbr": 7,
    "stranke": [
      {"naziv": "MOŽEMO! - POLITIČKA PLATFORMA"},
      {"naziv": "SRĐ JE GRAD"}
    ],
    "jedinstvenaSifra": "255277",
    "glasova": 96,
    "naziv": "MOŽEMO! - POLITIČKA PLATFORMA, SRĐ JE GRAD",
    "posto": "3,58",
    "lista": [{
      "rbr": 1,
      "naziv": "ĐURO CAPOR",
      "glasova": 30,
      "posto": "31,25"
    },{
      "rbr": 2,
      "naziv": "TAMARA VISKOVIĆ",
      "glasova": 18,
      "posto": "18,75"
    },{
      "rbr": 3,
      "naziv": "IGRA ŠAIN KOVAČEVIĆ",
      "glasova": 27,
      "posto": "28,12"
    },{
      "rbr": 4,
      "naziv": "PETRA MARČINKO",
      "glasova": 4,
      "posto": "4,16"
    },{
      "rbr": 5,
      "naziv": "IVICA PROFACA",
      "glasova": 0,
      "posto": "0,00"
    },{
      "rbr": 6,
      "naziv": "VINKA LOZICA",
      "glasova": 1,
      "posto": "1,04"
    },{
      "rbr": 7,
      "naziv": "TANJA JADREŠIĆ",
      "glasova": 7,
      "posto": "7,29"
    },{
      "rbr": 8,
      "naziv": "IGOR MIOŠIĆ",
      "glasova": 9,
      "posto": "9,37"
    },{
      "rbr": 9,
      "naziv": "ŽASMINA PANKOVA POKROVAC",
      "glasova": 0,
      "posto": "0,00"
    },{
      "rbr": 10,
      "naziv": "STJEPAN MIŠIĆ",
      "glasova": 0,
      "posto": "0,00"
    },{
      "rbr": 11,
      "naziv": "MILANA ROMIĆ VIĐEN",
      "glasova": 0,
      "posto": "0,00"
    },{
      "rbr": 12,
      "naziv": "IVER PEŠUT",
      "glasova": 0,
      "posto": "0,00"
    },{
      "rbr": 13,
      "naziv": "MARIJA VUJOŠEVIĆ CARIĆ",
      "glasova": 0,
      "posto": "0,00"
    },{
      "rbr": 14,
      "naziv": "MARKO GILJAČA",
      "glasova": 0,
      "posto": "0,00"
    }]
  },{
    "rbr": 8,
    "stranke": [
      {"naziv": "SOCIJALDEMOKRATI"},
      {"naziv": "ISTARSKI DEMOKRATSKI SABOR - IDS"},
      {"naziv": "PRIMORSKO GORANSKI SAVEZ - PGS"},
      {"naziv": "HRVATSKI LABURISTI - STRANKA RADA - LABURISTI"},
      {"naziv": "DEMOKRATI"}
    ],
    "jedinstvenaSifra": "005006100251299",
    "glasova": 74,
    "naziv": "SOCIJALDEMOKRATI, IDS, PGS, LABURISTI, DEMOKRATI",
    "posto": "2,76",
    "lista": [{
      "rbr": 1,
      "naziv": "KUZMA TOMAŠIĆ",
      "glasova": 25,
      "posto": "33,78"
    },{
      "rbr": 2,
      "naziv": "KATICA GLAMUZINA",
      "glasova": 18,
      "posto": "24,32"
    },{
      "rbr": 3,
      "naziv": "MARINA BRATIĆ",
      "glasova": 8,
      "posto": "10,81"
    },{
      "rbr": 4,
      "naziv": "DANIJELA BARBIR",
      "glasova": 6,
      "posto": "8,10"
    },{
      "rbr": 5,
      "naziv": "MIRA MOROVIĆ",
      "glasova": 10,
      "posto": "13,51"
    },{
      "rbr": 6,
      "naziv": "BORIS DUČIĆ",
      "glasova": 4,
      "posto": "5,40"
    },{
      "rbr": 7,
      "naziv": "FEĐA BONE",
      "glasova": 3,
      "posto": "4,05"
    },{
      "rbr": 8,
      "naziv": "MATO MARLAIS",
      "glasova": 0,
      "posto": "0,00"
    },{
      "rbr": 9,
      "naziv": "VIŠNJA VLADUŠIĆ",
      "glasova": 0,
      "posto": "0,00"
    },{
      "rbr": 10,
      "naziv": "BRANKO MILARDOVIĆ",
      "glasova": 0,
      "posto": "0,00"
    },{
      "rbr": 11,
      "naziv": "NENAD HERVATIN",
      "glasova": 0,
      "posto": "0,00"
    },{
      "rbr": 12,
      "naziv": "ZLATKO MARGAN",
      "glasova": 0,
      "posto": "0,00"
    },{
      "rbr": 13,
      "naziv": "LJILJA MIKAŠINOVIĆ",
      "glasova": 0,
      "posto": "0,00"
    },{
      "rbr": 14,
      "naziv": "IVAN ČIZMIĆ",
      "glasova": 0,
      "posto": "0,00"
    }]
  },{
    "rbr": 9,
    "stranke": [
      {"naziv": "JAVNO DOBRO"}
    ],
    "jedinstvenaSifra": "309",
    "glasova": 50,
    "naziv": "JAVNO DOBRO",
    "posto": "1,86",
    "lista": [{
      "rbr": 1,
      "naziv": "VLADIMIRA MASCARELL",
      "glasova": 21,
      "posto": "42,00"
    },{
      "rbr": 2,
      "naziv": "ELEONORA MANDIĆ",
      "glasova": 10,
      "posto": "20,00"
    },{
      "rbr": 3,
      "naziv": "ANA DOMANČIĆ KRSTULOVIĆ",
      "glasova": 5,
      "posto": "10,00"
    },{
      "rbr": 4,
      "naziv": "JOZO BAN",
      "glasova": 4,
      "posto": "8,00"
    },{
      "rbr": 5,
      "naziv": "MIROSLAVA ZENČIĆ",
      "glasova": 8,
      "posto": "16,00"
    },{
      "rbr": 6,
      "naziv": "LEO LJEPOTIĆ",
      "glasova": 2,
      "posto": "4,00"
    },{
      "rbr": 7,
      "naziv": "TOMO ŠARIĆ",
      "glasova": 0,
      "posto": "0,00"
    },{
      "rbr": 8,
      "naziv": "VESNA ROŽIĆ",
      "glasova": 0,
      "posto": "0,00"
    },{
      "rbr": 9,
      "naziv": "LUKA JURLIN",
      "glasova": 0,
      "posto": "0,00"
    },{
      "rbr": 10,
      "naziv": "JAKICA CETINIĆ",
      "glasova": 0,
      "posto": "0,00"
    },{
      "rbr": 11,
      "naziv": "RENATO COTTIERO",
      "glasova": 0,
      "posto": "0,00"
    },{
      "rbr": 12,
      "naziv": "ANTONIA GRANCARIĆ",
      "glasova": 0,
      "posto": "0,00"
    },{
      "rbr": 13,
      "naziv": "ŽELJKO ILIĆ",
      "glasova": 0,
      "posto": "0,00"
    },{
      "rbr": 14,
      "naziv": "IVAN ĆUSTIĆ",
      "glasova": 0,
      "posto": "0,00"
    }]
  },{
    "rbr": 10,
    "stranke": [
      {"naziv": "RADNIČKA FRONTA - RF"}
    ],
    "jedinstvenaSifra": "168",
    "glasova": 40,
    "naziv": "RF",
    "posto": "1,49",
    "lista": [{
      "rbr": 1,
      "naziv": "ZORAN RADMAN",
      "glasova": 19,
      "posto": "47,50"
    },{
      "rbr": 2,
      "naziv": "PETRA BOŽANJA",
      "glasova": 6,
      "posto": "15,00"
    },{
      "rbr": 3,
      "naziv": "ĐILDO BAVČEVIĆ",
      "glasova": 9,
      "posto": "22,50"
    },{
      "rbr": 4,
      "naziv": "MIRNA PAPUGA",
      "glasova": 0,
      "posto": "0,00"
    },{
      "rbr": 5,
      "naziv": "FILIP BOROVIĆ",
      "glasova": 0,
      "posto": "0,00"
    },{
      "rbr": 6,
      "naziv": "TIJANA NOVAKOVIĆ",
      "glasova": 0,
      "posto": "0,00"
    },{
      "rbr": 7,
      "naziv": "DAMIR MILIŠA",
      "glasova": 2,
      "posto": "5,00"
    },{
      "rbr": 8,
      "naziv": "BLAŽENA RADAS",
      "glasova": 4,
      "posto": "10,00"
    },{
      "rbr": 9,
      "naziv": "JAN TEŽAK",
      "glasova": 0,
      "posto": "0,00"
    },{
      "rbr": 10,
      "naziv": "TINA GETO",
      "glasova": 0,
      "posto": "0,00"
    },{
      "rbr": 11,
      "naziv": "TEO MARINKOVIĆ",
      "glasova": 0,
      "posto": "0,00"
    },{
      "rbr": 12,
      "naziv": "JOVANKA VULIĆ",
      "glasova": 0,
      "posto": "0,00"
    },{
      "rbr": 13,
      "naziv": "JAN LJUBAS",
      "glasova": 0,
      "posto": "0,00"
    },{
      "rbr": 14,
      "naziv": "IVICA ANIĆ",
      "glasova": 0,
      "posto": "0,00"
    }]
  },{
    "rbr": 11,
    "stranke": [
      {"naziv": "DALMATINSKA AKCIJA - DA"}
    ],
    "jedinstvenaSifra": "296",
    "glasova": 38,
    "naziv": "DA",
    "posto": "1,41",
    "lista": [{
      "rbr": 1,
      "naziv": "NINO AVIANI",
      "glasova": 18,
      "posto": "47,36"
    },{
      "rbr": 2,
      "naziv": "DAMIR ŠALOV",
      "glasova": 0,
      "posto": "0,00"
    },{
      "rbr": 3,
      "naziv": "SRĐAN BENZON",
      "glasova": 0,
      "posto": "0,00"
    },{
      "rbr": 4,
      "naziv": "JASMINA VUKOVIĆ",
      "glasova": 0,
      "posto": "0,00"
    },{
      "rbr": 5,
      "naziv": "LJILJANA ŠUĆUR",
      "glasova": 3,
      "posto": "7,89"
    },{
      "rbr": 6,
      "naziv": "DOMAGOJ MIJAN",
      "glasova": 4,
      "posto": "10,52"
    },{
      "rbr": 7,
      "naziv": "ŽELJKA MEDIĆ",
      "glasova": 0,
      "posto": "0,00"
    },{
      "rbr": 8,
      "naziv": "JELENA BAKOTIN RUŽIČIĆ",
      "glasova": 0,
      "posto": "0,00"
    },{
      "rbr": 9,
      "naziv": "MAJA ANTONINI",
      "glasova": 8,
      "posto": "21,05"
    },{
      "rbr": 10,
      "naziv": "DUŠAN RADICA",
      "glasova": 5,
      "posto": "13,15"
    },{
      "rbr": 11,
      "naziv": "ANTONIO KULIĆ",
      "glasova": 0,
      "posto": "0,00"
    },{
      "rbr": 12,
      "naziv": "BRANKA KUZMAN",
      "glasova": 0,
      "posto": "0,00"
    },{
      "rbr": 13,
      "naziv": "DRAGAN MARTINOVIĆ",
      "glasova": 0,
      "posto": "0,00"
    },{
      "rbr": 14,
      "naziv": "STANICA ČIP",
      "glasova": 0,
      "posto": "0,00"
    }]
  },{
    "rbr": 12,
    "stranke": [
      {"naziv": "HRVATSKA STRANKA PRAVA - HSP"},
      {"naziv": "HRVATSKO BILO"},
      {"naziv": "HRVATSKA DEMOKRATSKA SELJAČKA STRANKA - HDSS"}
    ],
    "jedinstvenaSifra": "007018308",
    "glasova": 28,
    "naziv": "HSP, HRVATSKO BILO, HDSS",
    "posto": "1,04",
    "lista": [{
      "rbr": 1,
      "naziv": "LUKA ROGULJIĆ",
      "glasova": 13,
      "posto": "46,42"
    },{
      "rbr": 2,
      "naziv": "KAŽIMIR TOMASOVIĆ",
      "glasova": 7,
      "posto": "25,00"
    },{
      "rbr": 3,
      "naziv": "GORDANA BOŽIKOVIĆ",
      "glasova": 3,
      "posto": "10,71"
    },{
      "rbr": 4,
      "naziv": "ANTE GRUBIŠIĆ",
      "glasova": 0,
      "posto": "0,00"
    },{
      "rbr": 5,
      "naziv": "STJEPAN LASIĆ",
      "glasova": 5,
      "posto": "17,85"
    },{
      "rbr": 6,
      "naziv": "MARKO JONJIĆ",
      "glasova": 0,
      "posto": "0,00"
    },{
      "rbr": 7,
      "naziv": "ŽANA JOVIĆ",
      "glasova": 0,
      "posto": "0,00"
    },{
      "rbr": 8,
      "naziv": "MARIO GALOV",
      "glasova": 0,
      "posto": "0,00"
    },{
      "rbr": 9,
      "naziv": "SLAVEN MARŠIĆ",
      "glasova": 0,
      "posto": "0,00"
    },{
      "rbr": 10,
      "naziv": "IVA BOROVINA",
      "glasova": 0,
      "posto": "0,00"
    },{
      "rbr": 11,
      "naziv": "MATIJA STIPETIĆ",
      "glasova": 0,
      "posto": "0,00"
    },{
      "rbr": 12,
      "naziv": "DANICA PLASTIĆ",
      "glasova": 0,
      "posto": "0,00"
    },{
      "rbr": 13,
      "naziv": "DANIJELA ŠEVERDIJA",
      "glasova": 0,
      "posto": "0,00"
    },{
      "rbr": 14,
      "naziv": "BRUNA ESIH",
      "glasova": 0,
      "posto": "0,00"
    }]
  },{
    "rbr": 13,
    "stranke": [
      {"naziv": "MOST"},
      {"naziv": "HRVATSKI SUVERENISTI"},
      {"naziv": "HRVATSKA KONZERVATIVNA STRANKA - HKS"},
      {"naziv": "NEZAVISNA LISTA MLADIH - NLM"}
    ],
    "jedinstvenaSifra": "131165188263",
    "glasova": 25,
    "naziv": "MOST, HRVATSKI SUVERENISTI, HKS, NLM",
    "posto": "0,93",
    "lista": [{
      "rbr": 1,
      "naziv": "BOŽO PETROV",
      "glasova": 13,
      "posto": "52,00"
    },{
      "rbr": 2,
      "naziv": "ANTE KUJUNDŽIĆ",
      "glasova": 4,
      "posto": "16,00"
    },{
      "rbr": 3,
      "naziv": "MILAN PERIŠIĆ",
      "glasova": 6,
      "posto": "24,00"
    },{
      "rbr": 4,
      "naziv": "TIHOMIR GALIĆ",
      "glasova": 0,
      "posto": "0,00"
    },{
      "rbr": 5,
      "naziv": "JOSIP MIKUŠ",
      "glasova": 0,
      "posto": "0,00"
    },{
      "rbr": 6,
      "naziv": "DAŠA DRAGNIĆ",
      "glasova": 0,
      "posto": "0,00"
    },{
      "rbr": 7,
      "naziv": "IVICA DAJAK",
      "glasova": 0,
      "posto": "0,00"
    },{
      "rbr": 8,
      "naziv": "ZVONIMIR NEDILJKO ČONDIĆ-GALINIČIĆ",
      "glasova": 2,
      "posto": "8,00"
    },{
      "rbr": 9,
      "naziv": "KRISTINA JERČIĆ",
      "glasova": 0,
      "posto": "0,00"
    },{
      "rbr": 10,
      "naziv": "PIA CVITKOVIĆ",
      "glasova": 0,
      "posto": "0,00"
    },{
      "rbr": 11,
      "naziv": "INDIRA ASANOVIĆ",
      "glasova": 0,
      "posto": "0,00"
    },{
      "rbr": 12,
      "naziv": "PAOLA MALIĆ",
      "glasova": 0,
      "posto": "0,00"
    },{
      "rbr": 13,
      "naziv": "IVANA PLOČKINIĆ",
      "glasova": 0,
      "posto": "0,00"
    },{
      "rbr": 14,
      "naziv": "MATEJAS JOZIPOVIĆ",
      "glasova": 0,
      "posto": "0,00"
    }]
  },{
    "rbr": 14,
    "stranke": [
      {"naziv": "SOCIJALDEMOKRATSKA PARTIJA HRVATSKE - SDP"},
      {"naziv": "CENTAR"},
      {"naziv": "HRVATSKA SELJAČKA STRANKA - HSS"},
      {"naziv": "\"DALIJA OREŠKOVIĆ I LJUDI S IMENOM I PREZIMENOM\" - \"DO i SIP\""},
      {"naziv": "NARODNA STRANKA - REFORMISTI - REFORMISTI"},
      {"naziv": "GRAĐANSKO-LIBERALNI SAVEZ - GLAS"}
    ],
    "jedinstvenaSifra": "004017162179244306",
    "glasova": 3,
    "naziv": "SDP, CENTAR, HSS, \"DO i SIP\", REFORMISTI, GLAS",
    "posto": "0,11",
    "lista": [{
      "rbr": 1,
      "naziv": "RANKO OSTOJIĆ",
      "glasova": 3,
      "posto": "100,00"
    },{
      "rbr": 2,
      "naziv": "IVICA PULJAK",
      "glasova": 0,
      "posto": "0,00"
    },{
      "rbr": 3,
      "naziv": "IVANA MARKOVIĆ",
      "glasova": 0,
      "posto": "0,00"
    },{
      "rbr": 4,
      "naziv": "MIŠO KRSTIČEVIĆ",
      "glasova": 0,
      "posto": "0,00"
    },{
      "rbr": 5,
      "naziv": "DAMIR BARBIR",
      "glasova": 0,
      "posto": "0,00"
    },{
      "rbr": 6,
      "naziv": "KATARINA GUGIĆ",
      "glasova": 0,
      "posto": "0,00"
    },{
      "rbr": 7,
      "naziv": "VIKTORIJA KNEŽEVIĆ",
      "glasova": 0,
      "posto": "0,00"
    },{
      "rbr": 8,
      "naziv": "JOŠKO MARKIĆ",
      "glasova": 0,
      "posto": "0,00"
    },{
      "rbr": 9,
      "naziv": "NIKA SILIĆ MAROEVIĆ",
      "glasova": 0,
      "posto": "0,00"
    },{
      "rbr": 10,
      "naziv": "GORDANA MUHTIĆ",
      "glasova": 0,
      "posto": "0,00"
    },{
      "rbr": 11,
      "naziv": "GORANA ROSANDIĆ",
      "glasova": 0,
      "posto": "0,00"
    },{
      "rbr": 12,
      "naziv": "MATKO BURIĆ",
      "glasova": 0,
      "posto": "0,00"
    },{
      "rbr": 13,
      "naziv": "RAFAELA MATIĆ",
      "glasova": 0,
      "posto": "0,00"
    },{
      "rbr": 14,
      "naziv": "ANITA BONAČIĆ OBRADOVIĆ",
      "glasova": 0,
      "posto": "0,00"
    }]
  },{
    "rbr": 15,
    "stranke": [
      {"naziv": "DOMOVINSKI POKRET - DP"},
      {"naziv": "PRAVO I PRAVDA"}
    ],
    "jedinstvenaSifra": "267312",
    "glasova": 0,
    "naziv": "DP, PRAVO I PRAVDA",
    "posto": "0,00",
    "lista": [{
      "rbr": 1,
      "naziv": "STIPO MLINARIĆ",
      "glasova": 0,
      "posto": "0,00"
    },{
      "rbr": 2,
      "naziv": "IVICA KUKAVICA",
      "glasova": 0,
      "posto": "0,00"
    },{
      "rbr": 3,
      "naziv": "RIČARD MILUN",
      "glasova": 0,
      "posto": "0,00"
    },{
      "rbr": 4,
      "naziv": "JOSIPA BARIĆ",
      "glasova": 0,
      "posto": "0,00"
    },{
      "rbr": 5,
      "naziv": "ANITA PERVAN",
      "glasova": 0,
      "posto": "0,00"
    },{
      "rbr": 6,
      "naziv": "IVANA ČAGALJ",
      "glasova": 0,
      "posto": "0,00"
    },{
      "rbr": 7,
      "naziv": "ZLATAN BAŠIĆ",
      "glasova": 0,
      "posto": "0,00"
    },{
      "rbr": 8,
      "naziv": "ANA ZRINKA KUROBASA",
      "glasova": 0,
      "posto": "0,00"
    },{
      "rbr": 9,
      "naziv": "ANTE JELAVIĆ",
      "glasova": 0,
      "posto": "0,00"
    },{
      "rbr": 10,
      "naziv": "IVONA TOPIĆ ĆERLEK",
      "glasova": 0,
      "posto": "0,00"
    },{
      "rbr": 11,
      "naziv": "MARIN MATAGA",
      "glasova": 0,
      "posto": "0,00"
    },{
      "rbr": 12,
      "naziv": "MILA JAKOVLJEVIĆ",
      "glasova": 0,
      "posto": "0,00"
    },{
      "rbr": 13,
      "naziv": "SREĆKO SLADOLJEV",
      "glasova": 0,
      "posto": "0,00"
    },{
      "rbr": 14,
      "naziv": "MARKO ŽAJA",
      "glasova": 0,
      "posto": "0,00"
    }]
  },{
    "rbr": 16,
    "stranke": [
      {"naziv": "HRVATSKA DEMOKRATSKA ZAJEDNICA - HDZ"},
      {"naziv": "HRVATSKA SOCIJALNO - LIBERALNA STRANKA - HSLS"},
      {"naziv": "HRVATSKA DEMOKRŠĆANSKA STRANKA - HDS"},
      {"naziv": "HRVATSKA NARODNA STRANKA - LIBERALNI DEMOKRATI - HNS"},
      {"naziv": "HRVATSKA STRANKA UMIROVLJENIKA - HSU"}
    ],
    "jedinstvenaSifra": "001002003011023",
    "glasova": 0,
    "naziv": "HDZ, HSLS, HDS, HNS, HSU",
    "posto": "0,00",
    "lista": [{
      "rbr": 1,
      "naziv": "BRANKO BAČIĆ",
      "glasova": 0,
      "posto": "0,00"
    },{
      "rbr": 2,
      "naziv": "BLAŽENKO BOBAN",
      "glasova": 0,
      "posto": "0,00"
    },{
      "rbr": 3,
      "naziv": "TOMISLAV ŠUTA",
      "glasova": 0,
      "posto": "0,00"
    },{
      "rbr": 4,
      "naziv": "MATO FRANKOVIĆ",
      "glasova": 0,
      "posto": "0,00"
    },{
      "rbr": 5,
      "naziv": "ANDRO KRSTULOVIĆ OPARA",
      "glasova": 0,
      "posto": "0,00"
    },{
      "rbr": 6,
      "naziv": "MARIJA VUČKOVIĆ",
      "glasova": 0,
      "posto": "0,00"
    },{
      "rbr": 7,
      "naziv": "DANICA BARIČEVIĆ",
      "glasova": 0,
      "posto": "0,00"
    },{
      "rbr": 8,
      "naziv": "ANTE ŠOŠIĆ",
      "glasova": 0,
      "posto": "0,00"
    },{
      "rbr": 9,
      "naziv": "DALIBOR MILAN",
      "glasova": 0,
      "posto": "0,00"
    },{
      "rbr": 10,
      "naziv": "IVAN BUDALIĆ",
      "glasova": 0,
      "posto": "0,00"
    },{
      "rbr": 11,
      "naziv": "JURE BRKAN",
      "glasova": 0,
      "posto": "0,00"
    },{
      "rbr": 12,
      "naziv": "ZRINKA MUŽINIĆ BIKIĆ",
      "glasova": 0,
      "posto": "0,00"
    },{
      "rbr": 13,
      "naziv": "IVO RADICA",
      "glasova": 0,
      "posto": "0,00"
    },{
      "rbr": 14,
      "naziv": "DAMIR KRSTIČEVIĆ",
      "glasova": 0,
      "posto": "0,00"
    }]
  },{
    "rbr": 17,
    "stranke": [
      {"naziv": "SOCIJALISTIČKA RADNIČKA PARTIJA HRVATSKE - SRP"}
    ],
    "jedinstvenaSifra": "029",
    "glasova": 0,
    "naziv": "SRP",
    "posto": "0,00",
    "lista": [{
      "rbr": 1,
      "naziv": "IVAN GRBEC",
      "glasova": 0,
      "posto": "0,00"
    },{
      "rbr": 2,
      "naziv": "MARKO VESELINOVIĆ",
      "glasova": 0,
      "posto": "0,00"
    },{
      "rbr": 3,
      "naziv": "ANA LUNIĆ",
      "glasova": 0,
      "posto": "0,00"
    },{
      "rbr": 4,
      "naziv": "DRAGO MINDOLJEVIĆ",
      "glasova": 0,
      "posto": "0,00"
    },{
      "rbr": 5,
      "naziv": "ŽIVANA ŠAŠLIĆ",
      "glasova": 0,
      "posto": "0,00"
    },{
      "rbr": 6,
      "naziv": "ALEKSANDRA PREININGER",
      "glasova": 0,
      "posto": "0,00"
    },{
      "rbr": 7,
      "naziv": "ŠIME GULIN",
      "glasova": 0,
      "posto": "0,00"
    },{
      "rbr": 8,
      "naziv": "SUZANA NEDIĆ",
      "glasova": 0,
      "posto": "0,00"
    },{
      "rbr": 9,
      "naziv": "NEVENKA BARIŠIĆ",
      "glasova": 0,
      "posto": "0,00"
    },{
      "rbr": 10,
      "naziv": "MATE ČULIĆ",
      "glasova": 0,
      "posto": "0,00"
    },{
      "rbr": 11,
      "naziv": "BISERKA ADORIĆ",
      "glasova": 0,
      "posto": "0,00"
    },{
      "rbr": 12,
      "naziv": "JUSTINA KORDIŠ",
      "glasova": 0,
      "posto": "0,00"
    },{
      "rbr": 13,
      "naziv": "MIJO JURETIĆ",
      "glasova": 0,
      "posto": "0,00"
    },{
      "rbr": 14,
      "naziv": "RANKO ADORIĆ",
      "glasova": 0,
      "posto": "0,00"
    }]
  }]
}
