{
  "izbori": "Zastupnički izbori 2024",
  "datum": "15.04.2024.",
  "vrijeme": "15:30",
  "izboriOznaka": "02",
  "ijSifra": "004",
  "bmSifra": "000",
  "ijNaziv": "IV. IZBORNA JEDINICA",
  "gropNaziv": "posebna biračka mjesta",
  "bmNaziv": "",
  "bmZatvoreno": 113,
  "bmUkupno": 226,
  "biraciUkupno": 3391,
  "biraciGlasovalo": 2336,
  "biraciGlasovaloPosto": "68,89",
  "listiciUkupno": 2330,
  "listiciVazeci": 2245,
  "listiciVazeciPosto": "96,35",
  "listiciNevazeci": 85,
  "listiciNevazeciPosto": "3,65",
  "napomena": "",
  "napomena2": "",
  "lista": [{
    "rbr": 1,
    "stranke": [
      {"naziv": "PRAVEDNA HRVATSKA - PH"}
    ],
    "jedinstvenaSifra": "298",
    "glasova": 753,
    "naziv": "PH",
    "posto": "33,54",
    "lista": [{
      "rbr": 1,
      "naziv": "IGOR ŠTEPANKO",
      "glasova": 153,
      "posto": "20,31"
    },{
      "rbr": 2,
      "naziv": "DANIJEL KOVAČEVIĆ",
      "glasova": 136,
      "posto": "18,06"
    },{
      "rbr": 3,
      "naziv": "DRAŽEN MIJATOVIĆ",
      "glasova": 178,
      "posto": "23,63"
    },{
      "rbr": 4,
      "naziv": "BRANKA ŽUŽIĆ",
      "glasova": 47,
      "posto": "6,24"
    },{
      "rbr": 5,
      "naziv": "VEDRAN ŽAJA",
      "glasova": 19,
      "posto": "2,52"
    },{
      "rbr": 6,
      "naziv": "ĐURO MILČIĆ",
      "glasova": 33,
      "posto": "4,38"
    },{
      "rbr": 7,
      "naziv": "ĐURĐA KOVAČEVIĆ",
      "glasova": 54,
      "posto": "7,17"
    },{
      "rbr": 8,
      "naziv": "SLAVICA ŠTEPANKO",
      "glasova": 72,
      "posto": "9,56"
    },{
      "rbr": 9,
      "naziv": "ĐURO KOKOTIĆ",
      "glasova": 5,
      "posto": "0,66"
    },{
      "rbr": 10,
      "naziv": "TEA ŠTEPANKO",
      "glasova": 9,
      "posto": "1,19"
    },{
      "rbr": 11,
      "naziv": "VLADIMIR MLATILIK",
      "glasova": 15,
      "posto": "1,99"
    },{
      "rbr": 12,
      "naziv": "KATICA LILION ŽIVKOVIĆ",
      "glasova": 3,
      "posto": "0,39"
    },{
      "rbr": 13,
      "naziv": "ZVONIMIR DORČEC",
      "glasova": 6,
      "posto": "0,79"
    },{
      "rbr": 14,
      "naziv": "HELENA VARŽIĆ",
      "glasova": 6,
      "posto": "0,79"
    }]
  },{
    "rbr": 2,
    "stranke": [
      {"naziv": "RADNIČKA FRONTA - RF"}
    ],
    "jedinstvenaSifra": "168",
    "glasova": 436,
    "naziv": "RF",
    "posto": "19,42",
    "lista": [{
      "rbr": 1,
      "naziv": "DRAGAN NEMET",
      "glasova": 95,
      "posto": "21,78"
    },{
      "rbr": 2,
      "naziv": "MARIJA ZORBAS",
      "glasova": 79,
      "posto": "18,11"
    },{
      "rbr": 3,
      "naziv": "VID ZUBIĆ",
      "glasova": 111,
      "posto": "25,45"
    },{
      "rbr": 4,
      "naziv": "MARINA TOPALOVIĆ",
      "glasova": 24,
      "posto": "5,50"
    },{
      "rbr": 5,
      "naziv": "NIKOLA FABIJANČIĆ",
      "glasova": 8,
      "posto": "1,83"
    },{
      "rbr": 6,
      "naziv": "LJUBICA CUMBO",
      "glasova": 19,
      "posto": "4,35"
    },{
      "rbr": 7,
      "naziv": "DIMITRIJE GRČIĆ",
      "glasova": 29,
      "posto": "6,65"
    },{
      "rbr": 8,
      "naziv": "MARIJA CAREVIĆ",
      "glasova": 41,
      "posto": "9,40"
    },{
      "rbr": 9,
      "naziv": "DAMIR ORUČ",
      "glasova": 3,
      "posto": "0,68"
    },{
      "rbr": 10,
      "naziv": "MILENA ĐURIĆ",
      "glasova": 6,
      "posto": "1,37"
    },{
      "rbr": 11,
      "naziv": "ALEKSANDAR KNEŽEVIĆ",
      "glasova": 6,
      "posto": "1,37"
    },{
      "rbr": 12,
      "naziv": "ALEKSANDRA PRICA",
      "glasova": 5,
      "posto": "1,14"
    },{
      "rbr": 13,
      "naziv": "SINIŠA BOŽIĆ",
      "glasova": 1,
      "posto": "0,22"
    },{
      "rbr": 14,
      "naziv": "VLADIMIR JURIĆ",
      "glasova": 3,
      "posto": "0,68"
    }]
  },{
    "rbr": 3,
    "stranke": [
      {"naziv": "ODLUČNOST I PRAVEDNOST - OIP"}
    ],
    "jedinstvenaSifra": "300",
    "glasova": 263,
    "naziv": "OIP",
    "posto": "11,71",
    "lista": [{
      "rbr": 1,
      "naziv": "IVICA DEBIĆ",
      "glasova": 125,
      "posto": "47,52"
    },{
      "rbr": 2,
      "naziv": "BRUNO SKRAČIĆ",
      "glasova": 44,
      "posto": "16,73"
    },{
      "rbr": 3,
      "naziv": "PETAR ČENGIĆ",
      "glasova": 23,
      "posto": "8,74"
    },{
      "rbr": 4,
      "naziv": "DAVOR ČAKIĆ",
      "glasova": 12,
      "posto": "4,56"
    },{
      "rbr": 5,
      "naziv": "DOLORES RIBA",
      "glasova": 31,
      "posto": "11,78"
    },{
      "rbr": 6,
      "naziv": "MARIO KRIŠTO",
      "glasova": 9,
      "posto": "3,42"
    },{
      "rbr": 7,
      "naziv": "ANTONIO ŠPEHAR",
      "glasova": 5,
      "posto": "1,90"
    },{
      "rbr": 8,
      "naziv": "DALIBOR LEPEN",
      "glasova": 2,
      "posto": "0,76"
    },{
      "rbr": 9,
      "naziv": "DAMIR JURKIN",
      "glasova": 1,
      "posto": "0,38"
    },{
      "rbr": 10,
      "naziv": "MAĆAŠ ROMER",
      "glasova": 3,
      "posto": "1,14"
    },{
      "rbr": 11,
      "naziv": "KSENIJA BILANDŽIĆ",
      "glasova": 1,
      "posto": "0,38"
    },{
      "rbr": 12,
      "naziv": "MIRKO BANDIĆ",
      "glasova": 3,
      "posto": "1,14"
    },{
      "rbr": 13,
      "naziv": "TANJA MAMIĆ-VIDOVIĆ",
      "glasova": 1,
      "posto": "0,38"
    },{
      "rbr": 14,
      "naziv": "DAMIR VUKIĆ",
      "glasova": 1,
      "posto": "0,38"
    }]
  },{
    "rbr": 4,
    "stranke": [
      {"naziv": "STRANKA IVANA PERNARA"}
    ],
    "jedinstvenaSifra": "259",
    "glasova": 250,
    "naziv": "STRANKA IVANA PERNARA",
    "posto": "11,13",
    "lista": [{
      "rbr": 1,
      "naziv": "DORIAN ROBAK",
      "glasova": 57,
      "posto": "22,80"
    },{
      "rbr": 2,
      "naziv": "MARKO DOMJANIĆ",
      "glasova": 45,
      "posto": "18,00"
    },{
      "rbr": 3,
      "naziv": "TENA KOŠA",
      "glasova": 73,
      "posto": "29,20"
    },{
      "rbr": 4,
      "naziv": "JESENIJA KLASIĆ",
      "glasova": 11,
      "posto": "4,40"
    },{
      "rbr": 5,
      "naziv": "DEJAN LUKIĆ",
      "glasova": 5,
      "posto": "2,00"
    },{
      "rbr": 6,
      "naziv": "HRVOJE PERNAR",
      "glasova": 9,
      "posto": "3,60"
    },{
      "rbr": 7,
      "naziv": "IVANA SALAI",
      "glasova": 15,
      "posto": "6,00"
    },{
      "rbr": 8,
      "naziv": "DINO OSMANAGIĆ",
      "glasova": 24,
      "posto": "9,60"
    },{
      "rbr": 9,
      "naziv": "KRISTINA MLINAREVIĆ",
      "glasova": 1,
      "posto": "0,40"
    },{
      "rbr": 10,
      "naziv": "NENAD BOJANIĆ",
      "glasova": 2,
      "posto": "0,80"
    },{
      "rbr": 11,
      "naziv": "MARIJA BEČIREVIĆ",
      "glasova": 5,
      "posto": "2,00"
    },{
      "rbr": 12,
      "naziv": "ROMAN PAVIĆ",
      "glasova": 0,
      "posto": "0,00"
    },{
      "rbr": 13,
      "naziv": "ALEN SEDLO",
      "glasova": 1,
      "posto": "0,40"
    },{
      "rbr": 14,
      "naziv": "IVANA RADMAN",
      "glasova": 2,
      "posto": "0,80"
    }]
  },{
    "rbr": 5,
    "stranke": [
      {"naziv": "UMIROVLJENICI ZAJEDNO - POLITIČKA PLATFORMA - UMIROVLJENICI ZAJEDNO"},
      {"naziv": "STRANKA UMIROVLJENIKA - SU"},
      {"naziv": "BLOK UMIROVLJENICI ZAJEDNO - BUZ"},
      {"naziv": "DEMOKRATSKA STRANKA UMIROVLJENIKA - DSU"}
    ],
    "jedinstvenaSifra": "039041102301",
    "glasova": 153,
    "naziv": "UMIROVLJENICI ZAJEDNO, SU, BUZ, DSU",
    "posto": "6,81",
    "lista": [{
      "rbr": 1,
      "naziv": "IVICA BEŠIROVIĆ",
      "glasova": 72,
      "posto": "47,05"
    },{
      "rbr": 2,
      "naziv": "NEDELJKO BEZMAREVIĆ",
      "glasova": 28,
      "posto": "18,30"
    },{
      "rbr": 3,
      "naziv": "ZORISLAV BABIĆ",
      "glasova": 12,
      "posto": "7,84"
    },{
      "rbr": 4,
      "naziv": "BRANKA ŽIGIĆ",
      "glasova": 9,
      "posto": "5,88"
    },{
      "rbr": 5,
      "naziv": "MIJO LABAK",
      "glasova": 17,
      "posto": "11,11"
    },{
      "rbr": 6,
      "naziv": "ZORICA BUTORAC",
      "glasova": 5,
      "posto": "3,26"
    },{
      "rbr": 7,
      "naziv": "TOMO TRAC",
      "glasova": 3,
      "posto": "1,96"
    },{
      "rbr": 8,
      "naziv": "JASMINA GLEDIĆ",
      "glasova": 1,
      "posto": "0,65"
    },{
      "rbr": 9,
      "naziv": "NENAD PEIĆ",
      "glasova": 1,
      "posto": "0,65"
    },{
      "rbr": 10,
      "naziv": "STJEPAN BRANDIS",
      "glasova": 3,
      "posto": "1,96"
    },{
      "rbr": 11,
      "naziv": "KATICA KURIC",
      "glasova": 0,
      "posto": "0,00"
    },{
      "rbr": 12,
      "naziv": "MARKO MARKOVIĆ",
      "glasova": 1,
      "posto": "0,65"
    },{
      "rbr": 13,
      "naziv": "KSENIJA MARCIJUŠ",
      "glasova": 1,
      "posto": "0,65"
    },{
      "rbr": 14,
      "naziv": "VERA BAČANI",
      "glasova": 0,
      "posto": "0,00"
    }]
  },{
    "rbr": 6,
    "stranke": [
      {"naziv": "HRVATSKA STRANKA PRAVA - HSP"},
      {"naziv": "HRVATSKO BILO"},
      {"naziv": "HRVATSKA DEMOKRATSKA SELJAČKA STRANKA - HDSS"}
    ],
    "jedinstvenaSifra": "007018308",
    "glasova": 115,
    "naziv": "HSP, HRVATSKO BILO, HDSS",
    "posto": "5,12",
    "lista": [{
      "rbr": 1,
      "naziv": "MATO BUBAŠ",
      "glasova": 57,
      "posto": "49,56"
    },{
      "rbr": 2,
      "naziv": "KRUNOSLAV RADAČIĆ",
      "glasova": 22,
      "posto": "19,13"
    },{
      "rbr": 3,
      "naziv": "IVANA KRAČUN",
      "glasova": 9,
      "posto": "7,82"
    },{
      "rbr": 4,
      "naziv": "MIRKO PRITIŠANAC",
      "glasova": 5,
      "posto": "4,34"
    },{
      "rbr": 5,
      "naziv": "MARKO VRHOVAC",
      "glasova": 11,
      "posto": "9,56"
    },{
      "rbr": 6,
      "naziv": "INES SERDAR",
      "glasova": 5,
      "posto": "4,34"
    },{
      "rbr": 7,
      "naziv": "FRANJO KRALJIK",
      "glasova": 3,
      "posto": "2,60"
    },{
      "rbr": 8,
      "naziv": "NIKOLINA RAIČ",
      "glasova": 0,
      "posto": "0,00"
    },{
      "rbr": 9,
      "naziv": "SANJA REILI",
      "glasova": 0,
      "posto": "0,00"
    },{
      "rbr": 10,
      "naziv": "ELIZABETA BOŽIĆ",
      "glasova": 1,
      "posto": "0,86"
    },{
      "rbr": 11,
      "naziv": "NIKICA KRPAN",
      "glasova": 0,
      "posto": "0,00"
    },{
      "rbr": 12,
      "naziv": "KATICA DUVNJAK",
      "glasova": 1,
      "posto": "0,86"
    },{
      "rbr": 13,
      "naziv": "JELENA ŠKORVAGA",
      "glasova": 1,
      "posto": "0,86"
    },{
      "rbr": 14,
      "naziv": "PAVO TUTENOV",
      "glasova": 0,
      "posto": "0,00"
    }]
  },{
    "rbr": 7,
    "stranke": [
      {"naziv": "MOST"},
      {"naziv": "HRVATSKI SUVERENISTI"},
      {"naziv": "HRVATSKA KONZERVATIVNA STRANKA - HKS"},
      {"naziv": "NEZAVISNA LISTA MLADIH - NLM"}
    ],
    "jedinstvenaSifra": "131165188263",
    "glasova": 61,
    "naziv": "MOST, HRVATSKI SUVERENISTI, HKS, NLM",
    "posto": "2,71",
    "lista": [{
      "rbr": 1,
      "naziv": "JOSIP SKOČIBUŠIĆ",
      "glasova": 34,
      "posto": "55,73"
    },{
      "rbr": 2,
      "naziv": "VESNA VUČEMILOVIĆ",
      "glasova": 11,
      "posto": "18,03"
    },{
      "rbr": 3,
      "naziv": "ŽELJKA ILIJAŠ BARIČEVIĆ",
      "glasova": 5,
      "posto": "8,19"
    },{
      "rbr": 4,
      "naziv": "SILVA MIŠKULIN",
      "glasova": 3,
      "posto": "4,91"
    },{
      "rbr": 5,
      "naziv": "VIKTOR ŠKARO",
      "glasova": 5,
      "posto": "8,19"
    },{
      "rbr": 6,
      "naziv": "IGOR JOSIPOVIĆ",
      "glasova": 2,
      "posto": "3,27"
    },{
      "rbr": 7,
      "naziv": "IRENA GLUHAK FOREMPOHER",
      "glasova": 1,
      "posto": "1,63"
    },{
      "rbr": 8,
      "naziv": "HRVOJE SVOBODA",
      "glasova": 0,
      "posto": "0,00"
    },{
      "rbr": 9,
      "naziv": "TOMISLAV ŠIPEK",
      "glasova": 0,
      "posto": "0,00"
    },{
      "rbr": 10,
      "naziv": "DORIJANA ŠKORO",
      "glasova": 0,
      "posto": "0,00"
    },{
      "rbr": 11,
      "naziv": "LUKA PODNAR",
      "glasova": 0,
      "posto": "0,00"
    },{
      "rbr": 12,
      "naziv": "NIKO ŠKOJO",
      "glasova": 0,
      "posto": "0,00"
    },{
      "rbr": 13,
      "naziv": "SANDRA ŽIVKOVIĆ",
      "glasova": 0,
      "posto": "0,00"
    },{
      "rbr": 14,
      "naziv": "ZLATKO MILIŠA",
      "glasova": 0,
      "posto": "0,00"
    }]
  },{
    "rbr": 8,
    "stranke": [
      {"naziv": "SOCIJALDEMOKRATSKA PARTIJA HRVATSKE - SDP"},
      {"naziv": "CENTAR"},
      {"naziv": "HRVATSKA SELJAČKA STRANKA - HSS"},
      {"naziv": "\"DALIJA OREŠKOVIĆ I LJUDI S IMENOM I PREZIMENOM\" - \"DO i SIP\""},
      {"naziv": "NARODNA STRANKA - REFORMISTI - REFORMISTI"},
      {"naziv": "GRAĐANSKO-LIBERALNI SAVEZ - GLAS"}
    ],
    "jedinstvenaSifra": "004017162179244306",
    "glasova": 52,
    "naziv": "SDP, CENTAR, HSS, \"DO i SIP\", REFORMISTI, GLAS",
    "posto": "2,31",
    "lista": [{
      "rbr": 1,
      "naziv": "MIŠEL JAKŠIĆ",
      "glasova": 27,
      "posto": "51,92"
    },{
      "rbr": 2,
      "naziv": "SANJA BJEŽANČEVIĆ",
      "glasova": 10,
      "posto": "19,23"
    },{
      "rbr": 3,
      "naziv": "BORIS PILIŽOTA",
      "glasova": 4,
      "posto": "7,69"
    },{
      "rbr": 4,
      "naziv": "KRISTINA ŠKODA VAJDIĆ",
      "glasova": 3,
      "posto": "5,76"
    },{
      "rbr": 5,
      "naziv": "MATE VUKUŠIĆ",
      "glasova": 5,
      "posto": "9,61"
    },{
      "rbr": 6,
      "naziv": "SONJA KOVAČ",
      "glasova": 2,
      "posto": "3,84"
    },{
      "rbr": 7,
      "naziv": "VJERAN MARIJAŠEVIĆ",
      "glasova": 1,
      "posto": "1,92"
    },{
      "rbr": 8,
      "naziv": "SANDRA SINJERI",
      "glasova": 0,
      "posto": "0,00"
    },{
      "rbr": 9,
      "naziv": "TOMISLAV BRAČUN",
      "glasova": 0,
      "posto": "0,00"
    },{
      "rbr": 10,
      "naziv": "NATAŠA TETEC",
      "glasova": 0,
      "posto": "0,00"
    },{
      "rbr": 11,
      "naziv": "TANJA PARIS",
      "glasova": 0,
      "posto": "0,00"
    },{
      "rbr": 12,
      "naziv": "ZORAN VRABELJ",
      "glasova": 0,
      "posto": "0,00"
    },{
      "rbr": 13,
      "naziv": "SAMIR HAJ BARAKAT",
      "glasova": 0,
      "posto": "0,00"
    },{
      "rbr": 14,
      "naziv": "BILJANA BORZAN",
      "glasova": 0,
      "posto": "0,00"
    }]
  },{
    "rbr": 9,
    "stranke": [
      {"naziv": "MOŽEMO! - POLITIČKA PLATFORMA"},
      {"naziv": "HOĆEMO PRAVEDNO"}
    ],
    "jedinstvenaSifra": "255297",
    "glasova": 42,
    "naziv": "MOŽEMO! - POLITIČKA PLATFORMA, HOĆEMO PRAVEDNO",
    "posto": "1,87",
    "lista": [{
      "rbr": 1,
      "naziv": "KATARINA KRUHONJA",
      "glasova": 20,
      "posto": "47,61"
    },{
      "rbr": 2,
      "naziv": "VIOLETA PANCER",
      "glasova": 8,
      "posto": "19,04"
    },{
      "rbr": 3,
      "naziv": "BORIS KIŠ",
      "glasova": 3,
      "posto": "7,14"
    },{
      "rbr": 4,
      "naziv": "HERMINE GORIKE-LUKIĆ",
      "glasova": 3,
      "posto": "7,14"
    },{
      "rbr": 5,
      "naziv": "MARKO BERBEROVIĆ",
      "glasova": 5,
      "posto": "11,90"
    },{
      "rbr": 6,
      "naziv": "VLADIMIR DIMIĆ",
      "glasova": 2,
      "posto": "4,76"
    },{
      "rbr": 7,
      "naziv": "MANDICA TOMAŠEVIĆ",
      "glasova": 1,
      "posto": "2,38"
    },{
      "rbr": 8,
      "naziv": "IVANA HENGL",
      "glasova": 0,
      "posto": "0,00"
    },{
      "rbr": 9,
      "naziv": "NADA STANKOVIĆ",
      "glasova": 0,
      "posto": "0,00"
    },{
      "rbr": 10,
      "naziv": "VLADIMIR CINDRIĆ",
      "glasova": 0,
      "posto": "0,00"
    },{
      "rbr": 11,
      "naziv": "IVAN ŠPIRANOVIĆ",
      "glasova": 0,
      "posto": "0,00"
    },{
      "rbr": 12,
      "naziv": "FRANJO DUBRAVKO ŠOKČEVIĆ",
      "glasova": 0,
      "posto": "0,00"
    },{
      "rbr": 13,
      "naziv": "VANDA JOSIĆ",
      "glasova": 0,
      "posto": "0,00"
    },{
      "rbr": 14,
      "naziv": "DANKO HEĆIMOVIĆ",
      "glasova": 0,
      "posto": "0,00"
    }]
  },{
    "rbr": 10,
    "stranke": [
      {"naziv": "SOCIJALDEMOKRATI"},
      {"naziv": "ISTARSKI DEMOKRATSKI SABOR - IDS"},
      {"naziv": "PRIMORSKO GORANSKI SAVEZ - PGS"},
      {"naziv": "HRVATSKI LABURISTI - STRANKA RADA - LABURISTI"},
      {"naziv": "DEMOKRATI"}
    ],
    "jedinstvenaSifra": "005006100251299",
    "glasova": 36,
    "naziv": "SOCIJALDEMOKRATI, IDS, PGS, LABURISTI, DEMOKRATI",
    "posto": "1,60",
    "lista": [{
      "rbr": 1,
      "naziv": "DOMAGOJ HAJDUKOVIĆ",
      "glasova": 9,
      "posto": "25,00"
    },{
      "rbr": 2,
      "naziv": "ROMANA NIKOLIĆ",
      "glasova": 6,
      "posto": "16,66"
    },{
      "rbr": 3,
      "naziv": "SEBASTIJAN SVAT",
      "glasova": 12,
      "posto": "33,33"
    },{
      "rbr": 4,
      "naziv": "IVAN BEGOVIĆ",
      "glasova": 3,
      "posto": "8,33"
    },{
      "rbr": 5,
      "naziv": "ANTONIJA KALAZIĆ",
      "glasova": 0,
      "posto": "0,00"
    },{
      "rbr": 6,
      "naziv": "SLAVIMIR BRKIĆ",
      "glasova": 0,
      "posto": "0,00"
    },{
      "rbr": 7,
      "naziv": "LUKA MAJETIĆ",
      "glasova": 3,
      "posto": "8,33"
    },{
      "rbr": 8,
      "naziv": "LJILJANA KOLOMBO",
      "glasova": 3,
      "posto": "8,33"
    },{
      "rbr": 9,
      "naziv": "IVAN KOLEDIĆ",
      "glasova": 0,
      "posto": "0,00"
    },{
      "rbr": 10,
      "naziv": "TAJANA OROZOVIĆ",
      "glasova": 0,
      "posto": "0,00"
    },{
      "rbr": 11,
      "naziv": "DARKO SALIMOVIĆ",
      "glasova": 0,
      "posto": "0,00"
    },{
      "rbr": 12,
      "naziv": "TOMISLAVA ŠTAINER LACKOVIĆ",
      "glasova": 0,
      "posto": "0,00"
    },{
      "rbr": 13,
      "naziv": "TEA ROŽIĆ",
      "glasova": 0,
      "posto": "0,00"
    },{
      "rbr": 14,
      "naziv": "DANIJEL STOJAKOVIĆ",
      "glasova": 0,
      "posto": "0,00"
    }]
  },{
    "rbr": 11,
    "stranke": [
      {"naziv": "DOMOVINSKI POKRET - DP"},
      {"naziv": "PRAVO I PRAVDA"},
      {"naziv": "NEZAVISNI"},
      {"naziv": "DEMOKRATSKI HSS - DHSS"},
      {"naziv": "ZELENA LISTA"}
    ],
    "jedinstvenaSifra": "231243267283312",
    "glasova": 26,
    "naziv": "DP, PRAVO I PRAVDA, NEZAVISNI, DHSS, ZELENA LISTA",
    "posto": "1,15",
    "lista": [{
      "rbr": 1,
      "naziv": "MARIO RADIĆ",
      "glasova": 8,
      "posto": "30,76"
    },{
      "rbr": 2,
      "naziv": "JESENKA RICL",
      "glasova": 1,
      "posto": "3,84"
    },{
      "rbr": 3,
      "naziv": "KREŠIMIR ČABAJ",
      "glasova": 0,
      "posto": "0,00"
    },{
      "rbr": 4,
      "naziv": "PETAR KOPUNOVIĆ-LEGETIN",
      "glasova": 1,
      "posto": "3,84"
    },{
      "rbr": 5,
      "naziv": "ANA DIKLIĆ",
      "glasova": 2,
      "posto": "7,69"
    },{
      "rbr": 6,
      "naziv": "ŽELJKO LACKOVIĆ",
      "glasova": 3,
      "posto": "11,53"
    },{
      "rbr": 7,
      "naziv": "ILIJA NIKOLIĆ",
      "glasova": 0,
      "posto": "0,00"
    },{
      "rbr": 8,
      "naziv": "NIKOLINA TOMIĆ",
      "glasova": 0,
      "posto": "0,00"
    },{
      "rbr": 9,
      "naziv": "DAVOR MILAKOVIĆ",
      "glasova": 6,
      "posto": "23,07"
    },{
      "rbr": 10,
      "naziv": "IVANA ABIČIĆ",
      "glasova": 5,
      "posto": "19,23"
    },{
      "rbr": 11,
      "naziv": "HRVOJE JANČI",
      "glasova": 0,
      "posto": "0,00"
    },{
      "rbr": 12,
      "naziv": "SNJEŽANA KUHAR",
      "glasova": 0,
      "posto": "0,00"
    },{
      "rbr": 13,
      "naziv": "DAVID GORUP",
      "glasova": 0,
      "posto": "0,00"
    },{
      "rbr": 14,
      "naziv": "DANIEL SPAJIĆ",
      "glasova": 0,
      "posto": "0,00"
    }]
  },{
    "rbr": 12,
    "stranke": [
      {"naziv": "FOKUS"},
      {"naziv": "REPUBLIKA"}
    ],
    "jedinstvenaSifra": "270310",
    "glasova": 25,
    "naziv": "FOKUS, REPUBLIKA",
    "posto": "1,11",
    "lista": [{
      "rbr": 1,
      "naziv": "BERISLAV MLINAREVIĆ",
      "glasova": 8,
      "posto": "32,00"
    },{
      "rbr": 2,
      "naziv": "ROBERT PERIŠA",
      "glasova": 1,
      "posto": "4,00"
    },{
      "rbr": 3,
      "naziv": "MIRKO LUKAŠ",
      "glasova": 0,
      "posto": "0,00"
    },{
      "rbr": 4,
      "naziv": "ZLATKO ŠKRINJAR",
      "glasova": 1,
      "posto": "4,00"
    },{
      "rbr": 5,
      "naziv": "ANDREA ILEŠ",
      "glasova": 1,
      "posto": "4,00"
    },{
      "rbr": 6,
      "naziv": "ZVONKO BRDAR",
      "glasova": 3,
      "posto": "12,00"
    },{
      "rbr": 7,
      "naziv": "MILI PERKUŠIĆ",
      "glasova": 0,
      "posto": "0,00"
    },{
      "rbr": 8,
      "naziv": "KREŠIMIR CESTAR",
      "glasova": 0,
      "posto": "0,00"
    },{
      "rbr": 9,
      "naziv": "GORDANA LORDAN",
      "glasova": 6,
      "posto": "24,00"
    },{
      "rbr": 10,
      "naziv": "IVANA MAĐAR",
      "glasova": 5,
      "posto": "20,00"
    },{
      "rbr": 11,
      "naziv": "STJEPANA URSIĆ",
      "glasova": 0,
      "posto": "0,00"
    },{
      "rbr": 12,
      "naziv": "DANIELA PETROVIĆ",
      "glasova": 0,
      "posto": "0,00"
    },{
      "rbr": 13,
      "naziv": "VESNA BARIŠIĆ",
      "glasova": 0,
      "posto": "0,00"
    },{
      "rbr": 14,
      "naziv": "DOMINIK MIHALJEVIĆ",
      "glasova": 0,
      "posto": "0,00"
    }]
  },{
    "rbr": 13,
    "stranke": [
      {"naziv": "HRVATSKA DEMOKRATSKA ZAJEDNICA - HDZ"},
      {"naziv": "HRVATSKA SOCIJALNO - LIBERALNA STRANKA - HSLS"},
      {"naziv": "HRVATSKA DEMOKRŠĆANSKA STRANKA - HDS"},
      {"naziv": "HRVATSKA NARODNA STRANKA - LIBERALNI DEMOKRATI - HNS"},
      {"naziv": "HRVATSKA STRANKA UMIROVLJENIKA - HSU"}
    ],
    "jedinstvenaSifra": "001002003011023",
    "glasova": 19,
    "naziv": "HDZ, HSLS, HDS, HNS, HSU",
    "posto": "0,84",
    "lista": [{
      "rbr": 1,
      "naziv": "IVAN ANUŠIĆ",
      "glasova": 1,
      "posto": "5,26"
    },{
      "rbr": 2,
      "naziv": "IGOR ANDROVIĆ",
      "glasova": 6,
      "posto": "31,57"
    },{
      "rbr": 3,
      "naziv": "DARKO SOBOTA",
      "glasova": 0,
      "posto": "0,00"
    },{
      "rbr": 4,
      "naziv": "IVAN RADIĆ",
      "glasova": 2,
      "posto": "10,52"
    },{
      "rbr": 5,
      "naziv": "NATAŠA TRAMIŠAK",
      "glasova": 2,
      "posto": "10,52"
    },{
      "rbr": 6,
      "naziv": "GORAN IVANOVIĆ",
      "glasova": 1,
      "posto": "5,26"
    },{
      "rbr": 7,
      "naziv": "JOSIP ĐAKIĆ",
      "glasova": 3,
      "posto": "15,78"
    },{
      "rbr": 8,
      "naziv": "MARIN MANDARIĆ",
      "glasova": 1,
      "posto": "5,26"
    },{
      "rbr": 9,
      "naziv": "RATIMIR LJUBIĆ",
      "glasova": 2,
      "posto": "10,52"
    },{
      "rbr": 10,
      "naziv": "VESNA BEDEKOVIĆ",
      "glasova": 1,
      "posto": "5,26"
    },{
      "rbr": 11,
      "naziv": "MARIN BABIĆ",
      "glasova": 0,
      "posto": "0,00"
    },{
      "rbr": 12,
      "naziv": "IVO ZELIĆ",
      "glasova": 0,
      "posto": "0,00"
    },{
      "rbr": 13,
      "naziv": "STIPAN ŠAŠLIN",
      "glasova": 0,
      "posto": "0,00"
    },{
      "rbr": 14,
      "naziv": "KREŠIMIR KAŠUBA",
      "glasova": 0,
      "posto": "0,00"
    }]
  },{
    "rbr": 14,
    "stranke": [
      {"naziv": "AUTOHTONA - HRVATSKA STRANKA PRAVA - DRAŽEN KELEMINEC - A - HSP - Dražen Keleminec"}
    ],
    "jedinstvenaSifra": "049",
    "glasova": 14,
    "naziv": "A - HSP - Dražen Keleminec",
    "posto": "0,62",
    "lista": [{
      "rbr": 1,
      "naziv": "MILAN BINGULA",
      "glasova": 3,
      "posto": "21,42"
    },{
      "rbr": 2,
      "naziv": "MARIJAN IVANČAN",
      "glasova": 3,
      "posto": "21,42"
    },{
      "rbr": 3,
      "naziv": "JOSIP ZLATARIĆ",
      "glasova": 5,
      "posto": "35,71"
    },{
      "rbr": 4,
      "naziv": "JASENKO KARDUM",
      "glasova": 0,
      "posto": "0,00"
    },{
      "rbr": 5,
      "naziv": "JOSIP ŽUFIKA",
      "glasova": 0,
      "posto": "0,00"
    },{
      "rbr": 6,
      "naziv": "NEVENKA PINTAR",
      "glasova": 0,
      "posto": "0,00"
    },{
      "rbr": 7,
      "naziv": "ZDRAVKO RADIČIĆ",
      "glasova": 1,
      "posto": "7,14"
    },{
      "rbr": 8,
      "naziv": "ŽELJKA ARTUKOVIĆ",
      "glasova": 2,
      "posto": "14,28"
    },{
      "rbr": 9,
      "naziv": "DRAGOLJUB SLEPČEVIĆ",
      "glasova": 0,
      "posto": "0,00"
    },{
      "rbr": 10,
      "naziv": "IVICA APATIĆ",
      "glasova": 0,
      "posto": "0,00"
    },{
      "rbr": 11,
      "naziv": "JASMINKA JELAK",
      "glasova": 0,
      "posto": "0,00"
    },{
      "rbr": 12,
      "naziv": "ANA-MARIJA HAMARIĆ",
      "glasova": 0,
      "posto": "0,00"
    },{
      "rbr": 13,
      "naziv": "KATA KARDUM",
      "glasova": 0,
      "posto": "0,00"
    },{
      "rbr": 14,
      "naziv": "TEREZIJA KRAPINEC ZEBEC",
      "glasova": 0,
      "posto": "0,00"
    }]
  }]
}
