{
  "izbori": "Zastupnički izbori 2024",
  "datum": "15.04.2024.",
  "vrijeme": "15:30",
  "izboriOznaka": "02",
  "ijSifra": "010",
  "bmSifra": "000",
  "ijNaziv": "X. IZBORNA JEDINICA",
  "gropNaziv": "PODSTRANA",
  "bmNaziv": "",
  "bmZatvoreno": 12,
  "bmUkupno": 12,
  "biraciUkupno": 9404,
  "biraciGlasovalo": 3768,
  "biraciGlasovaloPosto": "40,07",
  "listiciUkupno": 3766,
  "listiciVazeci": 3684,
  "listiciVazeciPosto": "97,82",
  "listiciNevazeci": 82,
  "listiciNevazeciPosto": "2,18",
  "napomena": "* - objavljeni rezultati sadrže podatke samo s redovnih biračkih mjesta",
  "napomena2": "",
  "lista": [{
    "rbr": 1,
    "stranke": [
      {"naziv": "STRANKA IVANA PERNARA"}
    ],
    "jedinstvenaSifra": "259",
    "glasova": 843,
    "naziv": "STRANKA IVANA PERNARA",
    "posto": "22,88",
    "lista": [{
      "rbr": 1,
      "naziv": "PETAR VUJAKLIJA",
      "glasova": 166,
      "posto": "19,69"
    },{
      "rbr": 2,
      "naziv": "AVA KARABATIĆ",
      "glasova": 150,
      "posto": "17,79"
    },{
      "rbr": 3,
      "naziv": "LILJANA PERNAR",
      "glasova": 166,
      "posto": "19,69"
    },{
      "rbr": 4,
      "naziv": "STIPE TOMAŠEVIĆ",
      "glasova": 54,
      "posto": "6,40"
    },{
      "rbr": 5,
      "naziv": "MARKO VUČKOVIĆ",
      "glasova": 28,
      "posto": "3,32"
    },{
      "rbr": 6,
      "naziv": "MAJA ANDRIĆ",
      "glasova": 47,
      "posto": "5,57"
    },{
      "rbr": 7,
      "naziv": "JOSIP ŠIMAC",
      "glasova": 63,
      "posto": "7,47"
    },{
      "rbr": 8,
      "naziv": "IVICA KELAVA",
      "glasova": 80,
      "posto": "9,48"
    },{
      "rbr": 9,
      "naziv": "TONI RAKIĆ",
      "glasova": 10,
      "posto": "1,18"
    },{
      "rbr": 10,
      "naziv": "KATICA VUJAKLIJA",
      "glasova": 19,
      "posto": "2,25"
    },{
      "rbr": 11,
      "naziv": "JULIJAN PRANJIĆ",
      "glasova": 27,
      "posto": "3,20"
    },{
      "rbr": 12,
      "naziv": "MARIO MAREVIĆ",
      "glasova": 3,
      "posto": "0,35"
    },{
      "rbr": 13,
      "naziv": "MARIJANA KATALENIĆ",
      "glasova": 6,
      "posto": "0,71"
    },{
      "rbr": 14,
      "naziv": "SVJETLANA STRAGA",
      "glasova": 18,
      "posto": "2,13"
    }]
  },{
    "rbr": 2,
    "stranke": [
      {"naziv": "RIČARD NEZAVISNI"}
    ],
    "jedinstvenaSifra": "313",
    "glasova": 671,
    "naziv": "RIČARD NEZAVISNI",
    "posto": "18,21",
    "lista": [{
      "rbr": 1,
      "naziv": "ENIO MEŠTROVIĆ",
      "glasova": 132,
      "posto": "19,67"
    },{
      "rbr": 2,
      "naziv": "SERGEJ KOZMI",
      "glasova": 85,
      "posto": "12,66"
    },{
      "rbr": 3,
      "naziv": "MARIO PRIŽMIĆ",
      "glasova": 65,
      "posto": "9,68"
    },{
      "rbr": 4,
      "naziv": "IVANA ČALJKUŠIĆ",
      "glasova": 45,
      "posto": "6,70"
    },{
      "rbr": 5,
      "naziv": "GORANA JURJEVIĆ",
      "glasova": 79,
      "posto": "11,77"
    },{
      "rbr": 6,
      "naziv": "JOSIP RADOJA",
      "glasova": 38,
      "posto": "5,66"
    },{
      "rbr": 7,
      "naziv": "MIA MIHANOVIĆ",
      "glasova": 26,
      "posto": "3,87"
    },{
      "rbr": 8,
      "naziv": "IVAN KNEZOVIĆ",
      "glasova": 9,
      "posto": "1,34"
    },{
      "rbr": 9,
      "naziv": "ŽELJKA BILANDŽIĆ",
      "glasova": 9,
      "posto": "1,34"
    },{
      "rbr": 10,
      "naziv": "IVANA BUZOV",
      "glasova": 18,
      "posto": "2,68"
    },{
      "rbr": 11,
      "naziv": "JOSIP ŠAKIĆ",
      "glasova": 9,
      "posto": "1,34"
    },{
      "rbr": 12,
      "naziv": "ANTE ČALJKUŠIĆ",
      "glasova": 17,
      "posto": "2,53"
    },{
      "rbr": 13,
      "naziv": "MARIJANA KANJER",
      "glasova": 9,
      "posto": "1,34"
    },{
      "rbr": 14,
      "naziv": "DRAGAN VESELIĆ",
      "glasova": 9,
      "posto": "1,34"
    }]
  },{
    "rbr": 3,
    "stranke": [
      {"naziv": "DALMATINSKA AKCIJA - DA"}
    ],
    "jedinstvenaSifra": "296",
    "glasova": 404,
    "naziv": "DA",
    "posto": "10,96",
    "lista": [{
      "rbr": 1,
      "naziv": "NINO AVIANI",
      "glasova": 80,
      "posto": "19,80"
    },{
      "rbr": 2,
      "naziv": "DAMIR ŠALOV",
      "glasova": 23,
      "posto": "5,69"
    },{
      "rbr": 3,
      "naziv": "SRĐAN BENZON",
      "glasova": 12,
      "posto": "2,97"
    },{
      "rbr": 4,
      "naziv": "JASMINA VUKOVIĆ",
      "glasova": 20,
      "posto": "4,95"
    },{
      "rbr": 5,
      "naziv": "LJILJANA ŠUĆUR",
      "glasova": 31,
      "posto": "7,67"
    },{
      "rbr": 6,
      "naziv": "DOMAGOJ MIJAN",
      "glasova": 42,
      "posto": "10,39"
    },{
      "rbr": 7,
      "naziv": "ŽELJKA MEDIĆ",
      "glasova": 5,
      "posto": "1,23"
    },{
      "rbr": 8,
      "naziv": "JELENA BAKOTIN RUŽIČIĆ",
      "glasova": 9,
      "posto": "2,22"
    },{
      "rbr": 9,
      "naziv": "MAJA ANTONINI",
      "glasova": 77,
      "posto": "19,05"
    },{
      "rbr": 10,
      "naziv": "DUŠAN RADICA",
      "glasova": 74,
      "posto": "18,31"
    },{
      "rbr": 11,
      "naziv": "ANTONIO KULIĆ",
      "glasova": 2,
      "posto": "0,49"
    },{
      "rbr": 12,
      "naziv": "BRANKA KUZMAN",
      "glasova": 5,
      "posto": "1,23"
    },{
      "rbr": 13,
      "naziv": "DRAGAN MARTINOVIĆ",
      "glasova": 6,
      "posto": "1,48"
    },{
      "rbr": 14,
      "naziv": "STANICA ČIP",
      "glasova": 9,
      "posto": "2,22"
    }]
  },{
    "rbr": 4,
    "stranke": [
      {"naziv": "DOMOVINSKI POKRET - DP"},
      {"naziv": "PRAVO I PRAVDA"}
    ],
    "jedinstvenaSifra": "267312",
    "glasova": 292,
    "naziv": "DP, PRAVO I PRAVDA",
    "posto": "7,92",
    "lista": [{
      "rbr": 1,
      "naziv": "STIPO MLINARIĆ",
      "glasova": 58,
      "posto": "19,86"
    },{
      "rbr": 2,
      "naziv": "IVICA KUKAVICA",
      "glasova": 30,
      "posto": "10,27"
    },{
      "rbr": 3,
      "naziv": "RIČARD MILUN",
      "glasova": 16,
      "posto": "5,47"
    },{
      "rbr": 4,
      "naziv": "JOSIPA BARIĆ",
      "glasova": 28,
      "posto": "9,58"
    },{
      "rbr": 5,
      "naziv": "ANITA PERVAN",
      "glasova": 26,
      "posto": "8,90"
    },{
      "rbr": 6,
      "naziv": "IVANA ČAGALJ",
      "glasova": 24,
      "posto": "8,21"
    },{
      "rbr": 7,
      "naziv": "ZLATAN BAŠIĆ",
      "glasova": 28,
      "posto": "9,58"
    },{
      "rbr": 8,
      "naziv": "ANA ZRINKA KUROBASA",
      "glasova": 21,
      "posto": "7,19"
    },{
      "rbr": 9,
      "naziv": "ANTE JELAVIĆ",
      "glasova": 26,
      "posto": "8,90"
    },{
      "rbr": 10,
      "naziv": "IVONA TOPIĆ ĆERLEK",
      "glasova": 6,
      "posto": "2,05"
    },{
      "rbr": 11,
      "naziv": "MARIN MATAGA",
      "glasova": 17,
      "posto": "5,82"
    },{
      "rbr": 12,
      "naziv": "MILA JAKOVLJEVIĆ",
      "glasova": 5,
      "posto": "1,71"
    },{
      "rbr": 13,
      "naziv": "SREĆKO SLADOLJEV",
      "glasova": 6,
      "posto": "2,05"
    },{
      "rbr": 14,
      "naziv": "MARKO ŽAJA",
      "glasova": 1,
      "posto": "0,34"
    }]
  },{
    "rbr": 5,
    "stranke": [
      {"naziv": "UMIROVLJENICI ZAJEDNO - POLITIČKA PLATFORMA - UMIROVLJENICI ZAJEDNO"},
      {"naziv": "STRANKA UMIROVLJENIKA - SU"},
      {"naziv": "BLOK UMIROVLJENICI ZAJEDNO - BUZ"},
      {"naziv": "DEMOKRATSKA STRANKA UMIROVLJENIKA - DSU"}
    ],
    "jedinstvenaSifra": "039041102301",
    "glasova": 286,
    "naziv": "UMIROVLJENICI ZAJEDNO, SU, BUZ, DSU",
    "posto": "7,76",
    "lista": [{
      "rbr": 1,
      "naziv": "IVANKA LUETIĆ BOBAN",
      "glasova": 59,
      "posto": "20,62"
    },{
      "rbr": 2,
      "naziv": "BORIS NIKOLIĆ-MALORA",
      "glasova": 39,
      "posto": "13,63"
    },{
      "rbr": 3,
      "naziv": "IVAN BUBALO",
      "glasova": 30,
      "posto": "10,48"
    },{
      "rbr": 4,
      "naziv": "FRANKO BARČOT",
      "glasova": 21,
      "posto": "7,34"
    },{
      "rbr": 5,
      "naziv": "MARKO KOVAČEVIĆ",
      "glasova": 37,
      "posto": "12,93"
    },{
      "rbr": 6,
      "naziv": "ANITA KOVAČ",
      "glasova": 18,
      "posto": "6,29"
    },{
      "rbr": 7,
      "naziv": "JASMINKA BUBIĆ",
      "glasova": 12,
      "posto": "4,19"
    },{
      "rbr": 8,
      "naziv": "IVAN IVAKIĆ",
      "glasova": 9,
      "posto": "3,14"
    },{
      "rbr": 9,
      "naziv": "DIJANA VIŠIĆ-VULJAN",
      "glasova": 9,
      "posto": "3,14"
    },{
      "rbr": 10,
      "naziv": "NEVENKA LISICA",
      "glasova": 9,
      "posto": "3,14"
    },{
      "rbr": 11,
      "naziv": "NINA BILANDŽIĆ",
      "glasova": 8,
      "posto": "2,79"
    },{
      "rbr": 12,
      "naziv": "VOJKO IVICA",
      "glasova": 9,
      "posto": "3,14"
    },{
      "rbr": 13,
      "naziv": "TONĆI MARINOVIĆ",
      "glasova": 9,
      "posto": "3,14"
    },{
      "rbr": 14,
      "naziv": "MIRKO KOZINA",
      "glasova": 9,
      "posto": "3,14"
    }]
  },{
    "rbr": 6,
    "stranke": [
      {"naziv": "AUTOHTONA - HRVATSKA STRANKA PRAVA - DRAŽEN KELEMINEC - A - HSP - Dražen Keleminec"}
    ],
    "jedinstvenaSifra": "049",
    "glasova": 228,
    "naziv": "A - HSP - Dražen Keleminec",
    "posto": "6,18",
    "lista": [{
      "rbr": 1,
      "naziv": "NENO DOŽDOR",
      "glasova": 50,
      "posto": "21,92"
    },{
      "rbr": 2,
      "naziv": "DAVOR MAJIĆ",
      "glasova": 44,
      "posto": "19,29"
    },{
      "rbr": 3,
      "naziv": "DOBRILA KUDUZ",
      "glasova": 50,
      "posto": "21,92"
    },{
      "rbr": 4,
      "naziv": "DAMIR KULIŠIĆ",
      "glasova": 22,
      "posto": "9,64"
    },{
      "rbr": 5,
      "naziv": "MARIO VELA",
      "glasova": 3,
      "posto": "1,31"
    },{
      "rbr": 6,
      "naziv": "ANDREA PAVLETIĆ",
      "glasova": 8,
      "posto": "3,50"
    },{
      "rbr": 7,
      "naziv": "MIRO MATEŠAN",
      "glasova": 24,
      "posto": "10,52"
    },{
      "rbr": 8,
      "naziv": "ANTONIA DURDOV",
      "glasova": 26,
      "posto": "11,40"
    },{
      "rbr": 9,
      "naziv": "EMILIANO ŠTIMAC",
      "glasova": 0,
      "posto": "0,00"
    },{
      "rbr": 10,
      "naziv": "MIRJANA KULIŠIĆ",
      "glasova": 0,
      "posto": "0,00"
    },{
      "rbr": 11,
      "naziv": "IVICA RAMLJAK",
      "glasova": 1,
      "posto": "0,43"
    },{
      "rbr": 12,
      "naziv": "MARTA MAJIĆ",
      "glasova": 0,
      "posto": "0,00"
    },{
      "rbr": 13,
      "naziv": "GROZDANA MATEŠAN",
      "glasova": 0,
      "posto": "0,00"
    },{
      "rbr": 14,
      "naziv": "DRAGAN NIZIĆ",
      "glasova": 0,
      "posto": "0,00"
    }]
  },{
    "rbr": 7,
    "stranke": [
      {"naziv": "ODLUČNOST I PRAVEDNOST - OIP"}
    ],
    "jedinstvenaSifra": "300",
    "glasova": 188,
    "naziv": "OIP",
    "posto": "5,10",
    "lista": [{
      "rbr": 1,
      "naziv": "JAKOV ČIČMIR",
      "glasova": 41,
      "posto": "21,80"
    },{
      "rbr": 2,
      "naziv": "MATE ČOBRNIĆ",
      "glasova": 28,
      "posto": "14,89"
    },{
      "rbr": 3,
      "naziv": "MINJA KARL",
      "glasova": 24,
      "posto": "12,76"
    },{
      "rbr": 4,
      "naziv": "MATE PLETIKOSIĆ",
      "glasova": 15,
      "posto": "7,97"
    },{
      "rbr": 5,
      "naziv": "ANĐELA IVANČIĆ",
      "glasova": 26,
      "posto": "13,82"
    },{
      "rbr": 6,
      "naziv": "MIRKO PETRUŠIĆ",
      "glasova": 13,
      "posto": "6,91"
    },{
      "rbr": 7,
      "naziv": "MARIJA SAMARDŽIĆ",
      "glasova": 12,
      "posto": "6,38"
    },{
      "rbr": 8,
      "naziv": "TONI ĆALETA",
      "glasova": 5,
      "posto": "2,65"
    },{
      "rbr": 9,
      "naziv": "DANIJELA MUCIĆ",
      "glasova": 1,
      "posto": "0,53"
    },{
      "rbr": 10,
      "naziv": "SLOBODAN VUKOTIĆ",
      "glasova": 11,
      "posto": "5,85"
    },{
      "rbr": 11,
      "naziv": "MILJENKO VARNICA",
      "glasova": 1,
      "posto": "0,53"
    },{
      "rbr": 12,
      "naziv": "MARTA ZONJIĆ",
      "glasova": 9,
      "posto": "4,78"
    },{
      "rbr": 13,
      "naziv": "LORENZA MILETIĆ",
      "glasova": 1,
      "posto": "0,53"
    },{
      "rbr": 14,
      "naziv": "DAVOR KARNINČIĆ",
      "glasova": 1,
      "posto": "0,53"
    }]
  },{
    "rbr": 8,
    "stranke": [
      {"naziv": "FOKUS"},
      {"naziv": "REPUBLIKA"}
    ],
    "jedinstvenaSifra": "270310",
    "glasova": 153,
    "naziv": "FOKUS, REPUBLIKA",
    "posto": "4,15",
    "lista": [{
      "rbr": 1,
      "naziv": "MATO PAVLIČEVIĆ",
      "glasova": 37,
      "posto": "24,18"
    },{
      "rbr": 2,
      "naziv": "ANTE MLADINIĆ",
      "glasova": 8,
      "posto": "5,22"
    },{
      "rbr": 3,
      "naziv": "MIROSLAV PAVLOVIĆ",
      "glasova": 0,
      "posto": "0,00"
    },{
      "rbr": 4,
      "naziv": "NIKOLINA BILIĆ POLJANIĆ",
      "glasova": 7,
      "posto": "4,57"
    },{
      "rbr": 5,
      "naziv": "RANKA CVITANOVIĆ",
      "glasova": 13,
      "posto": "8,49"
    },{
      "rbr": 6,
      "naziv": "MAJA BOSNIĆ TABAIN",
      "glasova": 21,
      "posto": "13,72"
    },{
      "rbr": 7,
      "naziv": "SANDRA TABAIN",
      "glasova": 0,
      "posto": "0,00"
    },{
      "rbr": 8,
      "naziv": "JAKOV JURČEVIĆ",
      "glasova": 0,
      "posto": "0,00"
    },{
      "rbr": 9,
      "naziv": "SANDA SMOLČIĆ ODAK",
      "glasova": 34,
      "posto": "22,22"
    },{
      "rbr": 10,
      "naziv": "JORDAN ATANASOSKI",
      "glasova": 33,
      "posto": "21,56"
    },{
      "rbr": 11,
      "naziv": "IVANA HREN",
      "glasova": 0,
      "posto": "0,00"
    },{
      "rbr": 12,
      "naziv": "IVANA JERKOVIĆ",
      "glasova": 0,
      "posto": "0,00"
    },{
      "rbr": 13,
      "naziv": "SNJEŽANA JURKOVIĆ",
      "glasova": 0,
      "posto": "0,00"
    },{
      "rbr": 14,
      "naziv": "MARIJO VOLAREVIĆ",
      "glasova": 0,
      "posto": "0,00"
    }]
  },{
    "rbr": 9,
    "stranke": [
      {"naziv": "MOŽEMO! - POLITIČKA PLATFORMA"},
      {"naziv": "SRĐ JE GRAD"}
    ],
    "jedinstvenaSifra": "255277",
    "glasova": 131,
    "naziv": "MOŽEMO! - POLITIČKA PLATFORMA, SRĐ JE GRAD",
    "posto": "3,55",
    "lista": [{
      "rbr": 1,
      "naziv": "ĐURO CAPOR",
      "glasova": 29,
      "posto": "22,13"
    },{
      "rbr": 2,
      "naziv": "TAMARA VISKOVIĆ",
      "glasova": 28,
      "posto": "21,37"
    },{
      "rbr": 3,
      "naziv": "IGRA ŠAIN KOVAČEVIĆ",
      "glasova": 29,
      "posto": "22,13"
    },{
      "rbr": 4,
      "naziv": "PETRA MARČINKO",
      "glasova": 10,
      "posto": "7,63"
    },{
      "rbr": 5,
      "naziv": "IVICA PROFACA",
      "glasova": 1,
      "posto": "0,76"
    },{
      "rbr": 6,
      "naziv": "VINKA LOZICA",
      "glasova": 7,
      "posto": "5,34"
    },{
      "rbr": 7,
      "naziv": "TANJA JADREŠIĆ",
      "glasova": 12,
      "posto": "9,16"
    },{
      "rbr": 8,
      "naziv": "IGOR MIOŠIĆ",
      "glasova": 15,
      "posto": "11,45"
    },{
      "rbr": 9,
      "naziv": "ŽASMINA PANKOVA POKROVAC",
      "glasova": 0,
      "posto": "0,00"
    },{
      "rbr": 10,
      "naziv": "STJEPAN MIŠIĆ",
      "glasova": 0,
      "posto": "0,00"
    },{
      "rbr": 11,
      "naziv": "MILANA ROMIĆ VIĐEN",
      "glasova": 0,
      "posto": "0,00"
    },{
      "rbr": 12,
      "naziv": "IVER PEŠUT",
      "glasova": 0,
      "posto": "0,00"
    },{
      "rbr": 13,
      "naziv": "MARIJA VUJOŠEVIĆ CARIĆ",
      "glasova": 0,
      "posto": "0,00"
    },{
      "rbr": 14,
      "naziv": "MARKO GILJAČA",
      "glasova": 0,
      "posto": "0,00"
    }]
  },{
    "rbr": 10,
    "stranke": [
      {"naziv": "HRVATSKA DEMOKRATSKA ZAJEDNICA - HDZ"},
      {"naziv": "HRVATSKA SOCIJALNO - LIBERALNA STRANKA - HSLS"},
      {"naziv": "HRVATSKA DEMOKRŠĆANSKA STRANKA - HDS"},
      {"naziv": "HRVATSKA NARODNA STRANKA - LIBERALNI DEMOKRATI - HNS"},
      {"naziv": "HRVATSKA STRANKA UMIROVLJENIKA - HSU"}
    ],
    "jedinstvenaSifra": "001002003011023",
    "glasova": 126,
    "naziv": "HDZ, HSLS, HDS, HNS, HSU",
    "posto": "3,42",
    "lista": [{
      "rbr": 1,
      "naziv": "BRANKO BAČIĆ",
      "glasova": 26,
      "posto": "20,63"
    },{
      "rbr": 2,
      "naziv": "BLAŽENKO BOBAN",
      "glasova": 16,
      "posto": "12,69"
    },{
      "rbr": 3,
      "naziv": "TOMISLAV ŠUTA",
      "glasova": 13,
      "posto": "10,31"
    },{
      "rbr": 4,
      "naziv": "MATO FRANKOVIĆ",
      "glasova": 9,
      "posto": "7,14"
    },{
      "rbr": 5,
      "naziv": "ANDRO KRSTULOVIĆ OPARA",
      "glasova": 16,
      "posto": "12,69"
    },{
      "rbr": 6,
      "naziv": "MARIJA VUČKOVIĆ",
      "glasova": 8,
      "posto": "6,34"
    },{
      "rbr": 7,
      "naziv": "DANICA BARIČEVIĆ",
      "glasova": 5,
      "posto": "3,96"
    },{
      "rbr": 8,
      "naziv": "ANTE ŠOŠIĆ",
      "glasova": 3,
      "posto": "2,38"
    },{
      "rbr": 9,
      "naziv": "DALIBOR MILAN",
      "glasova": 2,
      "posto": "1,58"
    },{
      "rbr": 10,
      "naziv": "IVAN BUDALIĆ",
      "glasova": 4,
      "posto": "3,17"
    },{
      "rbr": 11,
      "naziv": "JURE BRKAN",
      "glasova": 2,
      "posto": "1,58"
    },{
      "rbr": 12,
      "naziv": "ZRINKA MUŽINIĆ BIKIĆ",
      "glasova": 3,
      "posto": "2,38"
    },{
      "rbr": 13,
      "naziv": "IVO RADICA",
      "glasova": 3,
      "posto": "2,38"
    },{
      "rbr": 14,
      "naziv": "DAMIR KRSTIČEVIĆ",
      "glasova": 2,
      "posto": "1,58"
    }]
  },{
    "rbr": 11,
    "stranke": [
      {"naziv": "SOCIJALDEMOKRATI"},
      {"naziv": "ISTARSKI DEMOKRATSKI SABOR - IDS"},
      {"naziv": "PRIMORSKO GORANSKI SAVEZ - PGS"},
      {"naziv": "HRVATSKI LABURISTI - STRANKA RADA - LABURISTI"},
      {"naziv": "DEMOKRATI"}
    ],
    "jedinstvenaSifra": "005006100251299",
    "glasova": 112,
    "naziv": "SOCIJALDEMOKRATI, IDS, PGS, LABURISTI, DEMOKRATI",
    "posto": "3,04",
    "lista": [{
      "rbr": 1,
      "naziv": "KUZMA TOMAŠIĆ",
      "glasova": 27,
      "posto": "24,10"
    },{
      "rbr": 2,
      "naziv": "KATICA GLAMUZINA",
      "glasova": 20,
      "posto": "17,85"
    },{
      "rbr": 3,
      "naziv": "MARINA BRATIĆ",
      "glasova": 13,
      "posto": "11,60"
    },{
      "rbr": 4,
      "naziv": "DANIJELA BARBIR",
      "glasova": 13,
      "posto": "11,60"
    },{
      "rbr": 5,
      "naziv": "MIRA MOROVIĆ",
      "glasova": 16,
      "posto": "14,28"
    },{
      "rbr": 6,
      "naziv": "BORIS DUČIĆ",
      "glasova": 11,
      "posto": "9,82"
    },{
      "rbr": 7,
      "naziv": "FEĐA BONE",
      "glasova": 10,
      "posto": "8,92"
    },{
      "rbr": 8,
      "naziv": "MATO MARLAIS",
      "glasova": 1,
      "posto": "0,89"
    },{
      "rbr": 9,
      "naziv": "VIŠNJA VLADUŠIĆ",
      "glasova": 0,
      "posto": "0,00"
    },{
      "rbr": 10,
      "naziv": "BRANKO MILARDOVIĆ",
      "glasova": 1,
      "posto": "0,89"
    },{
      "rbr": 11,
      "naziv": "NENAD HERVATIN",
      "glasova": 0,
      "posto": "0,00"
    },{
      "rbr": 12,
      "naziv": "ZLATKO MARGAN",
      "glasova": 0,
      "posto": "0,00"
    },{
      "rbr": 13,
      "naziv": "LJILJA MIKAŠINOVIĆ",
      "glasova": 0,
      "posto": "0,00"
    },{
      "rbr": 14,
      "naziv": "IVAN ČIZMIĆ",
      "glasova": 0,
      "posto": "0,00"
    }]
  },{
    "rbr": 12,
    "stranke": [
      {"naziv": "JAVNO DOBRO"}
    ],
    "jedinstvenaSifra": "309",
    "glasova": 73,
    "naziv": "JAVNO DOBRO",
    "posto": "1,98",
    "lista": [{
      "rbr": 1,
      "naziv": "VLADIMIRA MASCARELL",
      "glasova": 19,
      "posto": "26,02"
    },{
      "rbr": 2,
      "naziv": "ELEONORA MANDIĆ",
      "glasova": 13,
      "posto": "17,80"
    },{
      "rbr": 3,
      "naziv": "ANA DOMANČIĆ KRSTULOVIĆ",
      "glasova": 13,
      "posto": "17,80"
    },{
      "rbr": 4,
      "naziv": "JOZO BAN",
      "glasova": 11,
      "posto": "15,06"
    },{
      "rbr": 5,
      "naziv": "MIROSLAVA ZENČIĆ",
      "glasova": 13,
      "posto": "17,80"
    },{
      "rbr": 6,
      "naziv": "LEO LJEPOTIĆ",
      "glasova": 3,
      "posto": "4,10"
    },{
      "rbr": 7,
      "naziv": "TOMO ŠARIĆ",
      "glasova": 1,
      "posto": "1,36"
    },{
      "rbr": 8,
      "naziv": "VESNA ROŽIĆ",
      "glasova": 0,
      "posto": "0,00"
    },{
      "rbr": 9,
      "naziv": "LUKA JURLIN",
      "glasova": 0,
      "posto": "0,00"
    },{
      "rbr": 10,
      "naziv": "JAKICA CETINIĆ",
      "glasova": 0,
      "posto": "0,00"
    },{
      "rbr": 11,
      "naziv": "RENATO COTTIERO",
      "glasova": 0,
      "posto": "0,00"
    },{
      "rbr": 12,
      "naziv": "ANTONIA GRANCARIĆ",
      "glasova": 0,
      "posto": "0,00"
    },{
      "rbr": 13,
      "naziv": "ŽELJKO ILIĆ",
      "glasova": 0,
      "posto": "0,00"
    },{
      "rbr": 14,
      "naziv": "IVAN ĆUSTIĆ",
      "glasova": 0,
      "posto": "0,00"
    }]
  },{
    "rbr": 13,
    "stranke": [
      {"naziv": "RADNIČKA FRONTA - RF"}
    ],
    "jedinstvenaSifra": "168",
    "glasova": 70,
    "naziv": "RF",
    "posto": "1,90",
    "lista": [{
      "rbr": 1,
      "naziv": "ZORAN RADMAN",
      "glasova": 18,
      "posto": "25,71"
    },{
      "rbr": 2,
      "naziv": "PETRA BOŽANJA",
      "glasova": 17,
      "posto": "24,28"
    },{
      "rbr": 3,
      "naziv": "ĐILDO BAVČEVIĆ",
      "glasova": 18,
      "posto": "25,71"
    },{
      "rbr": 4,
      "naziv": "MIRNA PAPUGA",
      "glasova": 1,
      "posto": "1,42"
    },{
      "rbr": 5,
      "naziv": "FILIP BOROVIĆ",
      "glasova": 0,
      "posto": "0,00"
    },{
      "rbr": 6,
      "naziv": "TIJANA NOVAKOVIĆ",
      "glasova": 0,
      "posto": "0,00"
    },{
      "rbr": 7,
      "naziv": "DAMIR MILIŠA",
      "glasova": 7,
      "posto": "10,00"
    },{
      "rbr": 8,
      "naziv": "BLAŽENA RADAS",
      "glasova": 9,
      "posto": "12,85"
    },{
      "rbr": 9,
      "naziv": "JAN TEŽAK",
      "glasova": 0,
      "posto": "0,00"
    },{
      "rbr": 10,
      "naziv": "TINA GETO",
      "glasova": 0,
      "posto": "0,00"
    },{
      "rbr": 11,
      "naziv": "TEO MARINKOVIĆ",
      "glasova": 0,
      "posto": "0,00"
    },{
      "rbr": 12,
      "naziv": "JOVANKA VULIĆ",
      "glasova": 0,
      "posto": "0,00"
    },{
      "rbr": 13,
      "naziv": "JAN LJUBAS",
      "glasova": 0,
      "posto": "0,00"
    },{
      "rbr": 14,
      "naziv": "IVICA ANIĆ",
      "glasova": 0,
      "posto": "0,00"
    }]
  },{
    "rbr": 14,
    "stranke": [
      {"naziv": "HRVATSKA STRANKA PRAVA - HSP"},
      {"naziv": "HRVATSKO BILO"},
      {"naziv": "HRVATSKA DEMOKRATSKA SELJAČKA STRANKA - HDSS"}
    ],
    "jedinstvenaSifra": "007018308",
    "glasova": 50,
    "naziv": "HSP, HRVATSKO BILO, HDSS",
    "posto": "1,35",
    "lista": [{
      "rbr": 1,
      "naziv": "LUKA ROGULJIĆ",
      "glasova": 13,
      "posto": "26,00"
    },{
      "rbr": 2,
      "naziv": "KAŽIMIR TOMASOVIĆ",
      "glasova": 12,
      "posto": "24,00"
    },{
      "rbr": 3,
      "naziv": "GORDANA BOŽIKOVIĆ",
      "glasova": 9,
      "posto": "18,00"
    },{
      "rbr": 4,
      "naziv": "ANTE GRUBIŠIĆ",
      "glasova": 2,
      "posto": "4,00"
    },{
      "rbr": 5,
      "naziv": "STJEPAN LASIĆ",
      "glasova": 12,
      "posto": "24,00"
    },{
      "rbr": 6,
      "naziv": "MARKO JONJIĆ",
      "glasova": 1,
      "posto": "2,00"
    },{
      "rbr": 7,
      "naziv": "ŽANA JOVIĆ",
      "glasova": 1,
      "posto": "2,00"
    },{
      "rbr": 8,
      "naziv": "MARIO GALOV",
      "glasova": 0,
      "posto": "0,00"
    },{
      "rbr": 9,
      "naziv": "SLAVEN MARŠIĆ",
      "glasova": 0,
      "posto": "0,00"
    },{
      "rbr": 10,
      "naziv": "IVA BOROVINA",
      "glasova": 0,
      "posto": "0,00"
    },{
      "rbr": 11,
      "naziv": "MATIJA STIPETIĆ",
      "glasova": 0,
      "posto": "0,00"
    },{
      "rbr": 12,
      "naziv": "DANICA PLASTIĆ",
      "glasova": 0,
      "posto": "0,00"
    },{
      "rbr": 13,
      "naziv": "DANIJELA ŠEVERDIJA",
      "glasova": 0,
      "posto": "0,00"
    },{
      "rbr": 14,
      "naziv": "BRUNA ESIH",
      "glasova": 0,
      "posto": "0,00"
    }]
  },{
    "rbr": 15,
    "stranke": [
      {"naziv": "MOST"},
      {"naziv": "HRVATSKI SUVERENISTI"},
      {"naziv": "HRVATSKA KONZERVATIVNA STRANKA - HKS"},
      {"naziv": "NEZAVISNA LISTA MLADIH - NLM"}
    ],
    "jedinstvenaSifra": "131165188263",
    "glasova": 45,
    "naziv": "MOST, HRVATSKI SUVERENISTI, HKS, NLM",
    "posto": "1,22",
    "lista": [{
      "rbr": 1,
      "naziv": "BOŽO PETROV",
      "glasova": 13,
      "posto": "28,88"
    },{
      "rbr": 2,
      "naziv": "ANTE KUJUNDŽIĆ",
      "glasova": 12,
      "posto": "26,66"
    },{
      "rbr": 3,
      "naziv": "MILAN PERIŠIĆ",
      "glasova": 13,
      "posto": "28,88"
    },{
      "rbr": 4,
      "naziv": "TIHOMIR GALIĆ",
      "glasova": 0,
      "posto": "0,00"
    },{
      "rbr": 5,
      "naziv": "JOSIP MIKUŠ",
      "glasova": 0,
      "posto": "0,00"
    },{
      "rbr": 6,
      "naziv": "DAŠA DRAGNIĆ",
      "glasova": 0,
      "posto": "0,00"
    },{
      "rbr": 7,
      "naziv": "IVICA DAJAK",
      "glasova": 1,
      "posto": "2,22"
    },{
      "rbr": 8,
      "naziv": "ZVONIMIR NEDILJKO ČONDIĆ-GALINIČIĆ",
      "glasova": 6,
      "posto": "13,33"
    },{
      "rbr": 9,
      "naziv": "KRISTINA JERČIĆ",
      "glasova": 0,
      "posto": "0,00"
    },{
      "rbr": 10,
      "naziv": "PIA CVITKOVIĆ",
      "glasova": 0,
      "posto": "0,00"
    },{
      "rbr": 11,
      "naziv": "INDIRA ASANOVIĆ",
      "glasova": 0,
      "posto": "0,00"
    },{
      "rbr": 12,
      "naziv": "PAOLA MALIĆ",
      "glasova": 0,
      "posto": "0,00"
    },{
      "rbr": 13,
      "naziv": "IVANA PLOČKINIĆ",
      "glasova": 0,
      "posto": "0,00"
    },{
      "rbr": 14,
      "naziv": "MATEJAS JOZIPOVIĆ",
      "glasova": 0,
      "posto": "0,00"
    }]
  },{
    "rbr": 16,
    "stranke": [
      {"naziv": "SOCIJALDEMOKRATSKA PARTIJA HRVATSKE - SDP"},
      {"naziv": "CENTAR"},
      {"naziv": "HRVATSKA SELJAČKA STRANKA - HSS"},
      {"naziv": "\"DALIJA OREŠKOVIĆ I LJUDI S IMENOM I PREZIMENOM\" - \"DO i SIP\""},
      {"naziv": "NARODNA STRANKA - REFORMISTI - REFORMISTI"},
      {"naziv": "GRAĐANSKO-LIBERALNI SAVEZ - GLAS"}
    ],
    "jedinstvenaSifra": "004017162179244306",
    "glasova": 12,
    "naziv": "SDP, CENTAR, HSS, \"DO i SIP\", REFORMISTI, GLAS",
    "posto": "0,32",
    "lista": [{
      "rbr": 1,
      "naziv": "RANKO OSTOJIĆ",
      "glasova": 11,
      "posto": "91,66"
    },{
      "rbr": 2,
      "naziv": "IVICA PULJAK",
      "glasova": 1,
      "posto": "8,33"
    },{
      "rbr": 3,
      "naziv": "IVANA MARKOVIĆ",
      "glasova": 0,
      "posto": "0,00"
    },{
      "rbr": 4,
      "naziv": "MIŠO KRSTIČEVIĆ",
      "glasova": 0,
      "posto": "0,00"
    },{
      "rbr": 5,
      "naziv": "DAMIR BARBIR",
      "glasova": 0,
      "posto": "0,00"
    },{
      "rbr": 6,
      "naziv": "KATARINA GUGIĆ",
      "glasova": 0,
      "posto": "0,00"
    },{
      "rbr": 7,
      "naziv": "VIKTORIJA KNEŽEVIĆ",
      "glasova": 0,
      "posto": "0,00"
    },{
      "rbr": 8,
      "naziv": "JOŠKO MARKIĆ",
      "glasova": 0,
      "posto": "0,00"
    },{
      "rbr": 9,
      "naziv": "NIKA SILIĆ MAROEVIĆ",
      "glasova": 0,
      "posto": "0,00"
    },{
      "rbr": 10,
      "naziv": "GORDANA MUHTIĆ",
      "glasova": 0,
      "posto": "0,00"
    },{
      "rbr": 11,
      "naziv": "GORANA ROSANDIĆ",
      "glasova": 0,
      "posto": "0,00"
    },{
      "rbr": 12,
      "naziv": "MATKO BURIĆ",
      "glasova": 0,
      "posto": "0,00"
    },{
      "rbr": 13,
      "naziv": "RAFAELA MATIĆ",
      "glasova": 0,
      "posto": "0,00"
    },{
      "rbr": 14,
      "naziv": "ANITA BONAČIĆ OBRADOVIĆ",
      "glasova": 0,
      "posto": "0,00"
    }]
  },{
    "rbr": 17,
    "stranke": [
      {"naziv": "SOCIJALISTIČKA RADNIČKA PARTIJA HRVATSKE - SRP"}
    ],
    "jedinstvenaSifra": "029",
    "glasova": 0,
    "naziv": "SRP",
    "posto": "0,00",
    "lista": [{
      "rbr": 1,
      "naziv": "IVAN GRBEC",
      "glasova": 0,
      "posto": "0,00"
    },{
      "rbr": 2,
      "naziv": "MARKO VESELINOVIĆ",
      "glasova": 0,
      "posto": "0,00"
    },{
      "rbr": 3,
      "naziv": "ANA LUNIĆ",
      "glasova": 0,
      "posto": "0,00"
    },{
      "rbr": 4,
      "naziv": "DRAGO MINDOLJEVIĆ",
      "glasova": 0,
      "posto": "0,00"
    },{
      "rbr": 5,
      "naziv": "ŽIVANA ŠAŠLIĆ",
      "glasova": 0,
      "posto": "0,00"
    },{
      "rbr": 6,
      "naziv": "ALEKSANDRA PREININGER",
      "glasova": 0,
      "posto": "0,00"
    },{
      "rbr": 7,
      "naziv": "ŠIME GULIN",
      "glasova": 0,
      "posto": "0,00"
    },{
      "rbr": 8,
      "naziv": "SUZANA NEDIĆ",
      "glasova": 0,
      "posto": "0,00"
    },{
      "rbr": 9,
      "naziv": "NEVENKA BARIŠIĆ",
      "glasova": 0,
      "posto": "0,00"
    },{
      "rbr": 10,
      "naziv": "MATE ČULIĆ",
      "glasova": 0,
      "posto": "0,00"
    },{
      "rbr": 11,
      "naziv": "BISERKA ADORIĆ",
      "glasova": 0,
      "posto": "0,00"
    },{
      "rbr": 12,
      "naziv": "JUSTINA KORDIŠ",
      "glasova": 0,
      "posto": "0,00"
    },{
      "rbr": 13,
      "naziv": "MIJO JURETIĆ",
      "glasova": 0,
      "posto": "0,00"
    },{
      "rbr": 14,
      "naziv": "RANKO ADORIĆ",
      "glasova": 0,
      "posto": "0,00"
    }]
  }]
}
