{
  "izbori": "Zastupnički izbori 2024",
  "datum": "15.04.2024.",
  "vrijeme": "15:30",
  "izboriOznaka": "02",
  "ijSifra": "002",
  "bmSifra": "000",
  "ijNaziv": "II. IZBORNA JEDINICA",
  "gropNaziv": "DARUVAR",
  "bmNaziv": "",
  "bmZatvoreno": 17,
  "bmUkupno": 17,
  "biraciUkupno": 5955,
  "biraciGlasovalo": 2814,
  "biraciGlasovaloPosto": "47,25",
  "listiciUkupno": 2811,
  "listiciVazeci": 2767,
  "listiciVazeciPosto": "98,43",
  "listiciNevazeci": 44,
  "listiciNevazeciPosto": "1,57",
  "napomena": "* - objavljeni rezultati sadrže podatke samo s redovnih biračkih mjesta",
  "napomena2": "",
  "lista": [{
    "rbr": 1,
    "stranke": [
      {"naziv": "AGRARNA STRANKA - POKRET ZA HRVATSKU POLJOPRIVREDU"},
      {"naziv": "AKCIJA ZA PROMJENE"}
    ],
    "jedinstvenaSifra": "303305",
    "glasova": 838,
    "naziv": "AGRARNA STRANKA - POKRET ZA HRVATSKU POLJOPRIVREDU, AKCIJA ZA PROMJENE",
    "posto": "30,28",
    "lista": [{
      "rbr": 1,
      "naziv": "DALIBOR JURINA",
      "glasova": 168,
      "posto": "20,04"
    },{
      "rbr": 2,
      "naziv": "MILJENKO ŠIMPRAGA",
      "glasova": 57,
      "posto": "6,80"
    },{
      "rbr": 3,
      "naziv": "ANDREJA MARCETIĆ",
      "glasova": 32,
      "posto": "3,81"
    },{
      "rbr": 4,
      "naziv": "JOSIP MIKUŠ",
      "glasova": 48,
      "posto": "5,72"
    },{
      "rbr": 5,
      "naziv": "DAMIR RADAN",
      "glasova": 64,
      "posto": "7,63"
    },{
      "rbr": 6,
      "naziv": "KRISTINA ŽIVKO",
      "glasova": 83,
      "posto": "9,90"
    },{
      "rbr": 7,
      "naziv": "KRUNOSLAV LUGARIĆ",
      "glasova": 6,
      "posto": "0,71"
    },{
      "rbr": 8,
      "naziv": "DARKO KOŠAR",
      "glasova": 24,
      "posto": "2,86"
    },{
      "rbr": 9,
      "naziv": "VERA HADŽIĆ",
      "glasova": 160,
      "posto": "19,09"
    },{
      "rbr": 10,
      "naziv": "STJEPAN RAKAS",
      "glasova": 152,
      "posto": "18,13"
    },{
      "rbr": 11,
      "naziv": "NADANA JELIĆ",
      "glasova": 3,
      "posto": "0,35"
    },{
      "rbr": 12,
      "naziv": "DOROTEA RIVIĆ",
      "glasova": 5,
      "posto": "0,59"
    },{
      "rbr": 13,
      "naziv": "MIRSAD SADIKOVIĆ",
      "glasova": 11,
      "posto": "1,31"
    },{
      "rbr": 14,
      "naziv": "KORNELIJA MARUŠIĆ RAKAS",
      "glasova": 23,
      "posto": "2,74"
    }]
  },{
    "rbr": 2,
    "stranke": [
      {"naziv": "RADNIČKA FRONTA - RF"}
    ],
    "jedinstvenaSifra": "168",
    "glasova": 401,
    "naziv": "RF",
    "posto": "14,49",
    "lista": [{
      "rbr": 1,
      "naziv": "SANDRA CRNKOVIĆ",
      "glasova": 79,
      "posto": "19,70"
    },{
      "rbr": 2,
      "naziv": "ZLATKO HARAPIN",
      "glasova": 79,
      "posto": "19,70"
    },{
      "rbr": 3,
      "naziv": "VIKTORIJA ĆURLIN",
      "glasova": 83,
      "posto": "20,69"
    },{
      "rbr": 4,
      "naziv": "DANIJEL DUJMOVIĆ",
      "glasova": 30,
      "posto": "7,48"
    },{
      "rbr": 5,
      "naziv": "SVJETLANA GETO",
      "glasova": 14,
      "posto": "3,49"
    },{
      "rbr": 6,
      "naziv": "ZDENKO LOVRIĆ",
      "glasova": 25,
      "posto": "6,23"
    },{
      "rbr": 7,
      "naziv": "MAŠA VARDA",
      "glasova": 35,
      "posto": "8,72"
    },{
      "rbr": 8,
      "naziv": "BRANKO CEROVAC",
      "glasova": 44,
      "posto": "10,97"
    },{
      "rbr": 9,
      "naziv": "ZLATKA RAŠPERIĆ",
      "glasova": 0,
      "posto": "0,00"
    },{
      "rbr": 10,
      "naziv": "VEDRAN IVANKOVIĆ",
      "glasova": 3,
      "posto": "0,74"
    },{
      "rbr": 11,
      "naziv": "ANICA KRPAN",
      "glasova": 9,
      "posto": "2,24"
    },{
      "rbr": 12,
      "naziv": "ANTONIJO CRNKOVIĆ",
      "glasova": 0,
      "posto": "0,00"
    },{
      "rbr": 13,
      "naziv": "DOMAGOJ MARTINIĆ",
      "glasova": 0,
      "posto": "0,00"
    },{
      "rbr": 14,
      "naziv": "VLADIMIR WÖLFL",
      "glasova": 0,
      "posto": "0,00"
    }]
  },{
    "rbr": 3,
    "stranke": [
      {"naziv": "STRANKA IVANA PERNARA"}
    ],
    "jedinstvenaSifra": "259",
    "glasova": 396,
    "naziv": "STRANKA IVANA PERNARA",
    "posto": "14,31",
    "lista": [{
      "rbr": 1,
      "naziv": "HERMAN VUKUŠIĆ",
      "glasova": 79,
      "posto": "19,94"
    },{
      "rbr": 2,
      "naziv": "KRISTIJAN MARKOVIĆ",
      "glasova": 79,
      "posto": "19,94"
    },{
      "rbr": 3,
      "naziv": "TAMARA CIBOCI",
      "glasova": 82,
      "posto": "20,70"
    },{
      "rbr": 4,
      "naziv": "KEMAL DELIĆ",
      "glasova": 30,
      "posto": "7,57"
    },{
      "rbr": 5,
      "naziv": "VEDRANA FUGAJ",
      "glasova": 14,
      "posto": "3,53"
    },{
      "rbr": 6,
      "naziv": "ZDENKA BABIĆ",
      "glasova": 24,
      "posto": "6,06"
    },{
      "rbr": 7,
      "naziv": "GABRIJELA PAUŠIĆ",
      "glasova": 34,
      "posto": "8,58"
    },{
      "rbr": 8,
      "naziv": "PATRICIJA GOLUBIĆ",
      "glasova": 44,
      "posto": "11,11"
    },{
      "rbr": 9,
      "naziv": "MAJA STROJANŠEK",
      "glasova": 0,
      "posto": "0,00"
    },{
      "rbr": 10,
      "naziv": "SEBASTIAN ILIĆ",
      "glasova": 2,
      "posto": "0,50"
    },{
      "rbr": 11,
      "naziv": "TOMISLAV PREVODNIK",
      "glasova": 8,
      "posto": "2,02"
    },{
      "rbr": 12,
      "naziv": "MATKO LOZANČIĆ",
      "glasova": 0,
      "posto": "0,00"
    },{
      "rbr": 13,
      "naziv": "SARI GHAZAL",
      "glasova": 0,
      "posto": "0,00"
    },{
      "rbr": 14,
      "naziv": "IVON RAJIČEVIĆ",
      "glasova": 0,
      "posto": "0,00"
    }]
  },{
    "rbr": 4,
    "stranke": [
      {"naziv": "UMIROVLJENICI ZAJEDNO - POLITIČKA PLATFORMA - UMIROVLJENICI ZAJEDNO"},
      {"naziv": "STRANKA UMIROVLJENIKA - SU"},
      {"naziv": "BLOK UMIROVLJENICI ZAJEDNO - BUZ"},
      {"naziv": "DEMOKRATSKA STRANKA UMIROVLJENIKA - DSU"}
    ],
    "jedinstvenaSifra": "039041102301",
    "glasova": 288,
    "naziv": "UMIROVLJENICI ZAJEDNO, SU, BUZ, DSU",
    "posto": "10,40",
    "lista": [{
      "rbr": 1,
      "naziv": "MARIJAN ŽIHER",
      "glasova": 118,
      "posto": "40,97"
    },{
      "rbr": 2,
      "naziv": "MILIVOJ ČEHULIĆ",
      "glasova": 45,
      "posto": "15,62"
    },{
      "rbr": 3,
      "naziv": "SLAVKO POSAVEC",
      "glasova": 32,
      "posto": "11,11"
    },{
      "rbr": 4,
      "naziv": "ŽELJKICA KRUHIN",
      "glasova": 25,
      "posto": "8,68"
    },{
      "rbr": 5,
      "naziv": "ŽELJKO ORŠOLIĆ",
      "glasova": 37,
      "posto": "12,84"
    },{
      "rbr": 6,
      "naziv": "DRAGUTIN POLAŠEK",
      "glasova": 19,
      "posto": "6,59"
    },{
      "rbr": 7,
      "naziv": "VALENTINA STARI",
      "glasova": 9,
      "posto": "3,12"
    },{
      "rbr": 8,
      "naziv": "MIRA TUPEK",
      "glasova": 0,
      "posto": "0,00"
    },{
      "rbr": 9,
      "naziv": "KATICA MUNTA",
      "glasova": 0,
      "posto": "0,00"
    },{
      "rbr": 10,
      "naziv": "MOMČILO TOMIĆ",
      "glasova": 3,
      "posto": "1,04"
    },{
      "rbr": 11,
      "naziv": "BOŽICA HARABAJSA",
      "glasova": 0,
      "posto": "0,00"
    },{
      "rbr": 12,
      "naziv": "MARICA SALOPEK",
      "glasova": 0,
      "posto": "0,00"
    },{
      "rbr": 13,
      "naziv": "DARKO MRAZ",
      "glasova": 0,
      "posto": "0,00"
    },{
      "rbr": 14,
      "naziv": "FABIJAN ZOVKIĆ",
      "glasova": 0,
      "posto": "0,00"
    }]
  },{
    "rbr": 5,
    "stranke": [
      {"naziv": "HRVATSKA STRANKA PRAVA - HSP"},
      {"naziv": "HRVATSKO BILO"},
      {"naziv": "HRVATSKA DEMOKRATSKA SELJAČKA STRANKA - HDSS"}
    ],
    "jedinstvenaSifra": "007018308",
    "glasova": 197,
    "naziv": "HSP, HRVATSKO BILO, HDSS",
    "posto": "7,11",
    "lista": [{
      "rbr": 1,
      "naziv": "NADA ŠIKIĆ",
      "glasova": 81,
      "posto": "41,11"
    },{
      "rbr": 2,
      "naziv": "BRIGITTE BERULEC",
      "glasova": 33,
      "posto": "16,75"
    },{
      "rbr": 3,
      "naziv": "ZORICA GREGURIĆ",
      "glasova": 25,
      "posto": "12,69"
    },{
      "rbr": 4,
      "naziv": "ANTUN CINDRIĆ",
      "glasova": 17,
      "posto": "8,62"
    },{
      "rbr": 5,
      "naziv": "HANA MALINA",
      "glasova": 27,
      "posto": "13,70"
    },{
      "rbr": 6,
      "naziv": "MARICA MARIĆ",
      "glasova": 9,
      "posto": "4,56"
    },{
      "rbr": 7,
      "naziv": "DALIBOR ŠOSTARIĆ",
      "glasova": 5,
      "posto": "2,53"
    },{
      "rbr": 8,
      "naziv": "KATARINA SVETEC",
      "glasova": 0,
      "posto": "0,00"
    },{
      "rbr": 9,
      "naziv": "ALIN KAVUR",
      "glasova": 0,
      "posto": "0,00"
    },{
      "rbr": 10,
      "naziv": "HRVOJE PAVIĆ",
      "glasova": 0,
      "posto": "0,00"
    },{
      "rbr": 11,
      "naziv": "ZVONKO KOROV",
      "glasova": 0,
      "posto": "0,00"
    },{
      "rbr": 12,
      "naziv": "MLADEN VUKASOVIĆ",
      "glasova": 0,
      "posto": "0,00"
    },{
      "rbr": 13,
      "naziv": "ANDRIJA NIKOLIĆ",
      "glasova": 0,
      "posto": "0,00"
    },{
      "rbr": 14,
      "naziv": "IGOR KIKIĆ",
      "glasova": 0,
      "posto": "0,00"
    }]
  },{
    "rbr": 6,
    "stranke": [
      {"naziv": "AUTOHTONA - HRVATSKA STRANKA PRAVA - DRAŽEN KELEMINEC - A - HSP - Dražen Keleminec"}
    ],
    "jedinstvenaSifra": "049",
    "glasova": 146,
    "naziv": "A - HSP - Dražen Keleminec",
    "posto": "5,27",
    "lista": [{
      "rbr": 1,
      "naziv": "NIKOLA LUKIĆ",
      "glasova": 34,
      "posto": "23,28"
    },{
      "rbr": 2,
      "naziv": "JOSIP ŠPIŠIĆ",
      "glasova": 32,
      "posto": "21,91"
    },{
      "rbr": 3,
      "naziv": "MARINKO PEREC",
      "glasova": 36,
      "posto": "24,65"
    },{
      "rbr": 4,
      "naziv": "STJEPAN SOKAČ",
      "glasova": 8,
      "posto": "5,47"
    },{
      "rbr": 5,
      "naziv": "MIRA KUTLEŠA",
      "glasova": 0,
      "posto": "0,00"
    },{
      "rbr": 6,
      "naziv": "GORAN ŠARIĆ",
      "glasova": 4,
      "posto": "2,73"
    },{
      "rbr": 7,
      "naziv": "MARIJANA PANIĆ",
      "glasova": 13,
      "posto": "8,90"
    },{
      "rbr": 8,
      "naziv": "MARKO KUTLEŠA",
      "glasova": 19,
      "posto": "13,01"
    },{
      "rbr": 9,
      "naziv": "SLADJANA PEREC",
      "glasova": 0,
      "posto": "0,00"
    },{
      "rbr": 10,
      "naziv": "ROBERT HUZEK-KITTAN",
      "glasova": 0,
      "posto": "0,00"
    },{
      "rbr": 11,
      "naziv": "MARGARETA MAJIĆ",
      "glasova": 0,
      "posto": "0,00"
    },{
      "rbr": 12,
      "naziv": "VEDRAN VESENJAK",
      "glasova": 0,
      "posto": "0,00"
    },{
      "rbr": 13,
      "naziv": "ZORICA POLJANEK",
      "glasova": 0,
      "posto": "0,00"
    },{
      "rbr": 14,
      "naziv": "MARINA HUZEK KITTAN",
      "glasova": 0,
      "posto": "0,00"
    }]
  },{
    "rbr": 7,
    "stranke": [
      {"naziv": "SOCIJALDEMOKRATI"},
      {"naziv": "ISTARSKI DEMOKRATSKI SABOR - IDS"},
      {"naziv": "PRIMORSKO GORANSKI SAVEZ - PGS"},
      {"naziv": "HRVATSKI LABURISTI - STRANKA RADA - LABURISTI"},
      {"naziv": "DEMOKRATI"}
    ],
    "jedinstvenaSifra": "005006100251299",
    "glasova": 101,
    "naziv": "SOCIJALDEMOKRATI, IDS, PGS, LABURISTI, DEMOKRATI",
    "posto": "3,65",
    "lista": [{
      "rbr": 1,
      "naziv": "VLADO ŠOLA",
      "glasova": 26,
      "posto": "25,74"
    },{
      "rbr": 2,
      "naziv": "VESNA NAĐ",
      "glasova": 26,
      "posto": "25,74"
    },{
      "rbr": 3,
      "naziv": "DOMAGOJ PRICA",
      "glasova": 27,
      "posto": "26,73"
    },{
      "rbr": 4,
      "naziv": "INES KOVAČEVIĆ",
      "glasova": 3,
      "posto": "2,97"
    },{
      "rbr": 5,
      "naziv": "IVAN CIKOVIĆ",
      "glasova": 0,
      "posto": "0,00"
    },{
      "rbr": 6,
      "naziv": "STJEPAN ZORMAN",
      "glasova": 0,
      "posto": "0,00"
    },{
      "rbr": 7,
      "naziv": "MARIJAN PREVAREK",
      "glasova": 7,
      "posto": "6,93"
    },{
      "rbr": 8,
      "naziv": "TOMISLAV KOLUNDŽIĆ",
      "glasova": 12,
      "posto": "11,88"
    },{
      "rbr": 9,
      "naziv": "KATA ĆORLUKA",
      "glasova": 0,
      "posto": "0,00"
    },{
      "rbr": 10,
      "naziv": "NERMA ŠIMUNIĆ",
      "glasova": 0,
      "posto": "0,00"
    },{
      "rbr": 11,
      "naziv": "PETAR KANEŠIĆ",
      "glasova": 0,
      "posto": "0,00"
    },{
      "rbr": 12,
      "naziv": "SOFIJA ŠTEFANAC KLOBUČAR",
      "glasova": 0,
      "posto": "0,00"
    },{
      "rbr": 13,
      "naziv": "JADRANKA LUKAVEČKI",
      "glasova": 0,
      "posto": "0,00"
    },{
      "rbr": 14,
      "naziv": "SLAVEN ĐURĐEVIĆ",
      "glasova": 0,
      "posto": "0,00"
    }]
  },{
    "rbr": 8,
    "stranke": [
      {"naziv": "DOMOVINSKI POKRET - DP"},
      {"naziv": "PRAVO I PRAVDA"},
      {"naziv": "DEMOKRATSKI HSS - DHSS"},
      {"naziv": "ZELENA LISTA"},
      {"naziv": "AGRAMERI - NEZAVISNA LISTA"}
    ],
    "jedinstvenaSifra": "231267274283312",
    "glasova": 79,
    "naziv": "DP, PRAVO I PRAVDA, DHSS, ZELENA LISTA, AGRAMERI - NEZAVISNA LISTA",
    "posto": "2,85",
    "lista": [{
      "rbr": 1,
      "naziv": "TOMISLAV JOSIĆ",
      "glasova": 0,
      "posto": "0,00"
    },{
      "rbr": 2,
      "naziv": "IVICA MESIĆ",
      "glasova": 15,
      "posto": "18,98"
    },{
      "rbr": 3,
      "naziv": "NENAD MATIĆ",
      "glasova": 0,
      "posto": "0,00"
    },{
      "rbr": 4,
      "naziv": "SLOBODAN NOVAK",
      "glasova": 15,
      "posto": "18,98"
    },{
      "rbr": 5,
      "naziv": "LUKA HOLJEVAC",
      "glasova": 12,
      "posto": "15,18"
    },{
      "rbr": 6,
      "naziv": "GRGO LUBURIĆ",
      "glasova": 9,
      "posto": "11,39"
    },{
      "rbr": 7,
      "naziv": "TOMISLAV LONČAR",
      "glasova": 14,
      "posto": "17,72"
    },{
      "rbr": 8,
      "naziv": "MAJA OREŠKI PAVLIŠ",
      "glasova": 4,
      "posto": "5,06"
    },{
      "rbr": 9,
      "naziv": "VALNA BASTIJANČIĆ ERJAVEC",
      "glasova": 10,
      "posto": "12,65"
    },{
      "rbr": 10,
      "naziv": "DUBRAVKA DRAGAŠEVIĆ",
      "glasova": 0,
      "posto": "0,00"
    },{
      "rbr": 11,
      "naziv": "VEDRAN ČERNY",
      "glasova": 0,
      "posto": "0,00"
    },{
      "rbr": 12,
      "naziv": "ANTO JURAKIĆ",
      "glasova": 0,
      "posto": "0,00"
    },{
      "rbr": 13,
      "naziv": "STEPHEN NIKOLA BARTULICA",
      "glasova": 0,
      "posto": "0,00"
    },{
      "rbr": 14,
      "naziv": "DAMIR DEAK",
      "glasova": 0,
      "posto": "0,00"
    }]
  },{
    "rbr": 9,
    "stranke": [
      {"naziv": "SOCIJALDEMOKRATSKA PARTIJA HRVATSKE - SDP"},
      {"naziv": "CENTAR"},
      {"naziv": "HRVATSKA SELJAČKA STRANKA - HSS"},
      {"naziv": "\"DALIJA OREŠKOVIĆ I LJUDI S IMENOM I PREZIMENOM\" - \"DO i SIP\""},
      {"naziv": "NARODNA STRANKA - REFORMISTI - REFORMISTI"},
      {"naziv": "GRAĐANSKO-LIBERALNI SAVEZ - GLAS"}
    ],
    "jedinstvenaSifra": "004017162179244306",
    "glasova": 72,
    "naziv": "SDP, CENTAR, HSS, \"DO i SIP\", REFORMISTI, GLAS",
    "posto": "2,60",
    "lista": [{
      "rbr": 1,
      "naziv": "BORIS LALOVAC",
      "glasova": 34,
      "posto": "47,22"
    },{
      "rbr": 2,
      "naziv": "TANJA SOKOLIĆ",
      "glasova": 15,
      "posto": "20,83"
    },{
      "rbr": 3,
      "naziv": "ANKA MRAK-TARITAŠ",
      "glasova": 9,
      "posto": "12,50"
    },{
      "rbr": 4,
      "naziv": "TOMISLAV GOLUBIĆ",
      "glasova": 3,
      "posto": "4,16"
    },{
      "rbr": 5,
      "naziv": "DAVORKA MOSLAVAC FORJAN",
      "glasova": 11,
      "posto": "15,27"
    },{
      "rbr": 6,
      "naziv": "DENIS KRALJ",
      "glasova": 0,
      "posto": "0,00"
    },{
      "rbr": 7,
      "naziv": "MAJA KRNJEVIĆ",
      "glasova": 0,
      "posto": "0,00"
    },{
      "rbr": 8,
      "naziv": "VALENTINA FOLNEGOVIĆ",
      "glasova": 0,
      "posto": "0,00"
    },{
      "rbr": 9,
      "naziv": "IGOR JAREŠ",
      "glasova": 0,
      "posto": "0,00"
    },{
      "rbr": 10,
      "naziv": "MARIJA VUKOBRATOVIĆ",
      "glasova": 0,
      "posto": "0,00"
    },{
      "rbr": 11,
      "naziv": "DEJAN PLENTAJ",
      "glasova": 0,
      "posto": "0,00"
    },{
      "rbr": 12,
      "naziv": "STANKO BORIĆ",
      "glasova": 0,
      "posto": "0,00"
    },{
      "rbr": 13,
      "naziv": "TESA GOLDSTEIN",
      "glasova": 0,
      "posto": "0,00"
    },{
      "rbr": 14,
      "naziv": "BOJAN GLAVAŠEVIĆ",
      "glasova": 0,
      "posto": "0,00"
    }]
  },{
    "rbr": 10,
    "stranke": [
      {"naziv": "MOST"},
      {"naziv": "HRVATSKI SUVERENISTI"},
      {"naziv": "HRVATSKA KONZERVATIVNA STRANKA - HKS"},
      {"naziv": "NEZAVISNA LISTA MLADIH - NLM"}
    ],
    "jedinstvenaSifra": "131165188263",
    "glasova": 65,
    "naziv": "MOST, HRVATSKI SUVERENISTI, HKS, NLM",
    "posto": "2,34",
    "lista": [{
      "rbr": 1,
      "naziv": "NINO RASPUDIĆ",
      "glasova": 31,
      "posto": "47,69"
    },{
      "rbr": 2,
      "naziv": "TRPIMIR GOLUŽA",
      "glasova": 15,
      "posto": "23,07"
    },{
      "rbr": 3,
      "naziv": "VINKO BATINIĆ",
      "glasova": 7,
      "posto": "10,76"
    },{
      "rbr": 4,
      "naziv": "IVANA VLADIMIRA PETRIC",
      "glasova": 1,
      "posto": "1,53"
    },{
      "rbr": 5,
      "naziv": "RENATA ČIBARIĆ",
      "glasova": 11,
      "posto": "16,92"
    },{
      "rbr": 6,
      "naziv": "VESNA KOTARAC",
      "glasova": 0,
      "posto": "0,00"
    },{
      "rbr": 7,
      "naziv": "ELIZABETA KRALJ KOVAČIĆ",
      "glasova": 0,
      "posto": "0,00"
    },{
      "rbr": 8,
      "naziv": "PAŠKO FILIĆ",
      "glasova": 0,
      "posto": "0,00"
    },{
      "rbr": 9,
      "naziv": "DOMAGOJ JUKIĆ",
      "glasova": 0,
      "posto": "0,00"
    },{
      "rbr": 10,
      "naziv": "LUKA PEŠUT",
      "glasova": 0,
      "posto": "0,00"
    },{
      "rbr": 11,
      "naziv": "ANĐA ČUJIĆ",
      "glasova": 0,
      "posto": "0,00"
    },{
      "rbr": 12,
      "naziv": "MARIJANA MARIN KOZINA",
      "glasova": 0,
      "posto": "0,00"
    },{
      "rbr": 13,
      "naziv": "MARTA BLAJIĆ DŽAJA",
      "glasova": 0,
      "posto": "0,00"
    },{
      "rbr": 14,
      "naziv": "BERNARD BUDIMIR",
      "glasova": 0,
      "posto": "0,00"
    }]
  },{
    "rbr": 11,
    "stranke": [
      {"naziv": "MOŽEMO! - POLITIČKA PLATFORMA"},
      {"naziv": "HOĆEMO PRAVEDNO"}
    ],
    "jedinstvenaSifra": "255297",
    "glasova": 59,
    "naziv": "MOŽEMO! - POLITIČKA PLATFORMA, HOĆEMO PRAVEDNO",
    "posto": "2,13",
    "lista": [{
      "rbr": 1,
      "naziv": "DANIJELA DOLENEC",
      "glasova": 17,
      "posto": "28,81"
    },{
      "rbr": 2,
      "naziv": "JELENA MILOŠ",
      "glasova": 15,
      "posto": "25,42"
    },{
      "rbr": 3,
      "naziv": "MARINA IVANDIĆ",
      "glasova": 18,
      "posto": "30,50"
    },{
      "rbr": 4,
      "naziv": "DAMIR LUJANAC",
      "glasova": 0,
      "posto": "0,00"
    },{
      "rbr": 5,
      "naziv": "MAURO SIROTNJAK",
      "glasova": 0,
      "posto": "0,00"
    },{
      "rbr": 6,
      "naziv": "BRANKO ANČIĆ",
      "glasova": 0,
      "posto": "0,00"
    },{
      "rbr": 7,
      "naziv": "DOROTEA ŠAFRANIĆ",
      "glasova": 2,
      "posto": "3,38"
    },{
      "rbr": 8,
      "naziv": "ANKICA PENAVA PEJČINOVIĆ",
      "glasova": 7,
      "posto": "11,86"
    },{
      "rbr": 9,
      "naziv": "JAGODA MUNIĆ",
      "glasova": 0,
      "posto": "0,00"
    },{
      "rbr": 10,
      "naziv": "NIKOLA ZDUNIĆ",
      "glasova": 0,
      "posto": "0,00"
    },{
      "rbr": 11,
      "naziv": "HELENA KERETA",
      "glasova": 0,
      "posto": "0,00"
    },{
      "rbr": 12,
      "naziv": "LUKA MALOČA",
      "glasova": 0,
      "posto": "0,00"
    },{
      "rbr": 13,
      "naziv": "MAGDALENA KOZARIĆ ŠPOLJARIĆ",
      "glasova": 0,
      "posto": "0,00"
    },{
      "rbr": 14,
      "naziv": "TIHOMIR MILOVAC",
      "glasova": 0,
      "posto": "0,00"
    }]
  },{
    "rbr": 12,
    "stranke": [
      {"naziv": "ODLUČNOST I PRAVEDNOST - OIP"}
    ],
    "jedinstvenaSifra": "300",
    "glasova": 49,
    "naziv": "OIP",
    "posto": "1,77",
    "lista": [{
      "rbr": 1,
      "naziv": "MARIO IVANIĆ",
      "glasova": 26,
      "posto": "53,06"
    },{
      "rbr": 2,
      "naziv": "GORDAN MAROVIĆ",
      "glasova": 14,
      "posto": "28,57"
    },{
      "rbr": 3,
      "naziv": "ŠTEFAN VIDOVIĆ",
      "glasova": 3,
      "posto": "6,12"
    },{
      "rbr": 4,
      "naziv": "SLAVOLJUB DUBRAVEC",
      "glasova": 0,
      "posto": "0,00"
    },{
      "rbr": 5,
      "naziv": "ANTE BARIČEVIĆ",
      "glasova": 6,
      "posto": "12,24"
    },{
      "rbr": 6,
      "naziv": "IVICA KAURIN",
      "glasova": 0,
      "posto": "0,00"
    },{
      "rbr": 7,
      "naziv": "DAVOR CINDRIĆ",
      "glasova": 0,
      "posto": "0,00"
    },{
      "rbr": 8,
      "naziv": "IVANA GRBEŠA",
      "glasova": 0,
      "posto": "0,00"
    },{
      "rbr": 9,
      "naziv": "ROBERT JOSIP VUJIČIĆ",
      "glasova": 0,
      "posto": "0,00"
    },{
      "rbr": 10,
      "naziv": "DARINKO TADIĆ",
      "glasova": 0,
      "posto": "0,00"
    },{
      "rbr": 11,
      "naziv": "DALIBOR LEŠNIK",
      "glasova": 0,
      "posto": "0,00"
    },{
      "rbr": 12,
      "naziv": "FILIP MALOČA",
      "glasova": 0,
      "posto": "0,00"
    },{
      "rbr": 13,
      "naziv": "VIKTOR KOKOROVIĆ",
      "glasova": 0,
      "posto": "0,00"
    },{
      "rbr": 14,
      "naziv": "IRENA BABIĆ",
      "glasova": 0,
      "posto": "0,00"
    }]
  },{
    "rbr": 13,
    "stranke": [
      {"naziv": "FOKUS"},
      {"naziv": "REPUBLIKA"}
    ],
    "jedinstvenaSifra": "270310",
    "glasova": 40,
    "naziv": "FOKUS, REPUBLIKA",
    "posto": "1,44",
    "lista": [{
      "rbr": 1,
      "naziv": "DAMIR BAJS",
      "glasova": 15,
      "posto": "37,50"
    },{
      "rbr": 2,
      "naziv": "HRVOJE KOŠĆEC",
      "glasova": 0,
      "posto": "0,00"
    },{
      "rbr": 3,
      "naziv": "NENAD PANIAN",
      "glasova": 0,
      "posto": "0,00"
    },{
      "rbr": 4,
      "naziv": "STJEPAN GADŽE",
      "glasova": 0,
      "posto": "0,00"
    },{
      "rbr": 5,
      "naziv": "MATIJA HERJAVIĆ",
      "glasova": 0,
      "posto": "0,00"
    },{
      "rbr": 6,
      "naziv": "IVANA RADAKOVIĆ",
      "glasova": 3,
      "posto": "7,50"
    },{
      "rbr": 7,
      "naziv": "MIRJANA HRANJEC BANOVEC",
      "glasova": 0,
      "posto": "0,00"
    },{
      "rbr": 8,
      "naziv": "LUKA KIPA",
      "glasova": 0,
      "posto": "0,00"
    },{
      "rbr": 9,
      "naziv": "STEVO TURČINOVIĆ",
      "glasova": 13,
      "posto": "32,50"
    },{
      "rbr": 10,
      "naziv": "JELENA HORVAT",
      "glasova": 9,
      "posto": "22,50"
    },{
      "rbr": 11,
      "naziv": "ŽELJKA JAREC BUKAL",
      "glasova": 0,
      "posto": "0,00"
    },{
      "rbr": 12,
      "naziv": "IVANA PIRIN",
      "glasova": 0,
      "posto": "0,00"
    },{
      "rbr": 13,
      "naziv": "IVANA EL-TAYEB",
      "glasova": 0,
      "posto": "0,00"
    },{
      "rbr": 14,
      "naziv": "MARIO KOLAR",
      "glasova": 0,
      "posto": "0,00"
    }]
  },{
    "rbr": 14,
    "stranke": [
      {"naziv": "HRVATSKA DEMOKRATSKA ZAJEDNICA - HDZ"},
      {"naziv": "HRVATSKA SOCIJALNO - LIBERALNA STRANKA - HSLS"},
      {"naziv": "HRVATSKA DEMOKRŠĆANSKA STRANKA - HDS"},
      {"naziv": "HRVATSKA NARODNA STRANKA - LIBERALNI DEMOKRATI - HNS"},
      {"naziv": "HRVATSKA STRANKA UMIROVLJENIKA - HSU"}
    ],
    "jedinstvenaSifra": "001002003011023",
    "glasova": 36,
    "naziv": "HDZ, HSLS, HDS, HNS, HSU",
    "posto": "1,30",
    "lista": [{
      "rbr": 1,
      "naziv": "GORDAN JANDROKOVIĆ",
      "glasova": 21,
      "posto": "58,33"
    },{
      "rbr": 2,
      "naziv": "KRUNOSLAV KATIČIĆ",
      "glasova": 12,
      "posto": "33,33"
    },{
      "rbr": 3,
      "naziv": "DARIO HREBAK",
      "glasova": 0,
      "posto": "0,00"
    },{
      "rbr": 4,
      "naziv": "ANTE DEUR",
      "glasova": 0,
      "posto": "0,00"
    },{
      "rbr": 5,
      "naziv": "GORDAN GRLIĆ-RADMAN",
      "glasova": 3,
      "posto": "8,33"
    },{
      "rbr": 6,
      "naziv": "MIRO TOTGERGELI",
      "glasova": 0,
      "posto": "0,00"
    },{
      "rbr": 7,
      "naziv": "JAVOR BOJAN LEŠ",
      "glasova": 0,
      "posto": "0,00"
    },{
      "rbr": 8,
      "naziv": "ZDRAVKA BUŠIĆ",
      "glasova": 0,
      "posto": "0,00"
    },{
      "rbr": 9,
      "naziv": "SANELA GRBAŠ BRATKOVIĆ",
      "glasova": 0,
      "posto": "0,00"
    },{
      "rbr": 10,
      "naziv": "TOMISLAV OKROŠA",
      "glasova": 0,
      "posto": "0,00"
    },{
      "rbr": 11,
      "naziv": "FRANJO POLJAK",
      "glasova": 0,
      "posto": "0,00"
    },{
      "rbr": 12,
      "naziv": "EVA JENDRIŠ ŠKRLJAK",
      "glasova": 0,
      "posto": "0,00"
    },{
      "rbr": 13,
      "naziv": "BRANKO HRG",
      "glasova": 0,
      "posto": "0,00"
    },{
      "rbr": 14,
      "naziv": "MARKO MARUŠIĆ",
      "glasova": 0,
      "posto": "0,00"
    }]
  }]
}
