{
  "izbori": "Zastupnički izbori 2024",
  "datum": "15.04.2024.",
  "vrijeme": "15:30",
  "izboriOznaka": "02",
  "ijSifra": "007",
  "bmSifra": "000",
  "ijNaziv": "VII. IZBORNA JEDINICA",
  "gropNaziv": "OGULIN",
  "bmNaziv": "",
  "bmZatvoreno": 17,
  "bmUkupno": 22,
  "biraciUkupno": 7534,
  "biraciGlasovalo": 2795,
  "biraciGlasovaloPosto": "37,10",
  "listiciUkupno": 2792,
  "listiciVazeci": 2736,
  "listiciVazeciPosto": "97,99",
  "listiciNevazeci": 56,
  "listiciNevazeciPosto": "2,01",
  "napomena": "* - objavljeni rezultati sadrže podatke samo s redovnih biračkih mjesta",
  "napomena2": "",
  "lista": [{
    "rbr": 1,
    "stranke": [
      {"naziv": "AKCIJA ZA PROMJENE"},
      {"naziv": "AGRARNA STRANKA - POKRET ZA HRVATSKU POLJOPRIVREDU"}
    ],
    "jedinstvenaSifra": "303305",
    "glasova": 995,
    "naziv": "AKCIJA ZA PROMJENE, AGRARNA STRANKA - POKRET ZA HRVATSKU POLJOPRIVREDU",
    "posto": "36,36",
    "lista": [{
      "rbr": 1,
      "naziv": "NEBOJŠA ANDRIĆ",
      "glasova": 196,
      "posto": "19,69"
    },{
      "rbr": 2,
      "naziv": "DAVOR SMUĐ",
      "glasova": 65,
      "posto": "6,53"
    },{
      "rbr": 3,
      "naziv": "DANIJEL JURKAŠ",
      "glasova": 34,
      "posto": "3,41"
    },{
      "rbr": 4,
      "naziv": "ANDREA CULI",
      "glasova": 56,
      "posto": "5,62"
    },{
      "rbr": 5,
      "naziv": "GORDANA LIPŠINIĆ",
      "glasova": 76,
      "posto": "7,63"
    },{
      "rbr": 6,
      "naziv": "ŽELJKA VULETIĆ",
      "glasova": 98,
      "posto": "9,84"
    },{
      "rbr": 7,
      "naziv": "DAMIR RADINOVIĆ",
      "glasova": 11,
      "posto": "1,10"
    },{
      "rbr": 8,
      "naziv": "ZLATKO MIHALJEVIĆ",
      "glasova": 25,
      "posto": "2,51"
    },{
      "rbr": 9,
      "naziv": "LAHORKA BOBETKO",
      "glasova": 186,
      "posto": "18,69"
    },{
      "rbr": 10,
      "naziv": "GORDANA STJEPANOVIĆ",
      "glasova": 176,
      "posto": "17,68"
    },{
      "rbr": 11,
      "naziv": "DAVID ANČIĆ",
      "glasova": 6,
      "posto": "0,60"
    },{
      "rbr": 12,
      "naziv": "IVANKA TURKALJ",
      "glasova": 10,
      "posto": "1,00"
    },{
      "rbr": 13,
      "naziv": "JOSIP TUMPAK",
      "glasova": 14,
      "posto": "1,40"
    },{
      "rbr": 14,
      "naziv": "GORAN ĐEKIĆ",
      "glasova": 23,
      "posto": "2,31"
    }]
  },{
    "rbr": 2,
    "stranke": [
      {"naziv": "AUTOHTONA - HRVATSKA STRANKA PRAVA - DRAŽEN KELEMINEC - A - HSP - Dražen Keleminec"}
    ],
    "jedinstvenaSifra": "049",
    "glasova": 419,
    "naziv": "A - HSP - Dražen Keleminec",
    "posto": "15,31",
    "lista": [{
      "rbr": 1,
      "naziv": "DRAŽEN KELEMINEC",
      "glasova": 87,
      "posto": "20,76"
    },{
      "rbr": 2,
      "naziv": "MATE DILBER",
      "glasova": 76,
      "posto": "18,13"
    },{
      "rbr": 3,
      "naziv": "VANJA STERMOLE",
      "glasova": 87,
      "posto": "20,76"
    },{
      "rbr": 4,
      "naziv": "TOMA ŠTEDUL",
      "glasova": 29,
      "posto": "6,92"
    },{
      "rbr": 5,
      "naziv": "HEIDI MILČIĆ",
      "glasova": 14,
      "posto": "3,34"
    },{
      "rbr": 6,
      "naziv": "VID ROŠČAK",
      "glasova": 25,
      "posto": "5,96"
    },{
      "rbr": 7,
      "naziv": "JASMINKA MAJIĆ",
      "glasova": 35,
      "posto": "8,35"
    },{
      "rbr": 8,
      "naziv": "ĐURO MARKUŠ",
      "glasova": 45,
      "posto": "10,73"
    },{
      "rbr": 9,
      "naziv": "NENAD CEPAK",
      "glasova": 1,
      "posto": "0,23"
    },{
      "rbr": 10,
      "naziv": "MARIJAN GOLUBIĆ",
      "glasova": 6,
      "posto": "1,43"
    },{
      "rbr": 11,
      "naziv": "GORAN KUMPARE",
      "glasova": 12,
      "posto": "2,86"
    },{
      "rbr": 12,
      "naziv": "JASENKA STIPETIĆ FERENČABA",
      "glasova": 0,
      "posto": "0,00"
    },{
      "rbr": 13,
      "naziv": "ZDENKA RADIČIĆ",
      "glasova": 2,
      "posto": "0,47"
    },{
      "rbr": 14,
      "naziv": "ZVONKO MAJIĆ",
      "glasova": 0,
      "posto": "0,00"
    }]
  },{
    "rbr": 3,
    "stranke": [
      {"naziv": "UMIROVLJENICI ZAJEDNO - POLITIČKA PLATFORMA - UMIROVLJENICI ZAJEDNO"},
      {"naziv": "STRANKA UMIROVLJENIKA - SU"},
      {"naziv": "BLOK UMIROVLJENICI ZAJEDNO - BUZ"},
      {"naziv": "DEMOKRATSKA STRANKA UMIROVLJENIKA - DSU"}
    ],
    "jedinstvenaSifra": "039041102301",
    "glasova": 244,
    "naziv": "UMIROVLJENICI ZAJEDNO, SU, BUZ, DSU",
    "posto": "8,91",
    "lista": [{
      "rbr": 1,
      "naziv": "VESNA HORVAT",
      "glasova": 54,
      "posto": "22,13"
    },{
      "rbr": 2,
      "naziv": "MILIVOJ TIČARIĆ",
      "glasova": 48,
      "posto": "19,67"
    },{
      "rbr": 3,
      "naziv": "BISERKA SCHMUCK",
      "glasova": 52,
      "posto": "21,31"
    },{
      "rbr": 4,
      "naziv": "JOSIP MILINKOVIĆ",
      "glasova": 18,
      "posto": "7,37"
    },{
      "rbr": 5,
      "naziv": "VLADIMIR MARIJAN TUDJA",
      "glasova": 6,
      "posto": "2,45"
    },{
      "rbr": 6,
      "naziv": "MARIJA VRBANAC",
      "glasova": 14,
      "posto": "5,73"
    },{
      "rbr": 7,
      "naziv": "IVAN JELENČIĆ",
      "glasova": 21,
      "posto": "8,60"
    },{
      "rbr": 8,
      "naziv": "STJEPAN TOMEČAK",
      "glasova": 28,
      "posto": "11,47"
    },{
      "rbr": 9,
      "naziv": "KSENIJA DRAKULIĆ",
      "glasova": 0,
      "posto": "0,00"
    },{
      "rbr": 10,
      "naziv": "ILIJA KORDIĆ",
      "glasova": 1,
      "posto": "0,40"
    },{
      "rbr": 11,
      "naziv": "JELENA MANDIĆ",
      "glasova": 2,
      "posto": "0,81"
    },{
      "rbr": 12,
      "naziv": "ŽELJKO JEZDIĆ",
      "glasova": 0,
      "posto": "0,00"
    },{
      "rbr": 13,
      "naziv": "MARIJA ANDRIŠČAK",
      "glasova": 0,
      "posto": "0,00"
    },{
      "rbr": 14,
      "naziv": "SNJEŽANA DOZET",
      "glasova": 0,
      "posto": "0,00"
    }]
  },{
    "rbr": 4,
    "stranke": [
      {"naziv": "HRVATSKA STRANKA GRAĐANSKOG OTPORA - HSGO"}
    ],
    "jedinstvenaSifra": "247",
    "glasova": 224,
    "naziv": "HSGO",
    "posto": "8,18",
    "lista": [{
      "rbr": 1,
      "naziv": "DRAŽEN KATIĆ",
      "glasova": 50,
      "posto": "22,32"
    },{
      "rbr": 2,
      "naziv": "DEJAN VINČIĆ",
      "glasova": 33,
      "posto": "14,73"
    },{
      "rbr": 3,
      "naziv": "MARIETTE DAMJANOVIĆ",
      "glasova": 27,
      "posto": "12,05"
    },{
      "rbr": 4,
      "naziv": "ANEL DŽAFEROVIĆ",
      "glasova": 20,
      "posto": "8,92"
    },{
      "rbr": 5,
      "naziv": "JADRANKO PODVRŠAN",
      "glasova": 29,
      "posto": "12,94"
    },{
      "rbr": 6,
      "naziv": "VERA POGELŠEK",
      "glasova": 16,
      "posto": "7,14"
    },{
      "rbr": 7,
      "naziv": "VALENTINA CVITKOVIĆ",
      "glasova": 12,
      "posto": "5,35"
    },{
      "rbr": 8,
      "naziv": "TOMISLAV VRBANIĆ",
      "glasova": 7,
      "posto": "3,12"
    },{
      "rbr": 9,
      "naziv": "ANITA KLADNIK",
      "glasova": 5,
      "posto": "2,23"
    },{
      "rbr": 10,
      "naziv": "KATARINA BEŠIĆ",
      "glasova": 8,
      "posto": "3,57"
    },{
      "rbr": 11,
      "naziv": "MARINA ŽLIČAR",
      "glasova": 4,
      "posto": "1,78"
    },{
      "rbr": 12,
      "naziv": "BISERKA HAAG",
      "glasova": 5,
      "posto": "2,23"
    },{
      "rbr": 13,
      "naziv": "MARIJAN URH",
      "glasova": 2,
      "posto": "0,89"
    },{
      "rbr": 14,
      "naziv": "SLAVKO MACENIĆ",
      "glasova": 2,
      "posto": "0,89"
    }]
  },{
    "rbr": 5,
    "stranke": [
      {"naziv": "STRANKA IVANA PERNARA"}
    ],
    "jedinstvenaSifra": "259",
    "glasova": 147,
    "naziv": "STRANKA IVANA PERNARA",
    "posto": "5,37",
    "lista": [{
      "rbr": 1,
      "naziv": "GORDAN ŠEBALJ",
      "glasova": 36,
      "posto": "24,48"
    },{
      "rbr": 2,
      "naziv": "FRANJO MIROSLAV PERKOVIĆ",
      "glasova": 30,
      "posto": "20,40"
    },{
      "rbr": 3,
      "naziv": "JOSIP ŽUČKO",
      "glasova": 34,
      "posto": "23,12"
    },{
      "rbr": 4,
      "naziv": "NATAŠA POGAČIĆ",
      "glasova": 10,
      "posto": "6,80"
    },{
      "rbr": 5,
      "naziv": "MIHAIL MARŠON",
      "glasova": 0,
      "posto": "0,00"
    },{
      "rbr": 6,
      "naziv": "TIHANA SVIBEN",
      "glasova": 5,
      "posto": "3,40"
    },{
      "rbr": 7,
      "naziv": "IVANA PERIĆ",
      "glasova": 14,
      "posto": "9,52"
    },{
      "rbr": 8,
      "naziv": "ANDREJ SAJKO",
      "glasova": 18,
      "posto": "12,24"
    },{
      "rbr": 9,
      "naziv": "SONJA PERKOVIĆ",
      "glasova": 0,
      "posto": "0,00"
    },{
      "rbr": 10,
      "naziv": "TOMISLAV MILINOVIĆ",
      "glasova": 0,
      "posto": "0,00"
    },{
      "rbr": 11,
      "naziv": "VIŠNJA ŠIMIĆ",
      "glasova": 0,
      "posto": "0,00"
    },{
      "rbr": 12,
      "naziv": "DALIBOR MEDVEDOVIĆ",
      "glasova": 0,
      "posto": "0,00"
    },{
      "rbr": 13,
      "naziv": "ZORAN RADMAN",
      "glasova": 0,
      "posto": "0,00"
    },{
      "rbr": 14,
      "naziv": "ANĐELA MARUSZKY",
      "glasova": 0,
      "posto": "0,00"
    }]
  },{
    "rbr": 6,
    "stranke": [
      {"naziv": "DOMOVINSKI POKRET - DP"},
      {"naziv": "PRAVO I PRAVDA"},
      {"naziv": "DEMOKRATSKI HSS - DHSS"},
      {"naziv": "ZELENA LISTA"}
    ],
    "jedinstvenaSifra": "231267283312",
    "glasova": 115,
    "naziv": "DP, PRAVO I PRAVDA, DHSS, ZELENA LISTA",
    "posto": "4,20",
    "lista": [{
      "rbr": 1,
      "naziv": "JOSIP JURČEVIĆ",
      "glasova": 29,
      "posto": "25,21"
    },{
      "rbr": 2,
      "naziv": "DAMIR MARKUŠ",
      "glasova": 19,
      "posto": "16,52"
    },{
      "rbr": 3,
      "naziv": "ŽELJKO LENART",
      "glasova": 1,
      "posto": "0,86"
    },{
      "rbr": 4,
      "naziv": "ALENKO RIBIĆ",
      "glasova": 15,
      "posto": "13,04"
    },{
      "rbr": 5,
      "naziv": "VLATKO IVKA",
      "glasova": 13,
      "posto": "11,30"
    },{
      "rbr": 6,
      "naziv": "VIKTORIJA KALEB",
      "glasova": 11,
      "posto": "9,56"
    },{
      "rbr": 7,
      "naziv": "ROMANA MILAJČIĆ",
      "glasova": 18,
      "posto": "15,65"
    },{
      "rbr": 8,
      "naziv": "ZVONIMIR MRGAN",
      "glasova": 5,
      "posto": "4,34"
    },{
      "rbr": 9,
      "naziv": "SONJA BABIĆ",
      "glasova": 0,
      "posto": "0,00"
    },{
      "rbr": 10,
      "naziv": "ŠIME BUŠKULIĆ",
      "glasova": 3,
      "posto": "2,60"
    },{
      "rbr": 11,
      "naziv": "IVA KUČINIĆ RADOŠEVIĆ",
      "glasova": 1,
      "posto": "0,86"
    },{
      "rbr": 12,
      "naziv": "ANKICA ROSANDIĆ",
      "glasova": 0,
      "posto": "0,00"
    },{
      "rbr": 13,
      "naziv": "DUBRAVKA BIJELIĆ",
      "glasova": 0,
      "posto": "0,00"
    },{
      "rbr": 14,
      "naziv": "FILIP JARNEVIĆ",
      "glasova": 0,
      "posto": "0,00"
    }]
  },{
    "rbr": 7,
    "stranke": [
      {"naziv": "SOCIJALDEMOKRATSKA PARTIJA HRVATSKE - SDP"},
      {"naziv": "CENTAR"},
      {"naziv": "HRVATSKA SELJAČKA STRANKA - HSS"},
      {"naziv": "\"DALIJA OREŠKOVIĆ I LJUDI S IMENOM I PREZIMENOM\" - \"DO i SIP\""},
      {"naziv": "GRAĐANSKO-LIBERALNI SAVEZ - GLAS"}
    ],
    "jedinstvenaSifra": "004017179244306",
    "glasova": 113,
    "naziv": "SDP, CENTAR, HSS, \"DO i SIP\", GLAS",
    "posto": "4,13",
    "lista": [{
      "rbr": 1,
      "naziv": "KRISTINA IKIĆ BANIČEK",
      "glasova": 28,
      "posto": "24,77"
    },{
      "rbr": 2,
      "naziv": "IVICA LUKANOVIĆ",
      "glasova": 21,
      "posto": "18,58"
    },{
      "rbr": 3,
      "naziv": "SANDRA KRPAN",
      "glasova": 15,
      "posto": "13,27"
    },{
      "rbr": 4,
      "naziv": "DALIBOR DOMITROVIĆ",
      "glasova": 9,
      "posto": "7,96"
    },{
      "rbr": 5,
      "naziv": "BRANKA BAKŠIĆ-MITIĆ",
      "glasova": 19,
      "posto": "16,81"
    },{
      "rbr": 6,
      "naziv": "MIRELA MIKIĆ MUHA",
      "glasova": 8,
      "posto": "7,07"
    },{
      "rbr": 7,
      "naziv": "ZDENKO MOČNIK",
      "glasova": 6,
      "posto": "5,30"
    },{
      "rbr": 8,
      "naziv": "MATEJ MOSTARAC",
      "glasova": 0,
      "posto": "0,00"
    },{
      "rbr": 9,
      "naziv": "DRAGICA MALOVIĆ",
      "glasova": 0,
      "posto": "0,00"
    },{
      "rbr": 10,
      "naziv": "TONI ŠTIMAC",
      "glasova": 3,
      "posto": "2,65"
    },{
      "rbr": 11,
      "naziv": "KREŠIMIR ČULINOVIĆ",
      "glasova": 0,
      "posto": "0,00"
    },{
      "rbr": 12,
      "naziv": "JASMINKA MOLNAR",
      "glasova": 2,
      "posto": "1,76"
    },{
      "rbr": 13,
      "naziv": "TONI HERENDA",
      "glasova": 2,
      "posto": "1,76"
    },{
      "rbr": 14,
      "naziv": "VOJKO OBERSNEL",
      "glasova": 0,
      "posto": "0,00"
    }]
  },{
    "rbr": 8,
    "stranke": [
      {"naziv": "MOŽEMO! - POLITIČKA PLATFORMA"},
      {"naziv": "HOĆEMO PRAVEDNO"}
    ],
    "jedinstvenaSifra": "255297",
    "glasova": 94,
    "naziv": "MOŽEMO! - POLITIČKA PLATFORMA, HOĆEMO PRAVEDNO",
    "posto": "3,43",
    "lista": [{
      "rbr": 1,
      "naziv": "DRAŽENKA POLOVIĆ",
      "glasova": 23,
      "posto": "24,46"
    },{
      "rbr": 2,
      "naziv": "IVA IVŠIĆ",
      "glasova": 21,
      "posto": "22,34"
    },{
      "rbr": 3,
      "naziv": "DOBRIŠA ADAMEC",
      "glasova": 22,
      "posto": "23,40"
    },{
      "rbr": 4,
      "naziv": "ORJEN PETKOVIĆ",
      "glasova": 5,
      "posto": "5,31"
    },{
      "rbr": 5,
      "naziv": "ANA ALAPIĆ",
      "glasova": 0,
      "posto": "0,00"
    },{
      "rbr": 6,
      "naziv": "DIMITRIJE BIRAČ",
      "glasova": 4,
      "posto": "4,25"
    },{
      "rbr": 7,
      "naziv": "VLASTA LENDLER-ADAMEC",
      "glasova": 8,
      "posto": "8,51"
    },{
      "rbr": 8,
      "naziv": "DUBRAVKO GOLUBIĆ",
      "glasova": 11,
      "posto": "11,70"
    },{
      "rbr": 9,
      "naziv": "VLATKA KRIZMANIĆ",
      "glasova": 0,
      "posto": "0,00"
    },{
      "rbr": 10,
      "naziv": "SANDA ĆAKIĆ",
      "glasova": 0,
      "posto": "0,00"
    },{
      "rbr": 11,
      "naziv": "ZLATKO DOMLJAN",
      "glasova": 0,
      "posto": "0,00"
    },{
      "rbr": 12,
      "naziv": "NEVENKA SUDAC-VINSKI",
      "glasova": 0,
      "posto": "0,00"
    },{
      "rbr": 13,
      "naziv": "SNJEŽANA DRVODELIĆ",
      "glasova": 0,
      "posto": "0,00"
    },{
      "rbr": 14,
      "naziv": "ANA MATAN",
      "glasova": 0,
      "posto": "0,00"
    }]
  },{
    "rbr": 9,
    "stranke": [
      {"naziv": "HRVATSKA STRANKA PRAVA - HSP"},
      {"naziv": "HRVATSKO BILO"},
      {"naziv": "HRVATSKA DEMOKRATSKA SELJAČKA STRANKA - HDSS"}
    ],
    "jedinstvenaSifra": "007018308",
    "glasova": 81,
    "naziv": "HSP, HRVATSKO BILO, HDSS",
    "posto": "2,96",
    "lista": [{
      "rbr": 1,
      "naziv": "ANTE PRKAČIN",
      "glasova": 22,
      "posto": "27,16"
    },{
      "rbr": 2,
      "naziv": "NIKICA AUGUSTINOVIĆ",
      "glasova": 17,
      "posto": "20,98"
    },{
      "rbr": 3,
      "naziv": "ŽELJKO BELANEK",
      "glasova": 10,
      "posto": "12,34"
    },{
      "rbr": 4,
      "naziv": "MARIA ĆAĆIĆ",
      "glasova": 8,
      "posto": "9,87"
    },{
      "rbr": 5,
      "naziv": "GORAN MARKOVAC",
      "glasova": 13,
      "posto": "16,04"
    },{
      "rbr": 6,
      "naziv": "MARIO VRSELJA",
      "glasova": 5,
      "posto": "6,17"
    },{
      "rbr": 7,
      "naziv": "DAMIR PUČAK",
      "glasova": 5,
      "posto": "6,17"
    },{
      "rbr": 8,
      "naziv": "RENATA ČAČIĆ",
      "glasova": 0,
      "posto": "0,00"
    },{
      "rbr": 9,
      "naziv": "ANTONIA LOVREKOVIĆ",
      "glasova": 0,
      "posto": "0,00"
    },{
      "rbr": 10,
      "naziv": "ĐURĐICA JURIĆ",
      "glasova": 1,
      "posto": "1,23"
    },{
      "rbr": 11,
      "naziv": "LEONI GLAD",
      "glasova": 0,
      "posto": "0,00"
    },{
      "rbr": 12,
      "naziv": "JOSIP ŽARAK",
      "glasova": 0,
      "posto": "0,00"
    },{
      "rbr": 13,
      "naziv": "DIJANA LIPOVAC",
      "glasova": 0,
      "posto": "0,00"
    },{
      "rbr": 14,
      "naziv": "IVAN PIŠKOR",
      "glasova": 0,
      "posto": "0,00"
    }]
  },{
    "rbr": 10,
    "stranke": [
      {"naziv": "MOST"},
      {"naziv": "HRVATSKI SUVERENISTI"},
      {"naziv": "HRVATSKA KONZERVATIVNA STRANKA - HKS"},
      {"naziv": "NEZAVISNA LISTA MLADIH - NLM"}
    ],
    "jedinstvenaSifra": "131165188263",
    "glasova": 80,
    "naziv": "MOST, HRVATSKI SUVERENISTI, HKS, NLM",
    "posto": "2,92",
    "lista": [{
      "rbr": 1,
      "naziv": "ZVONIMIR TROSKOT",
      "glasova": 22,
      "posto": "27,50"
    },{
      "rbr": 2,
      "naziv": "LUCA GAŠPAR ŠAKO",
      "glasova": 18,
      "posto": "22,50"
    },{
      "rbr": 3,
      "naziv": "ŠIME GLIGORA",
      "glasova": 21,
      "posto": "26,25"
    },{
      "rbr": 4,
      "naziv": "ANAMARIJA JURKOVIĆ",
      "glasova": 3,
      "posto": "3,75"
    },{
      "rbr": 5,
      "naziv": "FRANO ČIRKO",
      "glasova": 0,
      "posto": "0,00"
    },{
      "rbr": 6,
      "naziv": "HRVOJE BEZJAK",
      "glasova": 0,
      "posto": "0,00"
    },{
      "rbr": 7,
      "naziv": "NEVIO KLARIĆ",
      "glasova": 7,
      "posto": "8,75"
    },{
      "rbr": 8,
      "naziv": "ROBERT GROZA",
      "glasova": 9,
      "posto": "11,25"
    },{
      "rbr": 9,
      "naziv": "LJILJANA LAMPERT",
      "glasova": 0,
      "posto": "0,00"
    },{
      "rbr": 10,
      "naziv": "TANJA ŠIMANIĆ",
      "glasova": 0,
      "posto": "0,00"
    },{
      "rbr": 11,
      "naziv": "RAFAELA SURINA",
      "glasova": 0,
      "posto": "0,00"
    },{
      "rbr": 12,
      "naziv": "GORDANA BREZINŠĆAK ĐOZO",
      "glasova": 0,
      "posto": "0,00"
    },{
      "rbr": 13,
      "naziv": "IVAN BULAJA",
      "glasova": 0,
      "posto": "0,00"
    },{
      "rbr": 14,
      "naziv": "FRANE VUČETIĆ",
      "glasova": 0,
      "posto": "0,00"
    }]
  },{
    "rbr": 11,
    "stranke": [
      {"naziv": "ODLUČNOST I PRAVEDNOST - OIP"}
    ],
    "jedinstvenaSifra": "300",
    "glasova": 68,
    "naziv": "OIP",
    "posto": "2,48",
    "lista": [{
      "rbr": 1,
      "naziv": "ROBERT KRPES",
      "glasova": 17,
      "posto": "25,00"
    },{
      "rbr": 2,
      "naziv": "ANA KRIVAK",
      "glasova": 11,
      "posto": "16,17"
    },{
      "rbr": 3,
      "naziv": "ZVONKO TOMLJENOVIĆ",
      "glasova": 5,
      "posto": "7,35"
    },{
      "rbr": 4,
      "naziv": "DANIJEL OPRAUŠ",
      "glasova": 0,
      "posto": "0,00"
    },{
      "rbr": 5,
      "naziv": "TOMISLAV BOŽIČEVIĆ",
      "glasova": 8,
      "posto": "11,76"
    },{
      "rbr": 6,
      "naziv": "IVAN JAKUBEK",
      "glasova": 0,
      "posto": "0,00"
    },{
      "rbr": 7,
      "naziv": "KRISTIJAN ŠANDOR",
      "glasova": 0,
      "posto": "0,00"
    },{
      "rbr": 8,
      "naziv": "VEDRAN ČANIĆ",
      "glasova": 0,
      "posto": "0,00"
    },{
      "rbr": 9,
      "naziv": "DALIBOR DOKMANIĆ",
      "glasova": 0,
      "posto": "0,00"
    },{
      "rbr": 10,
      "naziv": "IVAN MATAK",
      "glasova": 0,
      "posto": "0,00"
    },{
      "rbr": 11,
      "naziv": "MARIO MARINCEL",
      "glasova": 0,
      "posto": "0,00"
    },{
      "rbr": 12,
      "naziv": "JOSO PERKOVIĆ",
      "glasova": 0,
      "posto": "0,00"
    },{
      "rbr": 13,
      "naziv": "BORIS MORO",
      "glasova": 0,
      "posto": "0,00"
    },{
      "rbr": 14,
      "naziv": "IVANA FRANUL",
      "glasova": 27,
      "posto": "39,70"
    }]
  },{
    "rbr": 12,
    "stranke": [
      {"naziv": "RADNIČKA FRONTA - RF"}
    ],
    "jedinstvenaSifra": "168",
    "glasova": 49,
    "naziv": "RF",
    "posto": "1,79",
    "lista": [{
      "rbr": 1,
      "naziv": "ANTON GLASNOVIĆ",
      "glasova": 17,
      "posto": "34,69"
    },{
      "rbr": 2,
      "naziv": "SANDRA KASUNIĆ",
      "glasova": 10,
      "posto": "20,40"
    },{
      "rbr": 3,
      "naziv": "ANDREJ GEORGIEVSKI",
      "glasova": 6,
      "posto": "12,24"
    },{
      "rbr": 4,
      "naziv": "RUŽICA KARTELO",
      "glasova": 5,
      "posto": "10,20"
    },{
      "rbr": 5,
      "naziv": "VELIBOR VALENTA",
      "glasova": 8,
      "posto": "16,32"
    },{
      "rbr": 6,
      "naziv": "KSENIJA BATALO",
      "glasova": 2,
      "posto": "4,08"
    },{
      "rbr": 7,
      "naziv": "NIKOLA GVOJIĆ",
      "glasova": 1,
      "posto": "2,04"
    },{
      "rbr": 8,
      "naziv": "JASMINKA BUIĆ",
      "glasova": 0,
      "posto": "0,00"
    },{
      "rbr": 9,
      "naziv": "MLADEN BRAJAK",
      "glasova": 0,
      "posto": "0,00"
    },{
      "rbr": 10,
      "naziv": "ANITA BUHIN",
      "glasova": 0,
      "posto": "0,00"
    },{
      "rbr": 11,
      "naziv": "JOSIP IVANČIĆ",
      "glasova": 0,
      "posto": "0,00"
    },{
      "rbr": 12,
      "naziv": "MARIO ZAJIČEK",
      "glasova": 0,
      "posto": "0,00"
    },{
      "rbr": 13,
      "naziv": "IVICA ŠUSTIĆ",
      "glasova": 0,
      "posto": "0,00"
    },{
      "rbr": 14,
      "naziv": "MIRTA MATAIJA",
      "glasova": 0,
      "posto": "0,00"
    }]
  },{
    "rbr": 13,
    "stranke": [
      {"naziv": "NARODNA STRANKA - REFORMISTI - REFORMISTI"},
      {"naziv": "PRIMORSKO GORANSKI SAVEZ - PGS"},
      {"naziv": "ISTARSKI DEMOKRATSKI SABOR - IDS"},
      {"naziv": "UNIJA KVARNERA - UNIJA"},
      {"naziv": "STRANKA HRVATSKIH UMIROVLJENIKA - UMIROVLJENICI - UMIROVLJENICI"}
    ],
    "jedinstvenaSifra": "005006162178241",
    "glasova": 41,
    "naziv": "REFORMISTI, PGS, IDS, UNIJA, UMIROVLJENICI",
    "posto": "1,49",
    "lista": [{
      "rbr": 1,
      "naziv": "ALENKA KOŠIŠA ČIČIN-ŠAIN",
      "glasova": 15,
      "posto": "36,58"
    },{
      "rbr": 2,
      "naziv": "SNJEŽANA PODOBNIK",
      "glasova": 9,
      "posto": "21,95"
    },{
      "rbr": 3,
      "naziv": "MIRELLA MLADIN",
      "glasova": 10,
      "posto": "24,39"
    },{
      "rbr": 4,
      "naziv": "MARKO SOBOTINČIĆ",
      "glasova": 0,
      "posto": "0,00"
    },{
      "rbr": 5,
      "naziv": "ZINKA BRATUŠA",
      "glasova": 0,
      "posto": "0,00"
    },{
      "rbr": 6,
      "naziv": "DUŠAN ŠTEMBERGER",
      "glasova": 0,
      "posto": "0,00"
    },{
      "rbr": 7,
      "naziv": "ŽELJKO BEDEKOVIĆ",
      "glasova": 3,
      "posto": "7,31"
    },{
      "rbr": 8,
      "naziv": "NATAŠA BLAŽEVIĆ STARČEVIĆ",
      "glasova": 4,
      "posto": "9,75"
    },{
      "rbr": 9,
      "naziv": "MARIJAN ŠTEFANKO",
      "glasova": 0,
      "posto": "0,00"
    },{
      "rbr": 10,
      "naziv": "DAVID MAROT",
      "glasova": 0,
      "posto": "0,00"
    },{
      "rbr": 11,
      "naziv": "INGRID KRŠULJA",
      "glasova": 0,
      "posto": "0,00"
    },{
      "rbr": 12,
      "naziv": "SANDRO VIZLER",
      "glasova": 0,
      "posto": "0,00"
    },{
      "rbr": 13,
      "naziv": "IVANA TRTANJ",
      "glasova": 0,
      "posto": "0,00"
    },{
      "rbr": 14,
      "naziv": "NEDJELJKO PINEZIĆ",
      "glasova": 0,
      "posto": "0,00"
    }]
  },{
    "rbr": 14,
    "stranke": [
      {"naziv": "FOKUS"},
      {"naziv": "REPUBLIKA"}
    ],
    "jedinstvenaSifra": "270310",
    "glasova": 26,
    "naziv": "FOKUS, REPUBLIKA",
    "posto": "0,95",
    "lista": [{
      "rbr": 1,
      "naziv": "IVAN JANKOVIĆ",
      "glasova": 11,
      "posto": "42,30"
    },{
      "rbr": 2,
      "naziv": "GORAN BUKOVAC",
      "glasova": 0,
      "posto": "0,00"
    },{
      "rbr": 3,
      "naziv": "HRVOJE JURKOVIĆ",
      "glasova": 0,
      "posto": "0,00"
    },{
      "rbr": 4,
      "naziv": "KREŠIMIR KUTEROVAC",
      "glasova": 0,
      "posto": "0,00"
    },{
      "rbr": 5,
      "naziv": "VIKTORIJA ROGIĆ",
      "glasova": 1,
      "posto": "3,84"
    },{
      "rbr": 6,
      "naziv": "SABRINA PEJIĆ",
      "glasova": 2,
      "posto": "7,69"
    },{
      "rbr": 7,
      "naziv": "MAJA LINIĆ",
      "glasova": 0,
      "posto": "0,00"
    },{
      "rbr": 8,
      "naziv": "ARIJANA MRZLJAK",
      "glasova": 0,
      "posto": "0,00"
    },{
      "rbr": 9,
      "naziv": "DAVORKA ŠUŠNJIĆ",
      "glasova": 7,
      "posto": "26,92"
    },{
      "rbr": 10,
      "naziv": "ZVONIMIR CRNOGORAC",
      "glasova": 5,
      "posto": "19,23"
    },{
      "rbr": 11,
      "naziv": "GRETA BURŠIĆ",
      "glasova": 0,
      "posto": "0,00"
    },{
      "rbr": 12,
      "naziv": "MARKO LESKOVAR",
      "glasova": 0,
      "posto": "0,00"
    },{
      "rbr": 13,
      "naziv": "IRENA PEJAKOVIĆ",
      "glasova": 0,
      "posto": "0,00"
    },{
      "rbr": 14,
      "naziv": "DANIJEL TUŠAK",
      "glasova": 0,
      "posto": "0,00"
    }]
  },{
    "rbr": 15,
    "stranke": [
      {"naziv": "HRVATSKA DEMOKRATSKA ZAJEDNICA - HDZ"},
      {"naziv": "HRVATSKA SOCIJALNO - LIBERALNA STRANKA - HSLS"},
      {"naziv": "HRVATSKA DEMOKRŠĆANSKA STRANKA - HDS"},
      {"naziv": "HRVATSKA NARODNA STRANKA - LIBERALNI DEMOKRATI - HNS"},
      {"naziv": "HRVATSKA STRANKA UMIROVLJENIKA - HSU"}
    ],
    "jedinstvenaSifra": "001002003011023",
    "glasova": 20,
    "naziv": "HDZ, HSLS, HDS, HNS, HSU",
    "posto": "0,73",
    "lista": [{
      "rbr": 1,
      "naziv": "TOMO MEDVED",
      "glasova": 9,
      "posto": "45,00"
    },{
      "rbr": 2,
      "naziv": "IVAN CELJAK",
      "glasova": 6,
      "posto": "30,00"
    },{
      "rbr": 3,
      "naziv": "MARTINA FURDEK-HAJDIN",
      "glasova": 1,
      "posto": "5,00"
    },{
      "rbr": 4,
      "naziv": "MARIJANA PETIR",
      "glasova": 0,
      "posto": "0,00"
    },{
      "rbr": 5,
      "naziv": "ERNEST PETRY",
      "glasova": 4,
      "posto": "20,00"
    },{
      "rbr": 6,
      "naziv": "VESELKO GABRIČEVIĆ",
      "glasova": 0,
      "posto": "0,00"
    },{
      "rbr": 7,
      "naziv": "NIKOLINA BRNJAC",
      "glasova": 0,
      "posto": "0,00"
    },{
      "rbr": 8,
      "naziv": "MAJDA BURIĆ",
      "glasova": 0,
      "posto": "0,00"
    },{
      "rbr": 9,
      "naziv": "RADE ŠIMIČEVIĆ",
      "glasova": 0,
      "posto": "0,00"
    },{
      "rbr": 10,
      "naziv": "MAGDALENA KOMES",
      "glasova": 0,
      "posto": "0,00"
    },{
      "rbr": 11,
      "naziv": "DAMIR MANDIĆ",
      "glasova": 0,
      "posto": "0,00"
    },{
      "rbr": 12,
      "naziv": "ANĐELKA SALOPEK",
      "glasova": 0,
      "posto": "0,00"
    },{
      "rbr": 13,
      "naziv": "SANJA MIOKOVIĆ",
      "glasova": 0,
      "posto": "0,00"
    },{
      "rbr": 14,
      "naziv": "IVAN DABO",
      "glasova": 0,
      "posto": "0,00"
    }]
  },{
    "rbr": 16,
    "stranke": [
      {"naziv": "SOCIJALDEMOKRATI"},
      {"naziv": "HRVATSKI LABURISTI - STRANKA RADA - LABURISTI"},
      {"naziv": "DEMOKRATI"}
    ],
    "jedinstvenaSifra": "100251299",
    "glasova": 20,
    "naziv": "SOCIJALDEMOKRATI, LABURISTI, DEMOKRATI",
    "posto": "0,73",
    "lista": [{
      "rbr": 1,
      "naziv": "NATAŠA NOVAKOVIĆ",
      "glasova": 9,
      "posto": "45,00"
    },{
      "rbr": 2,
      "naziv": "DAVID BREGOVAC",
      "glasova": 6,
      "posto": "30,00"
    },{
      "rbr": 3,
      "naziv": "TOMISLAV ZRINSKI",
      "glasova": 1,
      "posto": "5,00"
    },{
      "rbr": 4,
      "naziv": "KATARINA PLEŠA JAKOVLJEVIĆ",
      "glasova": 0,
      "posto": "0,00"
    },{
      "rbr": 5,
      "naziv": "DALIBOR ŽILJAK",
      "glasova": 4,
      "posto": "20,00"
    },{
      "rbr": 6,
      "naziv": "TIHANA POCHOBRADSKY",
      "glasova": 0,
      "posto": "0,00"
    },{
      "rbr": 7,
      "naziv": "MOMIR RAJŠIĆ",
      "glasova": 0,
      "posto": "0,00"
    },{
      "rbr": 8,
      "naziv": "TANJA JOVIĆ",
      "glasova": 0,
      "posto": "0,00"
    },{
      "rbr": 9,
      "naziv": "LUKA PAVLOVIĆ",
      "glasova": 0,
      "posto": "0,00"
    },{
      "rbr": 10,
      "naziv": "JURICA KLARIĆ",
      "glasova": 0,
      "posto": "0,00"
    },{
      "rbr": 11,
      "naziv": "KRISTINA KOSTADINOVSKA",
      "glasova": 0,
      "posto": "0,00"
    },{
      "rbr": 12,
      "naziv": "TAMARA VIDAČEK",
      "glasova": 0,
      "posto": "0,00"
    },{
      "rbr": 13,
      "naziv": "BOŽIDAR RAUCH",
      "glasova": 0,
      "posto": "0,00"
    },{
      "rbr": 14,
      "naziv": "BRANKO KUKURIN",
      "glasova": 0,
      "posto": "0,00"
    }]
  }]
}
