{
  "izbori": "Zastupnički izbori 2024",
  "datum": "15.04.2024.",
  "vrijeme": "15:30",
  "izboriOznaka": "02",
  "ijSifra": "008",
  "bmSifra": "000",
  "ijNaziv": "VIII. IZBORNA JEDINICA",
  "gropNaziv": "CRIKVENICA",
  "bmNaziv": "",
  "bmZatvoreno": 6,
  "bmUkupno": 9,
  "biraciUkupno": 7260,
  "biraciGlasovalo": 2761,
  "biraciGlasovaloPosto": "38,03",
  "listiciUkupno": 2761,
  "listiciVazeci": 2709,
  "listiciVazeciPosto": "98,12",
  "listiciNevazeci": 52,
  "listiciNevazeciPosto": "1,88",
  "napomena": "* - objavljeni rezultati sadrže podatke samo s redovnih biračkih mjesta",
  "napomena2": "",
  "lista": [{
    "rbr": 1,
    "stranke": [
      {"naziv": "SOCIJALISTIČKA RADNIČKA PARTIJA HRVATSKE - SRP"}
    ],
    "jedinstvenaSifra": "029",
    "glasova": 684,
    "naziv": "SRP",
    "posto": "25,24",
    "lista": [{
      "rbr": 1,
      "naziv": "VLADIMIR KAPURALIN",
      "glasova": 133,
      "posto": "19,44"
    },{
      "rbr": 2,
      "naziv": "DAVOR RAKIĆ",
      "glasova": 85,
      "posto": "12,42"
    },{
      "rbr": 3,
      "naziv": "ULIANA MOSCARDA",
      "glasova": 64,
      "posto": "9,35"
    },{
      "rbr": 4,
      "naziv": "MILOŠ MITROVIĆ",
      "glasova": 43,
      "posto": "6,28"
    },{
      "rbr": 5,
      "naziv": "RANKA ČIČOVAČKI",
      "glasova": 78,
      "posto": "11,40"
    },{
      "rbr": 6,
      "naziv": "LUCA ANTONIO ŠURAN",
      "glasova": 37,
      "posto": "5,40"
    },{
      "rbr": 7,
      "naziv": "RUŽA KNEŽEVIĆ",
      "glasova": 22,
      "posto": "3,21"
    },{
      "rbr": 8,
      "naziv": "MARIN BRKLJAČA",
      "glasova": 10,
      "posto": "1,46"
    },{
      "rbr": 9,
      "naziv": "DANICA OBREZA",
      "glasova": 10,
      "posto": "1,46"
    },{
      "rbr": 10,
      "naziv": "LUKA ERCEGOVIĆ",
      "glasova": 17,
      "posto": "2,48"
    },{
      "rbr": 11,
      "naziv": "ZAHIDA DEDUKIĆ",
      "glasova": 6,
      "posto": "0,87"
    },{
      "rbr": 12,
      "naziv": "SLOBODAN OBREZA",
      "glasova": 12,
      "posto": "1,75"
    },{
      "rbr": 13,
      "naziv": "ILONA ŠIMIČIĆ",
      "glasova": 6,
      "posto": "0,87"
    },{
      "rbr": 14,
      "naziv": "DARKO MILIĆ",
      "glasova": 10,
      "posto": "1,46"
    }]
  },{
    "rbr": 2,
    "stranke": [
      {"naziv": "UMIROVLJENICI ZAJEDNO - POLITIČKA PLATFORMA - UMIROVLJENICI ZAJEDNO"},
      {"naziv": "STRANKA UMIROVLJENIKA - SU"},
      {"naziv": "BLOK UMIROVLJENICI ZAJEDNO - BUZ"},
      {"naziv": "DEMOKRATSKA STRANKA UMIROVLJENIKA - DSU"}
    ],
    "jedinstvenaSifra": "039041102301",
    "glasova": 545,
    "naziv": "UMIROVLJENICI ZAJEDNO, SU, BUZ, DSU",
    "posto": "20,11",
    "lista": [{
      "rbr": 1,
      "naziv": "MARIJA PALAZIOL",
      "glasova": 107,
      "posto": "19,63"
    },{
      "rbr": 2,
      "naziv": "ANĐELKA BIJELONJIĆ",
      "glasova": 69,
      "posto": "12,66"
    },{
      "rbr": 3,
      "naziv": "EUFEMIA MIŠIĆ",
      "glasova": 52,
      "posto": "9,54"
    },{
      "rbr": 4,
      "naziv": "MIRKO BIJELONJIĆ",
      "glasova": 37,
      "posto": "6,78"
    },{
      "rbr": 5,
      "naziv": "DENIS PAULETIĆ",
      "glasova": 64,
      "posto": "11,74"
    },{
      "rbr": 6,
      "naziv": "VLADIMIR ŠIMUNIĆ",
      "glasova": 31,
      "posto": "5,68"
    },{
      "rbr": 7,
      "naziv": "DARKO ŠEGOTA",
      "glasova": 20,
      "posto": "3,66"
    },{
      "rbr": 8,
      "naziv": "BLAŽENKA BERGIĆ",
      "glasova": 9,
      "posto": "1,65"
    },{
      "rbr": 9,
      "naziv": "BRANKO BIJELONJIĆ",
      "glasova": 9,
      "posto": "1,65"
    },{
      "rbr": 10,
      "naziv": "VESNA MATOŠEVIĆ",
      "glasova": 15,
      "posto": "2,75"
    },{
      "rbr": 11,
      "naziv": "ŽELJKO BILIĆ",
      "glasova": 6,
      "posto": "1,10"
    },{
      "rbr": 12,
      "naziv": "CHRISTINE BIBALO-BALAŠKO",
      "glasova": 6,
      "posto": "1,10"
    },{
      "rbr": 13,
      "naziv": "MILORAD KARDUM",
      "glasova": 9,
      "posto": "1,65"
    },{
      "rbr": 14,
      "naziv": "JOSIP PULIĆ",
      "glasova": 6,
      "posto": "1,10"
    }]
  },{
    "rbr": 3,
    "stranke": [
      {"naziv": "AUTOHTONA - HRVATSKA STRANKA PRAVA - DRAŽEN KELEMINEC - A - HSP - Dražen Keleminec"}
    ],
    "jedinstvenaSifra": "049",
    "glasova": 522,
    "naziv": "A - HSP - Dražen Keleminec",
    "posto": "19,26",
    "lista": [{
      "rbr": 1,
      "naziv": "JURE HULJEV",
      "glasova": 102,
      "posto": "19,54"
    },{
      "rbr": 2,
      "naziv": "DALIBOR FUĆAK",
      "glasova": 92,
      "posto": "17,62"
    },{
      "rbr": 3,
      "naziv": "ANDRIJA ŠKRIBULJA",
      "glasova": 102,
      "posto": "19,54"
    },{
      "rbr": 4,
      "naziv": "VJEKOSLAV JOVIĆ",
      "glasova": 35,
      "posto": "6,70"
    },{
      "rbr": 5,
      "naziv": "ANKA ĐURIŠIĆ",
      "glasova": 19,
      "posto": "3,63"
    },{
      "rbr": 6,
      "naziv": "ZLATKO OREŠKOVIĆ",
      "glasova": 29,
      "posto": "5,55"
    },{
      "rbr": 7,
      "naziv": "TIHOMIR MESAROV",
      "glasova": 40,
      "posto": "7,66"
    },{
      "rbr": 8,
      "naziv": "ZORAN ŠAJKOVIĆ",
      "glasova": 50,
      "posto": "9,57"
    },{
      "rbr": 9,
      "naziv": "SENKA DURDOV",
      "glasova": 6,
      "posto": "1,14"
    },{
      "rbr": 10,
      "naziv": "HRVOJE DRAGANIĆ",
      "glasova": 12,
      "posto": "2,29"
    },{
      "rbr": 11,
      "naziv": "TOMISLAV RUKAVINA",
      "glasova": 16,
      "posto": "3,06"
    },{
      "rbr": 12,
      "naziv": "MILAN ŽUFIKA",
      "glasova": 3,
      "posto": "0,57"
    },{
      "rbr": 13,
      "naziv": "ZORAN POSTRUŽIN",
      "glasova": 8,
      "posto": "1,53"
    },{
      "rbr": 14,
      "naziv": "MIRKO KOROŠEC",
      "glasova": 5,
      "posto": "0,95"
    }]
  },{
    "rbr": 4,
    "stranke": [
      {"naziv": "RADNIČKA FRONTA - RF"}
    ],
    "jedinstvenaSifra": "168",
    "glasova": 166,
    "naziv": "RF",
    "posto": "6,12",
    "lista": [{
      "rbr": 1,
      "naziv": "KATARINA PEOVIĆ",
      "glasova": 35,
      "posto": "21,08"
    },{
      "rbr": 2,
      "naziv": "GORAN MATIĆ",
      "glasova": 31,
      "posto": "18,67"
    },{
      "rbr": 3,
      "naziv": "KARIN GRGOROVIĆ",
      "glasova": 35,
      "posto": "21,08"
    },{
      "rbr": 4,
      "naziv": "BORIS KAPURALIN",
      "glasova": 12,
      "posto": "7,22"
    },{
      "rbr": 5,
      "naziv": "DUBRAVKA KOVAČEVIĆ",
      "glasova": 5,
      "posto": "3,01"
    },{
      "rbr": 6,
      "naziv": "ENIS ČAUŠEVIĆ",
      "glasova": 10,
      "posto": "6,02"
    },{
      "rbr": 7,
      "naziv": "GORDANA VUDRAGOVIĆ",
      "glasova": 15,
      "posto": "9,03"
    },{
      "rbr": 8,
      "naziv": "NIJAZ DELIĆ",
      "glasova": 18,
      "posto": "10,84"
    },{
      "rbr": 9,
      "naziv": "NATALIJA STEFANOVIĆ",
      "glasova": 0,
      "posto": "0,00"
    },{
      "rbr": 10,
      "naziv": "BOJAN BIRK",
      "glasova": 1,
      "posto": "0,60"
    },{
      "rbr": 11,
      "naziv": "BISERKA MOMČINOVIĆ",
      "glasova": 4,
      "posto": "2,40"
    },{
      "rbr": 12,
      "naziv": "ALEKSANDAR ALOBIĆ",
      "glasova": 0,
      "posto": "0,00"
    },{
      "rbr": 13,
      "naziv": "IZVOR RUKAVINA",
      "glasova": 0,
      "posto": "0,00"
    },{
      "rbr": 14,
      "naziv": "LEMS JERIN",
      "glasova": 0,
      "posto": "0,00"
    }]
  },{
    "rbr": 5,
    "stranke": [
      {"naziv": "HRVATSKA STRANKA PRAVA - HSP"},
      {"naziv": "HRVATSKO BILO"},
      {"naziv": "HRVATSKA DEMOKRATSKA SELJAČKA STRANKA - HDSS"}
    ],
    "jedinstvenaSifra": "007018308",
    "glasova": 145,
    "naziv": "HSP, HRVATSKO BILO, HDSS",
    "posto": "5,35",
    "lista": [{
      "rbr": 1,
      "naziv": "MARIN BUBANJ",
      "glasova": 31,
      "posto": "21,37"
    },{
      "rbr": 2,
      "naziv": "STIPICA BAŠKARAD",
      "glasova": 20,
      "posto": "13,79"
    },{
      "rbr": 3,
      "naziv": "NIKO PUŠELJA",
      "glasova": 16,
      "posto": "11,03"
    },{
      "rbr": 4,
      "naziv": "GABRIJELA ANIČIĆ",
      "glasova": 11,
      "posto": "7,58"
    },{
      "rbr": 5,
      "naziv": "ELVIRA MARIĆ",
      "glasova": 19,
      "posto": "13,10"
    },{
      "rbr": 6,
      "naziv": "TATJANA SMOJVER-SILOV",
      "glasova": 11,
      "posto": "7,58"
    },{
      "rbr": 7,
      "naziv": "DANICA MARKOVIĆ",
      "glasova": 6,
      "posto": "4,13"
    },{
      "rbr": 8,
      "naziv": "LJUBICA ŠEVERDIJA",
      "glasova": 4,
      "posto": "2,75"
    },{
      "rbr": 9,
      "naziv": "NIVES KLJAJIĆ",
      "glasova": 4,
      "posto": "2,75"
    },{
      "rbr": 10,
      "naziv": "DUBRAVKO MARŠAL",
      "glasova": 6,
      "posto": "4,13"
    },{
      "rbr": 11,
      "naziv": "SLAVKO VRBAN",
      "glasova": 1,
      "posto": "0,68"
    },{
      "rbr": 12,
      "naziv": "MIROSLAV MARKOVIĆ",
      "glasova": 6,
      "posto": "4,13"
    },{
      "rbr": 13,
      "naziv": "DEJAN ILIJIĆ",
      "glasova": 5,
      "posto": "3,44"
    },{
      "rbr": 14,
      "naziv": "ROBERT CIFREK",
      "glasova": 3,
      "posto": "2,06"
    }]
  },{
    "rbr": 6,
    "stranke": [
      {"naziv": "STRANKA IVANA PERNARA"}
    ],
    "jedinstvenaSifra": "259",
    "glasova": 139,
    "naziv": "STRANKA IVANA PERNARA",
    "posto": "5,13",
    "lista": [{
      "rbr": 1,
      "naziv": "IVANA ŠAIN",
      "glasova": 29,
      "posto": "20,86"
    },{
      "rbr": 2,
      "naziv": "VLADIMIR LEON KELLER",
      "glasova": 27,
      "posto": "19,42"
    },{
      "rbr": 3,
      "naziv": "DENI RAKOVIĆ",
      "glasova": 29,
      "posto": "20,86"
    },{
      "rbr": 4,
      "naziv": "ANGELINA PRPIĆ",
      "glasova": 11,
      "posto": "7,91"
    },{
      "rbr": 5,
      "naziv": "BENITO LJUBOVIĆ",
      "glasova": 3,
      "posto": "2,15"
    },{
      "rbr": 6,
      "naziv": "ENA BABIĆ",
      "glasova": 10,
      "posto": "7,19"
    },{
      "rbr": 7,
      "naziv": "FILIP MARIĆ",
      "glasova": 12,
      "posto": "8,63"
    },{
      "rbr": 8,
      "naziv": "NINA ŠIMONOVIĆ",
      "glasova": 16,
      "posto": "11,51"
    },{
      "rbr": 9,
      "naziv": "STEFANO VIDONIS",
      "glasova": 0,
      "posto": "0,00"
    },{
      "rbr": 10,
      "naziv": "GORDANA VIDAK",
      "glasova": 0,
      "posto": "0,00"
    },{
      "rbr": 11,
      "naziv": "ROKO ORLOVIĆ",
      "glasova": 2,
      "posto": "1,43"
    },{
      "rbr": 12,
      "naziv": "LEAN MARETIĆ",
      "glasova": 0,
      "posto": "0,00"
    },{
      "rbr": 13,
      "naziv": "DANIJELA HORVAT",
      "glasova": 0,
      "posto": "0,00"
    },{
      "rbr": 14,
      "naziv": "MIRSADA IMŠIROVIĆ",
      "glasova": 0,
      "posto": "0,00"
    }]
  },{
    "rbr": 7,
    "stranke": [
      {"naziv": "MOŽEMO! - POLITIČKA PLATFORMA"}
    ],
    "jedinstvenaSifra": "255",
    "glasova": 137,
    "naziv": "MOŽEMO! - POLITIČKA PLATFORMA",
    "posto": "5,05",
    "lista": [{
      "rbr": 1,
      "naziv": "DUŠICA RADOJČIĆ",
      "glasova": 29,
      "posto": "21,16"
    },{
      "rbr": 2,
      "naziv": "MORENA LEKAN",
      "glasova": 27,
      "posto": "19,70"
    },{
      "rbr": 3,
      "naziv": "NEBOJŠA ZELIČ",
      "glasova": 29,
      "posto": "21,16"
    },{
      "rbr": 4,
      "naziv": "ENNA PEROŠ",
      "glasova": 11,
      "posto": "8,02"
    },{
      "rbr": 5,
      "naziv": "SLAVEN BOLJUN",
      "glasova": 3,
      "posto": "2,18"
    },{
      "rbr": 6,
      "naziv": "IVA DAVORIJA",
      "glasova": 9,
      "posto": "6,56"
    },{
      "rbr": 7,
      "naziv": "HANA PALEKA",
      "glasova": 12,
      "posto": "8,75"
    },{
      "rbr": 8,
      "naziv": "MIHA PAUS",
      "glasova": 16,
      "posto": "11,67"
    },{
      "rbr": 9,
      "naziv": "NOEL MIRKOVIĆ",
      "glasova": 0,
      "posto": "0,00"
    },{
      "rbr": 10,
      "naziv": "ANA FONOVIĆ",
      "glasova": 0,
      "posto": "0,00"
    },{
      "rbr": 11,
      "naziv": "RENATO STANKOVIĆ",
      "glasova": 1,
      "posto": "0,72"
    },{
      "rbr": 12,
      "naziv": "DANIEL ANTUNOVIĆ",
      "glasova": 0,
      "posto": "0,00"
    },{
      "rbr": 13,
      "naziv": "DRAGAN DRUŽETA",
      "glasova": 0,
      "posto": "0,00"
    },{
      "rbr": 14,
      "naziv": "SUZANA JAŠIĆ",
      "glasova": 0,
      "posto": "0,00"
    }]
  },{
    "rbr": 8,
    "stranke": [
      {"naziv": "DOMOVINSKI POKRET - DP"},
      {"naziv": "PRAVO I PRAVDA"}
    ],
    "jedinstvenaSifra": "267312",
    "glasova": 98,
    "naziv": "DP, PRAVO I PRAVDA",
    "posto": "3,61",
    "lista": [{
      "rbr": 1,
      "naziv": "IVAN VILIBOR SINČIĆ",
      "glasova": 22,
      "posto": "22,44"
    },{
      "rbr": 2,
      "naziv": "BOŽANA KRISTIĆ",
      "glasova": 9,
      "posto": "9,18"
    },{
      "rbr": 3,
      "naziv": "MARINA BEG UMILJENOVIĆ",
      "glasova": 0,
      "posto": "0,00"
    },{
      "rbr": 4,
      "naziv": "SNJEŽANA BAŽAJ-BOĆKAI",
      "glasova": 4,
      "posto": "4,08"
    },{
      "rbr": 5,
      "naziv": "MATEA FILIPOVIĆ",
      "glasova": 10,
      "posto": "10,20"
    },{
      "rbr": 6,
      "naziv": "PAOLA VELLICO BATEL",
      "glasova": 12,
      "posto": "12,24"
    },{
      "rbr": 7,
      "naziv": "MILICA ERCEG",
      "glasova": 0,
      "posto": "0,00"
    },{
      "rbr": 8,
      "naziv": "IVICA KRSTAŠ",
      "glasova": 0,
      "posto": "0,00"
    },{
      "rbr": 9,
      "naziv": "RITA UJČIĆ",
      "glasova": 21,
      "posto": "21,42"
    },{
      "rbr": 10,
      "naziv": "MARIJAN ZOVIĆ",
      "glasova": 20,
      "posto": "20,40"
    },{
      "rbr": 11,
      "naziv": "DENI JANKO",
      "glasova": 0,
      "posto": "0,00"
    },{
      "rbr": 12,
      "naziv": "ZORAN STJEPANOVIĆ",
      "glasova": 0,
      "posto": "0,00"
    },{
      "rbr": 13,
      "naziv": "FRANJO BARTOLAC",
      "glasova": 0,
      "posto": "0,00"
    },{
      "rbr": 14,
      "naziv": "DAVOR POPOVIĆ",
      "glasova": 0,
      "posto": "0,00"
    }]
  },{
    "rbr": 9,
    "stranke": [
      {"naziv": "MOST"},
      {"naziv": "HRVATSKI SUVERENISTI"},
      {"naziv": "HRVATSKA KONZERVATIVNA STRANKA - HKS"},
      {"naziv": "NEZAVISNA LISTA MLADIH - NLM"}
    ],
    "jedinstvenaSifra": "131165188263",
    "glasova": 85,
    "naziv": "MOST, HRVATSKI SUVERENISTI, HKS, NLM",
    "posto": "3,13",
    "lista": [{
      "rbr": 1,
      "naziv": "MARIN MILETIĆ",
      "glasova": 20,
      "posto": "23,52"
    },{
      "rbr": 2,
      "naziv": "IVAN VIDOVIĆ",
      "glasova": 12,
      "posto": "14,11"
    },{
      "rbr": 3,
      "naziv": "PETRA MANDIĆ",
      "glasova": 10,
      "posto": "11,76"
    },{
      "rbr": 4,
      "naziv": "LUKA JAKOPOVIĆ",
      "glasova": 7,
      "posto": "8,23"
    },{
      "rbr": 5,
      "naziv": "SILVIJA TERLEVIĆ",
      "glasova": 12,
      "posto": "14,11"
    },{
      "rbr": 6,
      "naziv": "MARIJAN ŠEGOTA",
      "glasova": 7,
      "posto": "8,23"
    },{
      "rbr": 7,
      "naziv": "SABINA MAROV",
      "glasova": 6,
      "posto": "7,05"
    },{
      "rbr": 8,
      "naziv": "BORIS ADŽIĆ",
      "glasova": 3,
      "posto": "3,52"
    },{
      "rbr": 9,
      "naziv": "JELENA ALESSIO",
      "glasova": 0,
      "posto": "0,00"
    },{
      "rbr": 10,
      "naziv": "VERICA ĆORKOVIĆ",
      "glasova": 4,
      "posto": "4,70"
    },{
      "rbr": 11,
      "naziv": "ORHAN SALI",
      "glasova": 0,
      "posto": "0,00"
    },{
      "rbr": 12,
      "naziv": "IZABELA ĐAKOVIĆ",
      "glasova": 4,
      "posto": "4,70"
    },{
      "rbr": 13,
      "naziv": "ALEKSANDAR-SAŠA MILAKOVIĆ",
      "glasova": 0,
      "posto": "0,00"
    },{
      "rbr": 14,
      "naziv": "JOSIP KATALINIĆ",
      "glasova": 0,
      "posto": "0,00"
    }]
  },{
    "rbr": 10,
    "stranke": [
      {"naziv": "ISTARSKI DEMOKRATSKI SABOR - IDS"},
      {"naziv": "PRIMORSKO GORANSKI SAVEZ - PGS"},
      {"naziv": "UNIJA KVARNERA - UNIJA"},
      {"naziv": "ISTARSKA STRANKA UMIROVLJENIKA - PARTITO ISTRIANO DEI PENSIONATI - ISU - PIP"},
      {"naziv": "SOCIJALDEMOKRATI"},
      {"naziv": "NARODNA STRANKA - REFORMISTI - REFORMISTI"},
      {"naziv": "DEMOKRATI"},
      {"naziv": "HRVATSKI LABURISTI - STRANKA RADA - LABURISTI"}
    ],
    "jedinstvenaSifra": "005006100121162241251299",
    "glasova": 59,
    "naziv": "IDS, PGS, UNIJA, ISU - PIP, SOCIJALDEMOKRATI, REFORMISTI, DEMOKRATI, LABURISTI",
    "posto": "2,17",
    "lista": [{
      "rbr": 1,
      "naziv": "DALIBOR PAUS",
      "glasova": 14,
      "posto": "23,72"
    },{
      "rbr": 2,
      "naziv": "DARIJO VASILIĆ",
      "glasova": 10,
      "posto": "16,94"
    },{
      "rbr": 3,
      "naziv": "VALTER GLAVIČIĆ",
      "glasova": 8,
      "posto": "13,55"
    },{
      "rbr": 4,
      "naziv": "LORIS PERŠURIĆ",
      "glasova": 6,
      "posto": "10,16"
    },{
      "rbr": 5,
      "naziv": "HELGA MOŽÉ",
      "glasova": 10,
      "posto": "16,94"
    },{
      "rbr": 6,
      "naziv": "EMIL DAUS",
      "glasova": 5,
      "posto": "8,47"
    },{
      "rbr": 7,
      "naziv": "TAJANA MASOVČIĆ",
      "glasova": 5,
      "posto": "8,47"
    },{
      "rbr": 8,
      "naziv": "LJILJANA MILOŠ",
      "glasova": 0,
      "posto": "0,00"
    },{
      "rbr": 9,
      "naziv": "TEA MIČIĆ BADURINA",
      "glasova": 0,
      "posto": "0,00"
    },{
      "rbr": 10,
      "naziv": "ANTEO MILOS",
      "glasova": 1,
      "posto": "1,69"
    },{
      "rbr": 11,
      "naziv": "KATARINA NEMET",
      "glasova": 0,
      "posto": "0,00"
    },{
      "rbr": 12,
      "naziv": "SENKA ŠUBAT",
      "glasova": 0,
      "posto": "0,00"
    },{
      "rbr": 13,
      "naziv": "MARKO PALIAGA",
      "glasova": 0,
      "posto": "0,00"
    },{
      "rbr": 14,
      "naziv": "MARKO BORAS MANDIĆ",
      "glasova": 0,
      "posto": "0,00"
    }]
  },{
    "rbr": 11,
    "stranke": [
      {"naziv": "SOCIJALDEMOKRATSKA PARTIJA HRVATSKE - SDP"},
      {"naziv": "CENTAR"},
      {"naziv": "HRVATSKA SELJAČKA STRANKA - HSS"},
      {"naziv": "\"DALIJA OREŠKOVIĆ I LJUDI S IMENOM I PREZIMENOM\" - \"DO i SIP\""},
      {"naziv": "GRAĐANSKO-LIBERALNI SAVEZ - GLAS"}
    ],
    "jedinstvenaSifra": "004017179244306",
    "glasova": 52,
    "naziv": "SDP, CENTAR, HSS, \"DO i SIP\", GLAS",
    "posto": "1,91",
    "lista": [{
      "rbr": 1,
      "naziv": "PEĐA GRBIN",
      "glasova": 12,
      "posto": "23,07"
    },{
      "rbr": 2,
      "naziv": "MIRELA AHMETOVIĆ",
      "glasova": 11,
      "posto": "21,15"
    },{
      "rbr": 3,
      "naziv": "ZLATKO KOMADINA",
      "glasova": 12,
      "posto": "23,07"
    },{
      "rbr": 4,
      "naziv": "SANJA RADOLOVIĆ",
      "glasova": 4,
      "posto": "7,69"
    },{
      "rbr": 5,
      "naziv": "SAŠA ĐUJIĆ",
      "glasova": 0,
      "posto": "0,00"
    },{
      "rbr": 6,
      "naziv": "ANA PUŽ KUKULJAN",
      "glasova": 2,
      "posto": "3,84"
    },{
      "rbr": 7,
      "naziv": "MARIN RAČIĆ",
      "glasova": 5,
      "posto": "9,61"
    },{
      "rbr": 8,
      "naziv": "SLOBODAN FRUK",
      "glasova": 6,
      "posto": "11,53"
    },{
      "rbr": 9,
      "naziv": "MARKO FERENAC",
      "glasova": 0,
      "posto": "0,00"
    },{
      "rbr": 10,
      "naziv": "MARIA BLAŽINA",
      "glasova": 0,
      "posto": "0,00"
    },{
      "rbr": 11,
      "naziv": "KRISTIAN ČARAPIĆ",
      "glasova": 0,
      "posto": "0,00"
    },{
      "rbr": 12,
      "naziv": "BOJANA PUZIGAĆA",
      "glasova": 0,
      "posto": "0,00"
    },{
      "rbr": 13,
      "naziv": "NADJA POROPAT",
      "glasova": 0,
      "posto": "0,00"
    },{
      "rbr": 14,
      "naziv": "ŽELJKO JOVANOVIĆ",
      "glasova": 0,
      "posto": "0,00"
    }]
  },{
    "rbr": 12,
    "stranke": [
      {"naziv": "FOKUS"},
      {"naziv": "REPUBLIKA"}
    ],
    "jedinstvenaSifra": "270310",
    "glasova": 36,
    "naziv": "FOKUS, REPUBLIKA",
    "posto": "1,32",
    "lista": [{
      "rbr": 1,
      "naziv": "GORDANA DERANJA",
      "glasova": 10,
      "posto": "27,77"
    },{
      "rbr": 2,
      "naziv": "LORAN MILANOVIĆ",
      "glasova": 0,
      "posto": "0,00"
    },{
      "rbr": 3,
      "naziv": "DAMIR PRHAT",
      "glasova": 0,
      "posto": "0,00"
    },{
      "rbr": 4,
      "naziv": "DAMIR GRÜNBAUM",
      "glasova": 0,
      "posto": "0,00"
    },{
      "rbr": 5,
      "naziv": "MILAN PERKOVIĆ",
      "glasova": 2,
      "posto": "5,55"
    },{
      "rbr": 6,
      "naziv": "IVA DELLABERNARDINA",
      "glasova": 4,
      "posto": "11,11"
    },{
      "rbr": 7,
      "naziv": "NIKOLINA BENIĆ",
      "glasova": 0,
      "posto": "0,00"
    },{
      "rbr": 8,
      "naziv": "PATRICIJA VANĐELIĆ",
      "glasova": 0,
      "posto": "0,00"
    },{
      "rbr": 9,
      "naziv": "MARIJA VIRKES",
      "glasova": 10,
      "posto": "27,77"
    },{
      "rbr": 10,
      "naziv": "NENAD ŠĆULAC",
      "glasova": 10,
      "posto": "27,77"
    },{
      "rbr": 11,
      "naziv": "DENIS KIŠ",
      "glasova": 0,
      "posto": "0,00"
    },{
      "rbr": 12,
      "naziv": "MARIJA VARŽIĆ GOLUBIĆ",
      "glasova": 0,
      "posto": "0,00"
    },{
      "rbr": 13,
      "naziv": "IGOR LUKEŽ",
      "glasova": 0,
      "posto": "0,00"
    },{
      "rbr": 14,
      "naziv": "ANDREJ RADETIĆ",
      "glasova": 0,
      "posto": "0,00"
    }]
  },{
    "rbr": 13,
    "stranke": [
      {"naziv": "HRVATSKA DEMOKRATSKA ZAJEDNICA - HDZ"},
      {"naziv": "HRVATSKA SOCIJALNO - LIBERALNA STRANKA - HSLS"},
      {"naziv": "HRVATSKA DEMOKRŠĆANSKA STRANKA - HDS"},
      {"naziv": "HRVATSKA NARODNA STRANKA - LIBERALNI DEMOKRATI - HNS"},
      {"naziv": "HRVATSKA STRANKA UMIROVLJENIKA - HSU"}
    ],
    "jedinstvenaSifra": "001002003011023",
    "glasova": 36,
    "naziv": "HDZ, HSLS, HDS, HNS, HSU",
    "posto": "1,32",
    "lista": [{
      "rbr": 1,
      "naziv": "OLEG BUTKOVIĆ",
      "glasova": 10,
      "posto": "27,77"
    },{
      "rbr": 2,
      "naziv": "ANTON KLIMAN",
      "glasova": 6,
      "posto": "16,66"
    },{
      "rbr": 3,
      "naziv": "JOSIP OSTROGOVIĆ",
      "glasova": 0,
      "posto": "0,00"
    },{
      "rbr": 4,
      "naziv": "TOMISLAV KLARIĆ",
      "glasova": 5,
      "posto": "13,88"
    },{
      "rbr": 5,
      "naziv": "IRENA HRSTIĆ",
      "glasova": 5,
      "posto": "13,88"
    },{
      "rbr": 6,
      "naziv": "ALEN RUŽIĆ",
      "glasova": 3,
      "posto": "8,33"
    },{
      "rbr": 7,
      "naziv": "JOSIP BORIĆ",
      "glasova": 6,
      "posto": "16,66"
    },{
      "rbr": 8,
      "naziv": "DAVOR ZUBOVIĆ",
      "glasova": 1,
      "posto": "2,77"
    },{
      "rbr": 9,
      "naziv": "ILIRJANA-CROATA MEDUR",
      "glasova": 0,
      "posto": "0,00"
    },{
      "rbr": 10,
      "naziv": "ANA KUČIĆ",
      "glasova": 0,
      "posto": "0,00"
    },{
      "rbr": 11,
      "naziv": "MARIO BRATULIĆ",
      "glasova": 0,
      "posto": "0,00"
    },{
      "rbr": 12,
      "naziv": "IVAN BUBIĆ",
      "glasova": 0,
      "posto": "0,00"
    },{
      "rbr": 13,
      "naziv": "KRISTJAN STANIČIĆ",
      "glasova": 0,
      "posto": "0,00"
    },{
      "rbr": 14,
      "naziv": "IVAN KIRIN",
      "glasova": 0,
      "posto": "0,00"
    }]
  },{
    "rbr": 14,
    "stranke": [
      {"naziv": "ODLUČNOST I PRAVEDNOST - OIP"}
    ],
    "jedinstvenaSifra": "300",
    "glasova": 5,
    "naziv": "OIP",
    "posto": "0,18",
    "lista": [{
      "rbr": 1,
      "naziv": "HRVOJE ŽUPARIĆ",
      "glasova": 5,
      "posto": "100,00"
    },{
      "rbr": 2,
      "naziv": "ANDRIJA RUŽIĆ",
      "glasova": 0,
      "posto": "0,00"
    },{
      "rbr": 3,
      "naziv": "BOJAN VUKOREPA",
      "glasova": 0,
      "posto": "0,00"
    },{
      "rbr": 4,
      "naziv": "FANI RADOVAN RIGOVIĆ",
      "glasova": 0,
      "posto": "0,00"
    },{
      "rbr": 5,
      "naziv": "TIHOMIR KRALJEVIĆ",
      "glasova": 0,
      "posto": "0,00"
    },{
      "rbr": 6,
      "naziv": "SENAD BEGIĆ",
      "glasova": 0,
      "posto": "0,00"
    },{
      "rbr": 7,
      "naziv": "EDO ŠARUNIĆ",
      "glasova": 0,
      "posto": "0,00"
    },{
      "rbr": 8,
      "naziv": "ANTO LUJIĆ",
      "glasova": 0,
      "posto": "0,00"
    },{
      "rbr": 9,
      "naziv": "ZORAN ANDRIĆ",
      "glasova": 0,
      "posto": "0,00"
    },{
      "rbr": 10,
      "naziv": "TONI GJAJA",
      "glasova": 0,
      "posto": "0,00"
    },{
      "rbr": 11,
      "naziv": "LEONARDO ŠALIĆ",
      "glasova": 0,
      "posto": "0,00"
    },{
      "rbr": 12,
      "naziv": "MILKA LOZIĆ",
      "glasova": 0,
      "posto": "0,00"
    },{
      "rbr": 13,
      "naziv": "MARTA MATANOVIĆ",
      "glasova": 0,
      "posto": "0,00"
    },{
      "rbr": 14,
      "naziv": "VESNA JAKOPOVIĆ",
      "glasova": 0,
      "posto": "0,00"
    }]
  }]
}
